VOLTS,CURRNT_NAMP,TEMP_DEGC,AIR_TEMP_DEGC,RH_PRCNT
-3.95E-03,-1.00E+03,4.30E+04,-9.90E+01,-9.90E+01
-3.55E-03,-9.00E+02,2.00E+01,-9.90E+01,-9.90E+01
-3.16E-03,-8.00E+02,2.00E+01,-9.90E+01,-9.90E+01
-2.75E-03,-7.00E+02,2.00E+01,-9.90E+01,-9.90E+01
-2.35E-03,-6.00E+02,2.00E+01,-9.90E+01,-9.90E+01
-1.96E-03,-5.00E+02,2.00E+01,-9.90E+01,-9.90E+01
-1.56E-03,-4.00E+02,2.00E+01,-9.90E+01,-9.90E+01
-1.16E-03,-3.00E+02,2.00E+01,-9.90E+01,-9.90E+01
-7.60E-04,-2.00E+02,2.00E+01,-9.90E+01,-9.90E+01
-3.90E-04,-1.00E+02,2.00E+01,-9.90E+01,-9.90E+01
3.00E-05,0.00E+00,2.00E+01,-9.90E+01,-9.90E+01
4.80E-04,1.00E+02,2.00E+01,-9.90E+01,-9.90E+01
8.30E-04,2.00E+02,2.00E+01,-9.90E+01,-9.90E+01
1.23E-03,3.00E+02,2.00E+01,-9.90E+01,-9.90E+01
1.64E-03,4.00E+02,2.00E+01,-9.90E+01,-9.90E+01
2.04E-03,5.00E+02,2.00E+01,-9.90E+01,-9.90E+01
2.44E-03,6.00E+02,2.00E+01,-9.90E+01,-9.90E+01
2.84E-03,7.00E+02,2.00E+01,-9.90E+01,-9.90E+01
3.25E-03,8.00E+02,2.00E+01,-9.90E+01,-9.90E+01
3.65E-03,9.00E+02,2.00E+01,-9.90E+01,-9.90E+01
4.05E-03,1.00E+03,2.00E+01,-9.90E+01,-9.90E+01
