﻿VOLTS,CAPCTNC_PFRD,RESSTNC_MOHM,TEMP_DEGC,AIR_TEMP_DEGC,RH_PRCNT
-5.00E+00,4.39E+1,1.25E+00,2.00E+01,2.45E+01,0.00E+00
-4.90E+00,4.44E+1,1.20E+00,2.00E+01,2.45E+01,0.00E+00
-4.80E+00,4.48E+1,1.15E+00,2.00E+01,2.45E+01,0.00E+00
-4.70E+00,4.52E+1,1.10E+00,2.00E+01,2.45E+01,0.00E+00
-4.60E+00,4.56E+1,1.06E+00,2.00E+01,2.45E+01,0.00E+00
-4.50E+00,4.59E+1,1.02E+00,2.00E+01,2.45E+01,0.00E+00
-4.40E+00,4.62E+1,9.85E-01,2.00E+01,2.45E+01,0.00E+00
-4.30E+00,4.65E+1,9.52E-01,2.00E+01,2.45E+01,0.00E+00
-4.20E+00,4.67E+1,9.25E-01,2.00E+01,2.45E+01,0.00E+00
-4.10E+00,4.70E+1,8.99E-01,2.00E+01,2.45E+01,0.00E+00
-4.00E+00,4.71E+1,8.77E-01,2.00E+01,2.45E+01,0.00E+00
-3.90E+00,4.73E+1,8.57E-01,2.00E+01,2.45E+01,0.00E+00
-3.80E+00,4.74E+1,8.41E-01,2.00E+01,2.45E+01,0.00E+00
-3.70E+00,4.74E+1,8.29E-01,2.00E+01,2.45E+01,0.00E+00
-3.60E+00,4.74E+1,8.20E-01,2.00E+01,2.45E+01,0.00E+00
-3.50E+00,4.74E+1,8.13E-01,2.00E+01,2.44E+01,0.00E+00
-3.40E+00,4.74E+1,8.09E-01,2.00E+01,2.45E+01,0.00E+00
-3.30E+00,4.74E+1,8.07E-01,2.00E+01,2.45E+01,0.00E+00
-3.20E+00,4.73E+1,8.05E-01,2.00E+01,2.45E+01,0.00E+00
-3.10E+00,4.73E+1,8.05E-01,2.00E+01,2.45E+01,0.00E+00
-3.00E+00,4.72E+1,8.05E-01,2.00E+01,2.45E+01,0.00E+00
-2.90E+00,4.72E+1,8.05E-01,2.00E+01,2.45E+01,0.00E+00
-2.80E+00,4.71E+1,8.06E-01,2.00E+01,2.45E+01,0.00E+00
-2.70E+00,4.71E+1,8.07E-01,2.00E+01,2.45E+01,0.00E+00
-2.60E+00,4.70E+1,8.08E-01,2.00E+01,2.44E+01,0.00E+00
-2.50E+00,4.69E+1,8.09E-01,2.00E+01,2.45E+01,0.00E+00
-2.40E+00,4.69E+1,8.10E-01,2.00E+01,2.45E+01,0.00E+00
-2.30E+00,4.68E+1,8.11E-01,2.00E+01,2.45E+01,0.00E+00
-2.20E+00,4.67E+1,8.12E-01,2.00E+01,2.45E+01,0.00E+00
-2.10E+00,4.67E+1,8.13E-01,2.00E+01,2.45E+01,0.00E+00
-2.00E+00,4.66E+1,8.15E-01,2.00E+01,2.45E+01,0.00E+00
-1.90E+00,4.65E+1,8.16E-01,2.00E+01,2.45E+01,0.00E+00
-1.80E+00,4.64E+1,8.17E-01,2.00E+01,2.45E+01,0.00E+00
-1.70E+00,4.63E+1,8.19E-01,2.00E+01,2.44E+01,0.00E+00
-1.60E+00,4.63E+1,8.20E-01,2.00E+01,2.45E+01,0.00E+00
-1.50E+00,4.62E+1,8.22E-01,2.00E+01,2.45E+01,0.00E+00
-1.40E+00,4.61E+1,8.24E-01,2.00E+01,2.45E+01,0.00E+00
-1.30E+00,4.60E+1,8.26E-01,2.00E+01,2.44E+01,0.00E+00
-1.20E+00,4.59E+1,8.27E-01,2.00E+01,2.45E+01,0.00E+00
-1.10E+00,4.58E+1,8.29E-01,2.00E+01,2.45E+01,0.00E+00
-1.00E+00,4.57E+1,8.31E-01,2.00E+01,2.45E+01,0.00E+00
-9.00E-01,4.56E+1,8.33E-01,2.00E+01,2.45E+01,0.00E+00
-8.00E-01,4.55E+1,8.36E-01,2.00E+01,2.45E+01,0.00E+00
-7.00E-01,4.54E+1,8.38E-01,2.00E+01,2.44E+01,0.00E+00
-6.00E-01,4.53E+1,8.41E-01,2.00E+01,2.44E+01,0.00E+00
-5.00E-01,4.52E+1,8.43E-01,2.00E+01,2.45E+01,0.00E+00
-4.00E-01,4.51E+1,8.46E-01,2.00E+01,2.45E+01,0.00E+00
-3.00E-01,4.49E+1,8.50E-01,2.00E+01,2.45E+01,0.00E+00
-2.00E-01,4.48E+1,8.53E-01,2.00E+01,2.45E+01,0.00E+00
-1.00E-01,4.46E+1,8.57E-01,2.00E+01,2.45E+01,0.00E+00
0.00E+00,4.45E+1,8.61E-01,2.00E+01,2.44E+01,0.00E+00
1.00E-01,4.43E+1,8.65E-01,2.00E+01,2.45E+01,0.00E+00
2.00E-01,4.41E+1,8.70E-01,2.00E+01,2.45E+01,0.00E+00
3.00E-01,4.39E+1,8.75E-01,2.00E+01,2.44E+01,0.00E+00
4.00E-01,4.37E+1,8.81E-01,2.00E+01,2.45E+01,0.00E+00
5.00E-01,4.35E+1,8.88E-01,2.00E+01,2.45E+01,0.00E+00
6.00E-01,4.32E+1,8.95E-01,2.00E+01,2.45E+01,0.00E+00
7.00E-01,4.29E+1,9.04E-01,2.00E+01,2.45E+01,0.00E+00
8.00E-01,4.25E+1,9.15E-01,2.00E+01,2.45E+01,0.00E+00
9.00E-01,4.21E+1,9.27E-01,2.00E+01,2.45E+01,0.00E+00
1.00E+00,4.16E+1,9.43E-01,2.00E+01,2.45E+01,0.00E+00
1.10E+00,4.10E+1,9.64E-01,2.00E+01,2.45E+01,0.00E+00
1.20E+00,4.01E+1,9.93E-01,2.00E+01,2.45E+01,0.00E+00
1.30E+00,3.86E+1,1.04E+00,2.00E+01,2.45E+01,0.00E+00
1.40E+00,3.63E+1,1.14E+00,2.00E+01,2.45E+01,0.00E+00
1.50E+00,3.35E+1,1.37E+00,2.00E+01,2.45E+01,0.00E+00
1.60E+00,3.12E+1,1.84E+00,2.00E+01,2.45E+01,0.00E+00
1.70E+00,2.93E+1,2.72E+00,2.00E+01,2.45E+01,0.00E+00
1.80E+00,2.91E+1,4.16E+00,2.00E+01,2.45E+01,0.00E+00
1.90E+00,3.13E+1,5.57E+00,2.00E+01,2.45E+01,0.00E+00
2.00E+00,3.52E+1,6.68E+00,2.00E+01,2.45E+01,0.00E+00
2.10E+00,4.07E+1,7.78E+00,2.00E+01,2.45E+01,0.00E+00
2.20E+00,4.71E+1,9.10E+00,2.00E+01,2.45E+01,0.00E+00
2.30E+00,5.39E+1,9.31E+00,2.00E+01,2.45E+01,0.00E+00
2.40E+00,6.01E+1,9.02E+00,2.00E+01,2.45E+01,0.00E+00
2.50E+00,6.53E+1,9.26E+00,2.00E+01,2.45E+01,0.00E+00
2.60E+00,6.98E+1,9.29E+00,2.00E+01,2.45E+01,0.00E+00
2.70E+00,7.35E+1,9.32E+00,2.00E+01,2.45E+01,0.00E+00
2.80E+00,7.65E+1,9.61E+00,2.00E+01,2.44E+01,0.00E+00
2.90E+00,7.86E+1,9.58E+00,2.00E+01,2.45E+01,0.00E+00
3.00E+00,8.02E+1,9.13E+00,2.00E+01,2.45E+01,0.00E+00
3.10E+00,8.13E+1,8.77E+00,2.00E+01,2.45E+01,0.00E+00
3.20E+00,8.21E+1,8.59E+00,2.00E+01,2.45E+01,0.00E+00
3.30E+00,8.27E+1,8.48E+00,2.00E+01,2.45E+01,0.00E+00
3.40E+00,8.32E+1,8.41E+00,2.00E+01,2.45E+01,0.00E+00
3.50E+00,8.37E+1,8.36E+00,2.00E+01,2.45E+01,0.00E+00
3.60E+00,8.40E+1,8.28E+00,2.00E+01,2.45E+01,0.00E+00
3.70E+00,8.43E+1,8.21E+00,2.00E+01,2.44E+01,0.00E+00
3.80E+00,8.45E+1,8.14E+00,2.00E+01,2.45E+01,0.00E+00
3.90E+00,8.47E+1,8.07E+00,2.00E+01,2.45E+01,0.00E+00
4.00E+00,8.49E+1,8.09E+00,2.00E+01,2.45E+01,0.00E+00
4.10E+00,8.51E+1,7.92E+00,2.00E+01,2.45E+01,0.00E+00
4.20E+00,8.52E+1,7.85E+00,2.00E+01,2.45E+01,0.00E+00
4.30E+00,8.53E+1,7.80E+00,2.00E+01,2.45E+01,0.00E+00
4.40E+00,8.55E+1,7.76E+00,2.00E+01,2.45E+01,0.00E+00
4.50E+00,8.56E+1,7.74E+00,2.00E+01,2.45E+01,0.00E+00
4.60E+00,8.57E+1,7.72E+00,2.00E+01,2.44E+01,0.00E+00
4.70E+00,8.58E+1,7.70E+00,2.00E+01,2.45E+01,0.00E+00
4.80E+00,8.58E+1,7.69E+00,2.00E+01,2.45E+01,0.00E+00
4.90E+00,8.59E+1,7.68E+00,2.00E+01,2.45E+01,0.00E+00
5.00E+00,8.60E+1,7.66E+00,2.00E+01,2.44E+01,0.00E+00
5.10E+00,8.60E+1,7.66E+00,2.00E+01,2.45E+01,0.00E+00
5.20E+00,8.61E+1,7.65E+00,2.00E+01,2.45E+01,0.00E+00
5.30E+00,8.62E+1,7.64E+00,2.00E+01,2.45E+01,0.00E+00
5.40E+00,8.62E+1,7.63E+00,2.00E+01,2.45E+01,0.00E+00
5.50E+00,8.62E+1,7.62E+00,2.00E+01,2.45E+01,0.00E+00
5.60E+00,8.63E+1,7.71E+00,2.00E+01,2.44E+01,0.00E+00
5.70E+00,8.63E+1,7.62E+00,2.00E+01,2.44E+01,0.00E+00
5.80E+00,8.64E+1,7.62E+00,2.00E+01,2.45E+01,0.00E+00
5.90E+00,8.64E+1,7.63E+00,2.00E+01,2.45E+01,0.00E+00
6.00E+00,8.65E+1,7.61E+00,2.00E+01,2.45E+01,0.00E+00
6.10E+00,8.65E+1,7.61E+00,2.00E+01,2.45E+01,0.00E+00
6.20E+00,8.65E+1,7.61E+00,2.00E+01,2.45E+01,0.00E+00
6.30E+00,8.66E+1,7.63E+00,2.00E+01,2.44E+01,0.00E+00
6.40E+00,8.66E+1,7.63E+00,2.00E+01,2.45E+01,0.00E+00
6.50E+00,8.66E+1,7.60E+00,2.00E+01,2.45E+01,0.00E+00
6.60E+00,8.66E+1,7.60E+00,2.00E+01,2.44E+01,0.00E+00
6.70E+00,8.67E+1,7.61E+00,2.00E+01,2.45E+01,0.00E+00
6.80E+00,8.67E+1,7.59E+00,2.00E+01,2.45E+01,0.00E+00
6.90E+00,8.67E+1,7.61E+00,2.00E+01,2.45E+01,0.00E+00
7.00E+00,8.67E+1,7.64E+00,2.00E+01,2.45E+01,0.00E+00
7.10E+00,8.67E+1,7.59E+00,2.00E+01,2.45E+01,0.00E+00
7.20E+00,8.68E+1,7.59E+00,2.00E+01,2.45E+01,0.00E+00
7.30E+00,8.68E+1,7.59E+00,2.00E+01,2.45E+01,0.00E+00
7.40E+00,8.68E+1,7.59E+00,2.00E+01,2.45E+01,0.00E+00
7.50E+00,8.68E+1,7.58E+00,2.00E+01,2.45E+01,0.00E+00
7.60E+00,8.68E+1,7.68E+00,2.00E+01,2.45E+01,0.00E+00
7.70E+00,8.69E+1,7.58E+00,2.00E+01,2.45E+01,0.00E+00
7.80E+00,8.69E+1,7.59E+00,2.00E+01,2.45E+01,0.00E+00
7.90E+00,8.69E+1,7.58E+00,2.00E+01,2.45E+01,0.00E+00
8.00E+00,8.69E+1,7.59E+00,2.00E+01,2.45E+01,0.00E+00
8.10E+00,8.69E+1,7.62E+00,2.00E+01,2.45E+01,0.00E+00
8.20E+00,8.69E+1,7.61E+00,2.00E+01,2.45E+01,0.00E+00
8.30E+00,8.69E+1,7.68E+00,2.00E+01,2.45E+01,0.00E+00
8.40E+00,8.70E+1,7.58E+00,2.00E+01,2.45E+01,0.00E+00
8.50E+00,8.70E+1,7.58E+00,2.00E+01,2.45E+01,0.00E+00
8.60E+00,8.70E+1,7.58E+00,2.00E+01,2.45E+01,0.00E+00
8.70E+00,8.70E+1,7.59E+00,2.00E+01,2.45E+01,0.00E+00
8.80E+00,8.70E+1,7.58E+00,2.00E+01,2.45E+01,0.00E+00
8.90E+00,8.70E+1,7.59E+00,2.00E+01,2.45E+01,0.00E+00
9.00E+00,8.70E+1,7.62E+00,2.00E+01,2.45E+01,0.00E+00
9.10E+00,8.70E+1,7.58E+00,2.00E+01,2.44E+01,0.00E+00
9.20E+00,8.70E+1,7.67E+00,2.00E+01,2.45E+01,0.00E+00
9.30E+00,8.71E+1,7.57E+00,2.00E+01,2.45E+01,0.00E+00
9.40E+00,8.71E+1,7.57E+00,2.00E+01,2.45E+01,0.00E+00
9.50E+00,8.71E+1,7.61E+00,2.00E+01,2.45E+01,0.00E+00
9.60E+00,8.71E+1,7.58E+00,2.00E+01,2.45E+01,0.00E+00
9.70E+00,8.71E+1,7.58E+00,2.00E+01,2.45E+01,0.00E+00
9.80E+00,8.71E+1,7.59E+00,2.00E+01,2.45E+01,0.00E+00
9.90E+00,8.71E+1,7.58E+00,2.00E+01,2.45E+01,0.00E+00
1.00E+01,8.71E+1,7.58E+00,2.00E+01,2.44E+01,0.00E+00
