VOLTS,CAPCTNC_PFRD,RESSTNC_MOHM,TEMP_DEGC,AIR_TEMP_DEGC,RH_PRCNT
-5.00E+00,2.35,65.17333,4.30E+04,2.44E+01,0.00E+00
-4.90E+00,2.36,64.98993,2.00E+01,2.44E+01,0.00E+00
-4.80E+00,2.36,64.84327,2.00E+01,2.44E+01,0.00E+00
-4.70E+00,2.35,64.4737,2.00E+01,2.44E+01,0.00E+00
-4.60E+00,2.36,64.76013,2.00E+01,2.44E+01,0.00E+00
-4.50E+00,2.36,64.20958,2.00E+01,2.44E+01,0.00E+00
-4.40E+00,2.36,65.45659,2.00E+01,2.44E+01,0.00E+00
-4.30E+00,2.36,65.03684,2.00E+01,2.44E+01,0.00E+00
-4.20E+00,2.36,65.50805,2.00E+01,2.44E+01,0.00E+00
-4.10E+00,2.36,65.1313,2.00E+01,2.44E+01,0.00E+00
-4.00E+00,2.36,65.55701,2.00E+01,2.44E+01,0.00E+00
-3.90E+00,2.36,66.54998,2.00E+01,2.44E+01,0.00E+00
-3.80E+00,2.32,61.04112,2.00E+01,2.44E+01,0.00E+00
-3.70E+00,2.33,64.4629,2.00E+01,2.44E+01,0.00E+00
-3.60E+00,2.33,63.7625,2.00E+01,2.44E+01,0.00E+00
-3.50E+00,2.33,62.52775,2.00E+01,2.44E+01,0.00E+00
-3.40E+00,2.34,60.85094,2.00E+01,2.44E+01,0.00E+00
-3.30E+00,2.34,60.3872,2.00E+01,2.44E+01,0.00E+00
-3.20E+00,2.34,60.57119,2.00E+01,2.44E+01,0.00E+00
-3.10E+00,2.34,59.79967,2.00E+01,2.44E+01,0.00E+00
-3.00E+00,2.34,59.71361,2.00E+01,2.44E+01,0.00E+00
-2.90E+00,2.34,59.55997,2.00E+01,2.44E+01,0.00E+00
-2.80E+00,2.34,59.41735,2.00E+01,2.44E+01,0.00E+00
-2.70E+00,2.34,59.2698,2.00E+01,2.44E+01,0.00E+00
-2.60E+00,2.34,59.23609,2.00E+01,2.44E+01,0.00E+00
-2.50E+00,2.34,59.02003,2.00E+01,2.44E+01,0.00E+00
-2.40E+00,2.34,59.22837,2.00E+01,2.44E+01,0.00E+00
-2.30E+00,2.34,59.58197,2.00E+01,2.44E+01,0.00E+00
-2.20E+00,2.34,60.12434,2.00E+01,2.44E+01,0.00E+00
-2.10E+00,2.34,59.95419,2.00E+01,2.44E+01,0.00E+00
-2.00E+00,2.34,60.6855,2.00E+01,2.44E+01,0.00E+00
-1.90E+00,2.34,60.57632,2.00E+01,2.44E+01,0.00E+00
-1.80E+00,2.34,60.92063,2.00E+01,2.44E+01,0.00E+00
-1.70E+00,2.34,61.16844,2.00E+01,2.44E+01,0.00E+00
-1.60E+00,2.34,60.68329,2.00E+01,2.44E+01,0.00E+00
-1.50E+00,2.34,60.64245,2.00E+01,2.44E+01,0.00E+00
-1.40E+00,2.34,60.86575,2.00E+01,2.44E+01,0.00E+00
-1.30E+00,2.34,60.65716,2.00E+01,2.44E+01,0.00E+00
-1.20E+00,2.34,59.89961,2.00E+01,2.44E+01,0.00E+00
-1.10E+00,2.34,59.76608,2.00E+01,2.44E+01,0.00E+00
-1.00E+00,2.34,60.0478,2.00E+01,2.44E+01,0.00E+00
-9.00E-01,2.34,59.68617,2.00E+01,2.44E+01,0.00E+00
-8.00E-01,2.34,59.40253,2.00E+01,2.44E+01,0.00E+00
-7.00E-01,2.34,59.04931,2.00E+01,2.44E+01,0.00E+00
-6.00E-01,2.34,59.37608,2.00E+01,2.44E+01,0.00E+00
-5.00E-01,2.34,59.65484,2.00E+01,2.44E+01,0.00E+00
-4.00E-01,2.34,59.32958,2.00E+01,2.44E+01,0.00E+00
-3.00E-01,2.35,59.99484,2.00E+01,2.44E+01,0.00E+00
-2.00E-01,2.34,60.03014,2.00E+01,2.44E+01,0.00E+00
-1.00E-01,2.34,60.75925,2.00E+01,2.44E+01,0.00E+00
0.00E+00,2.34,60.6579,2.00E+01,2.44E+01,0.00E+00
1.00E-01,2.34,61.06982,2.00E+01,2.44E+01,0.00E+00
2.00E-01,2.34,60.67078,2.00E+01,2.44E+01,0.00E+00
3.00E-01,2.34,60.76663,2.00E+01,2.44E+01,0.00E+00
4.00E-01,2.34,60.15146,2.00E+01,2.44E+01,0.00E+00
5.00E-01,2.34,60.27401,2.00E+01,2.44E+01,0.00E+00
6.00E-01,2.34,59.82865,2.00E+01,2.44E+01,0.00E+00
7.00E-01,2.34,59.98404,2.00E+01,2.44E+01,0.00E+00
8.00E-01,2.34,59.91648,2.00E+01,2.44E+01,0.00E+00
9.00E-01,2.34,59.33732,2.00E+01,2.44E+01,0.00E+00
1.00E+00,2.34,59.50327,2.00E+01,2.44E+01,0.00E+00
1.10E+00,2.34,59.41347,2.00E+01,2.44E+01,0.00E+00
1.20E+00,2.34,59.31233,2.00E+01,2.44E+01,0.00E+00
1.30E+00,2.34,59.70969,2.00E+01,2.44E+01,0.00E+00
1.40E+00,2.34,59.50185,2.00E+01,2.44E+01,0.00E+00
1.50E+00,2.34,59.51389,2.00E+01,2.44E+01,0.00E+00
1.60E+00,2.34,59.68688,2.00E+01,2.44E+01,0.00E+00
1.70E+00,2.34,60.61782,2.00E+01,2.44E+01,0.00E+00
1.80E+00,2.34,60.74891,2.00E+01,2.44E+01,0.00E+00
1.90E+00,2.34,60.84205,2.00E+01,2.44E+01,0.00E+00
2.00E+00,2.34,60.36752,2.00E+01,2.44E+01,0.00E+00
2.10E+00,2.34,60.94922,2.00E+01,2.44E+01,0.00E+00
2.20E+00,2.34,60.30308,2.00E+01,2.44E+01,0.00E+00
2.30E+00,2.34,60.76257,2.00E+01,2.44E+01,0.00E+00
2.40E+00,2.34,60.23661,2.00E+01,2.44E+01,0.00E+00
2.50E+00,2.34,60.31108,2.00E+01,2.44E+01,0.00E+00
2.60E+00,2.34,59.94665,2.00E+01,2.44E+01,0.00E+00
2.70E+00,2.34,60.01644,2.00E+01,2.44E+01,0.00E+00
2.80E+00,2.34,59.04896,2.00E+01,2.44E+01,0.00E+00
2.90E+00,2.34,59.2951,2.00E+01,2.44E+01,0.00E+00
3.00E+00,2.34,59.01864,2.00E+01,2.44E+01,0.00E+00
3.10E+00,2.34,58.95218,2.00E+01,2.44E+01,0.00E+00
3.20E+00,2.34,59.42088,2.00E+01,2.44E+01,0.00E+00
3.30E+00,2.34,59.44632,2.00E+01,2.44E+01,0.00E+00
3.40E+00,2.34,59.86877,2.00E+01,2.44E+01,0.00E+00
3.50E+00,2.34,59.95132,2.00E+01,2.44E+01,0.00E+00
3.60E+00,2.34,60.48107,2.00E+01,2.44E+01,0.00E+00
3.70E+00,2.34,60.62406,2.00E+01,2.44E+01,0.00E+00
3.80E+00,2.34,60.32527,2.00E+01,2.44E+01,0.00E+00
3.90E+00,2.34,60.32819,2.00E+01,2.44E+01,0.00E+00
4.00E+00,2.34,60.43574,2.00E+01,2.44E+01,0.00E+00
4.10E+00,2.34,60.70171,2.00E+01,2.44E+01,0.00E+00
4.20E+00,2.34,60.04744,2.00E+01,2.44E+01,0.00E+00
4.30E+00,2.34,60.6984,2.00E+01,2.44E+01,0.00E+00
4.40E+00,2.34,60.07774,2.00E+01,2.44E+01,0.00E+00
4.50E+00,2.34,59.3789,2.00E+01,2.44E+01,0.00E+00
4.60E+00,2.34,59.76286,2.00E+01,2.44E+01,0.00E+00
4.70E+00,2.34,59.0385,2.00E+01,2.44E+01,0.00E+00
4.80E+00,2.34,59.12891,2.00E+01,2.44E+01,0.00E+00
4.90E+00,2.34,59.24486,2.00E+01,2.44E+01,0.00E+00
5.00E+00,2.34,59.27647,2.00E+01,2.44E+01,0.00E+00
