﻿VOLTS,CURRNT_NAMP,TEMP_DEGC,AIR_TEMP_DEGC,RH_PRCNT
-2.54E-01,-1.00E+06,2.00E+01,2.46E+01,0.00E+00
-2.41E-01,-9.50E+05,2.00E+01,2.46E+01,0.00E+00
-2.29E-01,-9.00E+05,2.00E+01,2.46E+01,0.00E+00
-2.16E-01,-8.50E+05,2.00E+01,2.47E+01,0.00E+00
-2.03E-01,-8.00E+05,2.00E+01,2.47E+01,0.00E+00
-1.91E-01,-7.50E+05,2.00E+01,2.47E+01,0.00E+00
-1.78E-01,-7.00E+05,2.00E+01,2.46E+01,0.00E+00
-1.65E-01,-6.50E+05,2.00E+01,2.46E+01,0.00E+00
-1.52E-01,-6.00E+05,2.00E+01,2.46E+01,0.00E+00
-1.40E-01,-5.50E+05,2.00E+01,2.46E+01,0.00E+00
-1.27E-01,-5.00E+05,2.00E+01,2.46E+01,0.00E+00
-1.14E-01,-4.50E+05,2.00E+01,2.46E+01,0.00E+00
-1.02E-01,-4.00E+05,2.00E+01,2.47E+01,0.00E+00
-8.89E-02,-3.50E+05,2.00E+01,2.47E+01,0.00E+00
-7.62E-02,-3.00E+05,2.00E+01,2.47E+01,0.00E+00
-6.35E-02,-2.50E+05,2.00E+01,2.46E+01,0.00E+00
-5.08E-02,-2.00E+05,2.00E+01,2.46E+01,0.00E+00
-3.81E-02,-1.50E+05,2.00E+01,2.46E+01,0.00E+00
-2.54E-02,-1.00E+05,2.00E+01,2.47E+01,0.00E+00
-1.27E-02,-5.00E+04,2.00E+01,2.47E+01,0.00E+00
-1.00E-05,0.00E+00,2.00E+01,2.46E+01,0.00E+00
1.27E-02,5.00E+04,2.00E+01,2.46E+01,0.00E+00
2.54E-02,1.00E+05,2.00E+01,2.47E+01,0.00E+00
3.81E-02,1.50E+05,2.00E+01,2.47E+01,0.00E+00
5.08E-02,2.00E+05,2.00E+01,2.47E+01,0.00E+00
6.35E-02,2.50E+05,2.00E+01,2.46E+01,0.00E+00
7.62E-02,3.00E+05,2.00E+01,2.46E+01,0.00E+00
8.89E-02,3.50E+05,2.00E+01,2.46E+01,0.00E+00
1.02E-01,4.00E+05,2.00E+01,2.47E+01,0.00E+00
1.14E-01,4.50E+05,2.00E+01,2.47E+01,0.00E+00
1.27E-01,5.00E+05,2.00E+01,2.47E+01,0.00E+00
1.40E-01,5.50E+05,2.00E+01,2.47E+01,0.00E+00
1.52E-01,6.00E+05,2.00E+01,2.47E+01,0.00E+00
1.65E-01,6.50E+05,2.00E+01,2.47E+01,0.00E+00
1.78E-01,7.00E+05,2.00E+01,2.47E+01,0.00E+00
1.90E-01,7.50E+05,2.00E+01,2.46E+01,0.00E+00
2.03E-01,8.00E+05,2.00E+01,2.46E+01,0.00E+00
2.16E-01,8.50E+05,2.00E+01,2.46E+01,0.00E+00
2.29E-01,9.00E+05,2.00E+01,2.47E+01,0.00E+00
2.41E-01,9.50E+05,2.00E+01,2.47E+01,0.00E+00
2.54E-01,1.00E+06,2.00E+01,2.47E+01,0.00E+00
