﻿VOLTS,CURRNT_NAMP 
-1.40E+01,2.80E-03
-1.39E+01,2.81E-03
-1.38E+01,2.61E-03
-1.37E+01,2.45E-03
-1.36E+01,2.46E-03
-1.35E+01,2.47E-03
-1.34E+01,2.24E-03
-1.33E+01,2.45E-03
-1.32E+01,2.45E-03
-1.31E+01,2.45E-03
-1.30E+01,2.47E-03
-1.29E+01,2.46E-03
-1.28E+01,2.45E-03
-1.27E+01,2.45E-03
-1.26E+01,2.46E-03
-1.25E+01,2.46E-03
-1.24E+01,2.46E-03
-1.23E+01,2.45E-03
-1.22E+01,2.45E-03
-1.21E+01,2.48E-03
-1.20E+01,2.46E-03
-1.19E+01,2.47E-03
-1.18E+01,2.48E-03
-1.17E+01,2.48E-03
-1.16E+01,2.47E-03
-1.15E+01,2.49E-03
-1.14E+01,2.49E-03
-1.13E+01,2.48E-03
-1.12E+01,2.51E-03
-1.11E+01,2.50E-03
-1.10E+01,2.51E-03
-1.09E+01,2.52E-03
-1.08E+01,2.51E-03
-1.07E+01,2.52E-03
-1.06E+01,2.52E-03
-1.05E+01,2.54E-03
-1.04E+01,2.55E-03
-1.03E+01,2.54E-03
-1.02E+01,2.56E-03
-1.01E+01,2.55E-03
-1.00E+01,2.59E-03
-9.90E+00,2.60E-03
-9.80E+00,2.61E-03
-9.70E+00,2.63E-03
-9.60E+00,2.64E-03
-9.50E+00,2.65E-03
-9.40E+00,2.68E-03
-9.30E+00,2.68E-03
-9.20E+00,2.71E-03
-9.10E+00,2.73E-03
-9.00E+00,2.77E-03
-8.90E+00,2.79E-03
-8.80E+00,2.81E-03
-8.70E+00,2.85E-03
-8.60E+00,2.89E-03
-8.50E+00,2.93E-03
-8.40E+00,2.99E-03
-8.30E+00,3.04E-03
-8.20E+00,3.11E-03
-8.10E+00,3.18E-03
-8.00E+00,3.28E-03
-7.90E+00,3.41E-03
-7.80E+00,3.56E-03
-7.70E+00,3.79E-03
-7.60E+00,4.12E-03
-7.50E+00,4.68E-03
-7.40E+00,5.67E-03
-7.30E+00,6.58E-03
-7.20E+00,6.89E-03
-7.10E+00,7.07E-03
-7.00E+00,7.14E-03
-6.90E+00,7.13E-03
-6.80E+00,7.14E-03
-6.70E+00,7.13E-03
-6.60E+00,7.13E-03
-6.50E+00,7.12E-03
-6.40E+00,7.13E-03
-6.30E+00,7.13E-03
-6.20E+00,7.12E-03
-6.10E+00,7.11E-03
-6.00E+00,7.12E-03
-5.90E+00,7.12E-03
-5.80E+00,7.12E-03
-5.70E+00,7.10E-03
-5.60E+00,7.10E-03
-5.50E+00,7.09E-03
-5.40E+00,7.09E-03
-5.30E+00,7.08E-03
-5.20E+00,7.09E-03
-5.10E+00,7.07E-03
-5.00E+00,7.07E-03
-4.90E+00,7.07E-03
-4.80E+00,7.06E-03
-4.70E+00,7.06E-03
-4.60E+00,7.06E-03
-4.50E+00,7.05E-03
-4.40E+00,7.04E-03
-4.30E+00,7.03E-03
-4.20E+00,7.00E-03
-4.10E+00,7.01E-03
-4.00E+00,7.00E-03
-3.90E+00,7.00E-03
-3.80E+00,6.97E-03
-3.70E+00,6.97E-03
-3.60E+00,6.97E-03
-3.50E+00,6.96E-03
-3.40E+00,6.94E-03
-3.30E+00,6.93E-03
-3.20E+00,6.93E-03
-3.10E+00,6.90E-03
-3.00E+00,6.88E-03
-2.90E+00,6.88E-03
-2.80E+00,6.86E-03
-2.70E+00,6.82E-03
-2.60E+00,6.80E-03
-2.50E+00,6.76E-03
-2.40E+00,6.72E-03
-2.30E+00,6.64E-03
-2.20E+00,6.55E-03
-2.10E+00,6.37E-03
-2.00E+00,5.98E-03
-1.90E+00,4.77E-03
-1.80E+00,2.88E-03
-1.70E+00,2.27E-03
-1.60E+00,1.96E-03
-1.50E+00,1.75E-03
-1.40E+00,1.62E-03
-1.30E+00,1.55E-03
-1.20E+00,1.52E-03
-1.10E+00,1.50E-03
-1.00E+00,1.49E-03
-9.00E-01,1.46E-03
-8.00E-01,1.45E-03
-7.00E-01,1.43E-03
-6.00E-01,1.44E-03
-5.00E-01,1.44E-03
-4.00E-01,1.45E-03
-3.00E-01,1.45E-03
-2.00E-01,1.44E-03
-1.00E-01,1.44E-03
0.00E+00,1.46E-03
1.00E-01,1.45E-03
2.00E-01,1.44E-03
3.00E-01,1.44E-03
4.00E-01,1.43E-03
5.00E-01,1.45E-03
6.00E-01,1.45E-03
7.00E-01,1.42E-03
8.00E-01,1.44E-03
9.00E-01,1.42E-03
1.00E+00,1.46E-03
1.10E+00,1.42E-03
1.20E+00,1.44E-03
1.30E+00,1.43E-03
1.40E+00,1.44E-03
1.50E+00,1.42E-03
1.60E+00,1.42E-03
1.70E+00,1.42E-03
1.80E+00,1.42E-03
1.90E+00,1.40E-03
2.00E+00,1.41E-03
2.10E+00,1.41E-03
2.20E+00,1.42E-03
2.30E+00,1.42E-03
2.40E+00,1.42E-03
2.50E+00,1.39E-03
2.60E+00,1.42E-03
2.70E+00,1.40E-03
2.80E+00,1.39E-03
2.90E+00,1.39E-03
3.00E+00,1.42E-03
3.10E+00,1.40E-03
3.20E+00,1.42E-03
3.30E+00,1.38E-03
3.40E+00,1.40E-03
3.50E+00,1.40E-03
3.60E+00,1.40E-03
3.70E+00,1.38E-03
3.80E+00,1.40E-03
3.90E+00,1.39E-03
4.00E+00,1.39E-03
