﻿VOLTS,CURRNT_NAMP,TEMP_DEGC,AIR_TEMP_DEGC,RH_PRCNT
-1.03E-02,-1.00E+02,2.00E+01,2.46E+01,0.00E+00
-9.84E-03,-9.50E+01,2.00E+01,2.46E+01,0.00E+00
-9.37E-03,-9.00E+01,2.00E+01,2.46E+01,0.00E+00
-8.87E-03,-8.50E+01,2.00E+01,2.47E+01,0.00E+00
-8.34E-03,-8.00E+01,2.00E+01,2.47E+01,0.00E+00
-7.84E-03,-7.50E+01,2.00E+01,2.47E+01,0.00E+00
-7.35E-03,-7.00E+01,2.00E+01,2.46E+01,0.00E+00
-6.82E-03,-6.50E+01,2.00E+01,2.46E+01,0.00E+00
-6.29E-03,-6.00E+01,2.00E+01,2.46E+01,0.00E+00
-5.80E-03,-5.50E+01,2.00E+01,2.46E+01,0.00E+00
-5.27E-03,-5.00E+01,2.00E+01,2.46E+01,0.00E+00
-4.76E-03,-4.50E+01,2.00E+01,2.46E+01,0.00E+00
-4.24E-03,-4.00E+01,2.00E+01,2.47E+01,0.00E+00
-3.71E-03,-3.50E+01,2.00E+01,2.47E+01,0.00E+00
-3.19E-03,-3.00E+01,2.00E+01,2.47E+01,0.00E+00
-2.65E-03,-2.50E+01,2.00E+01,2.46E+01,0.00E+00
-2.12E-03,-2.00E+01,2.00E+01,2.46E+01,0.00E+00
-1.58E-03,-1.50E+01,2.00E+01,2.46E+01,0.00E+00
-1.07E-03,-1.00E+01,2.00E+01,2.47E+01,0.00E+00
-5.20E-04,-5.00E+00,2.00E+01,2.47E+01,0.00E+00
3.00E-05,0.00E+00,2.00E+01,2.46E+01,0.00E+00
6.00E-04,5.00E+00,2.00E+01,2.46E+01,0.00E+00
1.17E-03,1.00E+01,2.00E+01,2.47E+01,0.00E+00
1.68E-03,1.50E+01,2.00E+01,2.47E+01,0.00E+00
2.23E-03,2.00E+01,2.00E+01,2.47E+01,0.00E+00
2.79E-03,2.50E+01,2.00E+01,2.46E+01,0.00E+00
3.34E-03,3.00E+01,2.00E+01,2.46E+01,0.00E+00
3.90E-03,3.50E+01,2.00E+01,2.46E+01,0.00E+00
4.46E-03,4.00E+01,2.00E+01,2.47E+01,0.00E+00
5.02E-03,4.50E+01,2.00E+01,2.47E+01,0.00E+00
5.59E-03,5.00E+01,2.00E+01,2.47E+01,0.00E+00
6.17E-03,5.50E+01,2.00E+01,2.47E+01,0.00E+00
6.74E-03,6.00E+01,2.00E+01,2.47E+01,0.00E+00
7.30E-03,6.50E+01,2.00E+01,2.47E+01,0.00E+00
7.87E-03,7.00E+01,2.00E+01,2.47E+01,0.00E+00
8.42E-03,7.50E+01,2.00E+01,2.46E+01,0.00E+00
9.00E-03,8.00E+01,2.00E+01,2.46E+01,0.00E+00
9.57E-03,8.50E+01,2.00E+01,2.46E+01,0.00E+00
1.02E-02,9.00E+01,2.00E+01,2.47E+01,0.00E+00
1.07E-02,9.50E+01,2.00E+01,2.47E+01,0.00E+00
1.13E-02,1.00E+02,2.00E+01,2.47E+01,0.00E+00
