﻿VOLTS,CURRNT_NAMP,TEMP_DEGC,AIR_TEMP_DEGC,RH_PRCNT
-1.30E-02,-1.00E+05,2.00E+01,2.46E+01,0.00E+00
-1.24E-02,-9.50E+04,2.00E+01,2.46E+01,0.00E+00
-1.17E-02,-9.00E+04,2.00E+01,2.46E+01,0.00E+00
-1.10E-02,-8.50E+04,2.00E+01,2.47E+01,0.00E+00
-1.04E-02,-8.00E+04,2.00E+01,2.47E+01,0.00E+00
-9.71E-03,-7.50E+04,2.00E+01,2.47E+01,0.00E+00
-9.06E-03,-7.00E+04,2.00E+01,2.46E+01,0.00E+00
-8.40E-03,-6.50E+04,2.00E+01,2.46E+01,0.00E+00
-7.75E-03,-6.00E+04,2.00E+01,2.46E+01,0.00E+00
-7.09E-03,-5.50E+04,2.00E+01,2.46E+01,0.00E+00
-6.44E-03,-5.00E+04,2.00E+01,2.46E+01,0.00E+00
-5.79E-03,-4.50E+04,2.00E+01,2.46E+01,0.00E+00
-5.14E-03,-4.00E+04,2.00E+01,2.47E+01,0.00E+00
-4.49E-03,-3.50E+04,2.00E+01,2.47E+01,0.00E+00
-3.85E-03,-3.00E+04,2.00E+01,2.47E+01,0.00E+00
-3.20E-03,-2.50E+04,2.00E+01,2.46E+01,0.00E+00
-2.56E-03,-2.00E+04,2.00E+01,2.46E+01,0.00E+00
-1.91E-03,-1.50E+04,2.00E+01,2.46E+01,0.00E+00
-1.29E-03,-1.00E+04,2.00E+01,2.47E+01,0.00E+00
-6.50E-04,-5.00E+03,2.00E+01,2.47E+01,0.00E+00
0.00E+00,0.00E+00,2.00E+01,2.46E+01,0.00E+00
6.60E-04,5.00E+03,2.00E+01,2.46E+01,0.00E+00
1.32E-03,1.00E+04,2.00E+01,2.47E+01,0.00E+00
1.91E-03,1.50E+04,2.00E+01,2.47E+01,0.00E+00
2.54E-03,2.00E+04,2.00E+01,2.47E+01,0.00E+00
3.17E-03,2.50E+04,2.00E+01,2.46E+01,0.00E+00
3.80E-03,3.00E+04,2.00E+01,2.46E+01,0.00E+00
4.43E-03,3.50E+04,2.00E+01,2.46E+01,0.00E+00
5.05E-03,4.00E+04,2.00E+01,2.47E+01,0.00E+00
5.68E-03,4.50E+04,2.00E+01,2.47E+01,0.00E+00
6.30E-03,5.00E+04,2.00E+01,2.47E+01,0.00E+00
6.92E-03,5.50E+04,2.00E+01,2.47E+01,0.00E+00
7.54E-03,6.00E+04,2.00E+01,2.47E+01,0.00E+00
8.15E-03,6.50E+04,2.00E+01,2.47E+01,0.00E+00
8.76E-03,7.00E+04,2.00E+01,2.47E+01,0.00E+00
9.38E-03,7.50E+04,2.00E+01,2.46E+01,0.00E+00
9.99E-03,8.00E+04,2.00E+01,2.46E+01,0.00E+00
1.06E-02,8.50E+04,2.00E+01,2.46E+01,0.00E+00
1.12E-02,9.00E+04,2.00E+01,2.47E+01,0.00E+00
1.18E-02,9.50E+04,2.00E+01,2.47E+01,0.00E+00
1.24E-02,1.00E+05,2.00E+01,2.47E+01,0.00E+00
