﻿BatchN;BatchID;WaferID;WaferN;ProductionDate;VersionTag;
2;N6Y250;01H2;01;27.8.2021;1;
2;N6Y250;02G5;02;27.8.2021;1;
2;N6Y250;03G0;03;27.8.2021;1;
2;N6Y250;04F3;04;27.8.2021;1;
2;N6Y250;05E6;05;27.8.2021;1;
2;N6Y250;06E1;06;27.8.2021;1;
2;N6Y250;07D4;07;27.8.2021;1;
2;N6Y250;08C7;08;27.8.2021;1;
2;N6Y250;09C2;09;27.8.2021;1;
2;N6Y250;10C7;0A;27.8.2021;1;
2;N6Y250;11C2;0B;27.8.2021;1;
2;N6Y250;12B5;0C;27.8.2021;1;
2;N6Y250;13B0;0D;27.8.2021;1;
2;N6Y250;14A3;0E;27.8.2021;1;
2;N6Y250;15H1;0F;27.8.2021;1;
2;N6Y250;16G4;10;27.8.2021;1;
