#Measurement file	
#project	CMS tracker
#Sensor Type	PSS
#ID	34342_012_PSS_MAINL
#Scratch PAD	|0000|0000|0000|0000|0001|0010|
#Operator	HPK
#Date	28-Sep-20
#Ingot No.	2984038-504
#Bad strips	0
#AC NG	none
#AC open	none
#AC short	none
#DC high	none
#DC low	none
#DC leaky	none
#Polysilicon Bias Resistance Upper [Mohm]	1.81 
#Polysilicon Bias Resistance Lower [Mohm]	1.60 
#Polysilicon Bias Resistance Average [Mohm]	1.70 
#Depletion voltage [V]	280
#temperature [deg]	25
#humidity [%]	50
	
voltage [V]	current [A]
0	4.536E-09
20	6.761E-08
40	6.826E-08
60	7.185E-08
80	7.464E-08
100	7.559E-08
120	0.000000077
140	7.738E-08
160	7.825E-08
180	7.884E-08
200	7.956E-08
220	8.061E-08
240	8.217E-08
260	7.897E-08
280	8.066E-08
300	8.17E-08
320	8.247E-08
340	8.312E-08
360	8.371E-08
380	8.425E-08
400	8.477E-08
420	8.526E-08
440	8.574E-08
460	8.62E-08
480	8.664E-08
500	8.708E-08
520	8.751E-08
540	8.793E-08
560	8.835E-08
580	8.877E-08
600	8.918E-08
620	8.959E-08
640	0.00000009
660	9.041E-08
680	9.083E-08
700	9.124E-08
720	9.167E-08
740	9.209E-08
760	9.253E-08
780	9.297E-08
800	9.341E-08
820	9.388E-08
840	9.435E-08
860	9.484E-08
880	9.535E-08
900	9.587E-08
920	9.641E-08
940	9.697E-08
960	9.757E-08
980	9.819E-08
1000	9.883E-08
	
voltage [V]	capacitance [F]
0	5.16071E-08
10	9.02278E-09
20	5.99251E-09
30	4.8927E-09
40	4.22112E-09
50	3.77199E-09
60	3.44438E-09
70	3.16464E-09
80	2.95991E-09
90	2.79134E-09
100	2.64862E-09
110	2.52554E-09
120	2.41829E-09
130	2.32367E-09
140	2.23891E-09
150	2.16303E-09
160	2.0942E-09
170	2.03345E-09
180	1.97575E-09
190	1.91859E-09
200	1.8684E-09
210	1.82184E-09
220	1.77763E-09
230	1.73506E-09
240	1.69402E-09
250	1.65502E-09
260	1.62034E-09
270	1.5927E-09
280	1.57658E-09
290	1.56997E-09
300	1.56705E-09
310	1.56537E-09
320	1.56419E-09
330	1.56326E-09
340	1.56254E-09
350	1.56191E-09
360	1.5614E-09
370	1.56093E-09
380	1.56051E-09
390	1.56011E-09
400	1.55978E-09
	
#End of manufacturer data file		
