#Measurement file	
#project	CMS tracker
#Sensor Type	PSS
#ID	34342_023_PSS_MAINL
#Scratch PAD	|0000|0000|0000|0000|0010|0011|
#Operator	HPK
#Date	28-Sep-20
#Ingot No.	2984038-504
#Bad strips	0
#AC NG	none
#AC open	none
#AC short	none
#DC high	none
#DC low	none
#DC leaky	none
#Polysilicon Bias Resistance Upper [Mohm]	1.81 
#Polysilicon Bias Resistance Lower [Mohm]	1.60 
#Polysilicon Bias Resistance Average [Mohm]	1.70 
#Depletion voltage [V]	290
#temperature [deg]	25
#humidity [%]	50
	
voltage [V]	current [A]
0	3.649E-09
20	7.214E-08
40	7.508E-08
60	7.699E-08
80	7.812E-08
100	7.923E-08
120	8.036E-08
140	8.099E-08
160	8.171E-08
180	8.219E-08
200	7.791E-08
220	7.897E-08
240	8.042E-08
260	8.245E-08
280	8.437E-08
300	8.554E-08
320	8.637E-08
340	8.705E-08
360	8.766E-08
380	8.823E-08
400	8.876E-08
420	8.926E-08
440	8.974E-08
460	9.022E-08
480	9.068E-08
500	9.113E-08
520	9.157E-08
540	9.201E-08
560	9.243E-08
580	9.287E-08
600	9.328E-08
620	9.371E-08
640	9.414E-08
660	9.456E-08
680	9.499E-08
700	9.542E-08
720	9.586E-08
740	0.0002686
760	9.525E-08
780	9.57E-08
800	9.616E-08
820	9.663E-08
840	9.712E-08
860	9.761E-08
880	9.812E-08
900	9.866E-08
920	9.921E-08
940	9.979E-08
960	1.0039E-07
980	1.0102E-07
1000	1.0168E-07
	
voltage [V]	capacitance [F]
0	5.65288E-08
10	8.35509E-09
20	5.97761E-09
30	4.8979E-09
40	4.23302E-09
50	3.78438E-09
60	3.45847E-09
70	3.20291E-09
80	2.97504E-09
90	2.80619E-09
100	2.66324E-09
110	2.53987E-09
120	2.43232E-09
130	2.3374E-09
140	2.25235E-09
150	2.17597E-09
160	2.10705E-09
170	2.04731E-09
180	1.98477E-09
190	1.92956E-09
200	1.87963E-09
210	1.83277E-09
220	1.78869E-09
230	1.74613E-09
240	1.70512E-09
250	1.66635E-09
260	1.63124E-09
270	1.60172E-09
280	1.58215E-09
290	1.57359E-09
300	1.56998E-09
310	1.56804E-09
320	1.56674E-09
330	1.56578E-09
340	1.56502E-09
350	1.56438E-09
360	1.56384E-09
370	1.56334E-09
380	1.56295E-09
390	1.56252E-09
400	1.56217E-09
	
#End of manufacturer data file		
