#Measurement file	
#project	CMS tracker
#Sensor Type	PSS
#ID	34342_049_PSS_MAINL
#Scratch PAD	|0000|0000|0000|0000|0100|1001|
#Operator	HPK
#Date	28-Sep-20
#Ingot No.	2984038-504
#Bad strips	0
#AC NG	none
#AC open	none
#AC short	none
#DC high	none
#DC low	none
#DC leaky	none
#Polysilicon Bias Resistance Upper [Mohm]	1.81 
#Polysilicon Bias Resistance Lower [Mohm]	1.60 
#Polysilicon Bias Resistance Average [Mohm]	1.70 
#Depletion voltage [V]	280
#temperature [deg]	25
#humidity [%]	50
	
voltage [V]	current [A]
0	3.699E-09
20	6.541E-08
40	6.804E-08
60	6.987E-08
80	7.112E-08
100	7.225E-08
120	7.323E-08
140	7.39E-08
160	7.456E-08
180	7.477E-08
200	7.018E-08
220	7.108E-08
240	7.24E-08
260	7.415E-08
280	7.567E-08
300	7.661E-08
320	7.73E-08
340	7.789E-08
360	7.842E-08
380	7.891E-08
400	7.938E-08
420	7.984E-08
440	8.027E-08
460	8.07E-08
480	8.111E-08
500	8.152E-08
520	8.193E-08
540	8.233E-08
560	8.271E-08
580	8.31E-08
600	8.349E-08
620	8.388E-08
640	8.427E-08
660	8.467E-08
680	8.507E-08
700	8.547E-08
720	8.588E-08
740	8.629E-08
760	8.671E-08
780	8.714E-08
800	8.758E-08
820	8.803E-08
840	8.85E-08
860	8.897E-08
880	8.947E-08
900	8.999E-08
920	9.052E-08
940	9.107E-08
960	9.166E-08
980	9.225E-08
1000	9.288E-08
	
voltage [V]	capacitance [F]
0	5.83257E-08
10	7.83034E-09
20	5.84206E-09
30	4.8291E-09
40	4.1912E-09
50	3.75589E-09
60	3.43622E-09
70	3.16527E-09
80	2.95885E-09
90	2.79165E-09
100	2.64969E-09
110	2.52717E-09
120	2.42028E-09
130	2.32592E-09
140	2.24136E-09
150	2.16561E-09
160	2.09781E-09
170	2.03801E-09
180	1.97933E-09
190	1.92409E-09
200	1.87143E-09
210	1.8216E-09
220	1.77624E-09
230	1.73401E-09
240	1.69295E-09
250	1.65423E-09
260	1.61972E-09
270	1.59224E-09
280	1.57617E-09
290	1.56964E-09
300	1.56671E-09
310	1.56494E-09
320	1.56378E-09
330	1.56286E-09
340	1.56215E-09
350	1.56154E-09
360	1.56097E-09
370	1.56051E-09
380	1.56013E-09
390	1.55975E-09
400	1.55937E-09
	
#End of manufacturer data file		
