33234-001-PSS-MAINA
33234_002_PSS_MAINA
33234-003_PSS_MAINA
33234-004_PSS_MAINA
33234-007_PSS_MAINA
33234-008_PSS_MAINA
33234-009_PSS_MAINA
33234-010_PSS_MAINA
33234-011_PSS_MAINA
33234-012_PSS_MAINA
33234-013_PSS_MAINA
33234-014_PSS_MAINA
33234-015_PSS_MAINA
33234-017_PSS_MAINA
33234-018_PSS_MAINA
33234-019_PSS_MAINA
33234-020_PSS_MAINA
33234-021_PSS_MAINA
33234-022_PSS_MAINA
33234-023_PSS_MAINA
33234-024_PSS_MAINA
33234-026_PSS_MAINA
33234-027_PSS_MAINA
33234-028_PSS_MAINA
33234-029_PSS_MAINA
33234-030_PSS_MAINA
33234-031_PSS_MAINA
33234-032_PSS_MAINA
33234-033_PSS_MAINA
33234-034_PSS_MAINA
33234-035_PSS_MAINA
33234-036_PSS_MAINA
33234-037_PSS_MAINA
33234-038_PSS_MAINA
33234-039_PSS_MAINA
33234-040_PSS_MAINA
33234-041_PSS_MAINA
33234-042_PSS_MAINA
33234-043_PSS_MAINA
33234-044_PSS_MAINA

33234-001_PSS_MAINB
33234-002_PSS_MAINB
33234-003_PSS_MAINB
33234-004_PSS_MAINB
33234-005_PSS_MAINB
33234-006_PSS_MAINB
33234-007_PSS_MAINB
33234-008_PSS_MAINB
33234-009_PSS_MAINB
33234-010_PSS_MAINB
33234-011_PSS_MAINB
33234-012_PSS_MAINB
33234-013_PSS_MAINB
33234-014_PSS_MAINB
33234-015_PSS_MAINB
33234-016_PSS_MAINB
33234-017_PSS_MAINB
33234-018_PSS_MAINB
33234-019_PSS_MAINB
33234-020_PSS_MAINB
33234-021_PSS_MAINB
33234-022_PSS_MAINB
33234-023_PSS_MAINB
33234-024_PSS_MAINB
33234-026_PSS_MAINB
33234-027_PSS_MAINB
33234-028_PSS_MAINB
33234-029_PSS_MAINB
33234-030_PSS_MAINB
33234-031_PSS_MAINB
33234-033_PSS_MAINB
33234-034_PSS_MAINB
33234-035_PSS_MAINB
33234-036_PSS_MAINB
33234-037_PSS_MAINB
33234-038_PSS_MAINB
33234-039_PSS_MAINB
33234-040_PSS_MAINB
33234-041_PSS_MAINB
33234-042_PSS_MAINB
