#Measurement file	
#project	CMS tracker
#Sensor Type	PSS
#ID	34342_041_PSS_MAINR
#Scratch PAD	|0000|0000|0000|0000|0100|0001|
#Operator	HPK
#Date	28-Sep-20
#Ingot No.	2984038-504
#Bad strips	0
#AC NG	none
#AC open	none
#AC short	none
#DC high	none
#DC low	none
#DC leaky	none
#Polysilicon Bias Resistance Upper [Mohm]	1.81 
#Polysilicon Bias Resistance Lower [Mohm]	1.60 
#Polysilicon Bias Resistance Average [Mohm]	1.70 
#Depletion voltage [V]	280
#temperature [deg]	25
#humidity [%]	50
	
voltage [V]	current [A]
0	2.322E-09
20	6.433E-08
40	6.733E-08
60	6.932E-08
80	7.162E-08
100	7.268E-08
120	7.382E-08
140	7.457E-08
160	7.53E-08
180	7.588E-08
200	7.65E-08
220	7.72E-08
240	7.886E-08
260	8.137E-08
280	8.073E-08
300	8.186E-08
320	8.27E-08
340	8.342E-08
360	8.406E-08
380	8.466E-08
400	8.522E-08
420	8.576E-08
440	8.628E-08
460	8.678E-08
480	8.727E-08
500	8.775E-08
520	8.823E-08
540	8.869E-08
560	8.915E-08
580	8.961E-08
600	9.005E-08
620	9.05E-08
640	9.095E-08
660	9.14E-08
680	9.184E-08
700	9.229E-08
720	9.274E-08
740	9.319E-08
760	9.365E-08
780	9.41E-08
800	9.456E-08
820	9.503E-08
840	9.551E-08
860	9.599E-08
880	9.649E-08
900	0.000000097
920	9.752E-08
940	9.806E-08
960	9.861E-08
980	9.917E-08
1000	9.976E-08
	
voltage [V]	capacitance [F]
0	6.17004E-08
10	8.04765E-09
20	5.64914E-09
30	4.72551E-09
40	4.12745E-09
50	3.70867E-09
60	3.39935E-09
70	3.13571E-09
80	2.93485E-09
90	2.77172E-09
100	2.63292E-09
110	2.51288E-09
120	2.408E-09
130	2.31521E-09
140	2.23204E-09
150	2.1574E-09
160	2.08987E-09
170	2.03052E-09
180	1.9726E-09
190	1.91776E-09
200	1.86708E-09
210	1.81946E-09
220	1.77427E-09
230	1.72762E-09
240	1.68459E-09
250	1.64567E-09
260	1.61184E-09
270	1.58599E-09
280	1.57231E-09
290	1.56684E-09
300	1.56426E-09
310	1.56273E-09
320	1.56158E-09
330	1.56075E-09
340	1.55999E-09
350	1.55943E-09
360	1.5589E-09
370	1.55844E-09
380	1.55802E-09
390	1.55767E-09
400	1.55727E-09
	
#End of manufacturer data file		
