#Measurement file	
#project	CMS tracker
#Sensor Type	PSS
#ID	34342_020_PSS_MAINR
#Scratch PAD	|0000|0000|0000|0000|0010|0000|
#Operator	HPK
#Date	28-Sep-20
#Ingot No.	2984038-504
#Bad strips	0
#AC NG	none
#AC open	none
#AC short	none
#DC high	none
#DC low	none
#DC leaky	none
#Polysilicon Bias Resistance Upper [Mohm]	1.81 
#Polysilicon Bias Resistance Lower [Mohm]	1.60 
#Polysilicon Bias Resistance Average [Mohm]	1.70 
#Depletion voltage [V]	280
#temperature [deg]	25
#humidity [%]	50
	
voltage [V]	current [A]
0	3.33E-09
20	7.025E-08
40	7.609E-08
60	7.844E-08
80	8.006E-08
100	8.131E-08
120	8.258E-08
140	8.348E-08
160	8.428E-08
180	8.471E-08
200	8.516E-08
220	8.082E-08
240	8.268E-08
260	8.513E-08
280	0.000000087
300	8.813E-08
320	8.899E-08
340	8.973E-08
360	9.04E-08
380	9.101E-08
400	9.16E-08
420	9.216E-08
440	9.27E-08
460	9.322E-08
480	9.374E-08
500	9.424E-08
520	9.474E-08
540	9.523E-08
560	9.57E-08
580	9.618E-08
600	9.665E-08
620	9.713E-08
640	9.76E-08
660	9.807E-08
680	9.855E-08
700	9.902E-08
720	9.95E-08
740	9.998E-08
760	1.0047E-07
780	1.0096E-07
800	1.0146E-07
820	1.0196E-07
840	1.0247E-07
860	1.0299E-07
880	1.0353E-07
900	1.0407E-07
920	1.0463E-07
940	1.0521E-07
960	1.058E-07
980	1.0642E-07
1000	1.0705E-07
	
voltage [V]	capacitance [F]
0	6.17564E-08
10	8.22362E-09
20	5.64979E-09
30	4.71996E-09
40	4.12911E-09
50	3.70862E-09
60	3.39743E-09
70	3.15525E-09
80	2.93507E-09
90	2.77079E-09
100	2.63205E-09
110	2.51214E-09
120	2.40741E-09
130	2.31472E-09
140	2.23162E-09
150	2.15721E-09
160	2.08965E-09
170	2.03043E-09
180	1.97192E-09
190	1.91728E-09
200	1.8669E-09
210	1.81941E-09
220	1.77421E-09
230	1.7281E-09
240	1.68669E-09
250	1.64761E-09
260	1.61433E-09
270	1.58965E-09
280	1.57672E-09
290	1.57141E-09
300	1.56883E-09
310	1.56729E-09
320	1.56612E-09
330	1.56524E-09
340	1.56455E-09
350	1.56395E-09
360	1.5634E-09
370	1.56299E-09
380	1.56259E-09
390	1.5622E-09
400	1.56186E-09
	
#End of manufacturer data file		
