#Measurement file	
#project	CMS tracker
#Sensor Type	PSS
#ID	34342_028_PSS_MAINR
#Scratch PAD	|0000|0000|0000|0000|0010|1000|
#Operator	HPK
#Date	28-Sep-20
#Ingot No.	2984038-504
#Bad strips	0
#AC NG	none
#AC open	none
#AC short	none
#DC high	none
#DC low	none
#DC leaky	none
#Polysilicon Bias Resistance Upper [Mohm]	1.81 
#Polysilicon Bias Resistance Lower [Mohm]	1.60 
#Polysilicon Bias Resistance Average [Mohm]	1.70 
#Depletion voltage [V]	280
#temperature [deg]	25
#humidity [%]	50
	
voltage [V]	current [A]
0	7.927E-10
20	6.205E-08
40	6.537E-08
60	6.754E-08
80	6.902E-08
100	7.022E-08
120	7.32E-08
140	7.393E-08
160	7.47E-08
180	7.499E-08
200	7.528E-08
220	7.677E-08
240	7.808E-08
260	8.015E-08
280	8.176E-08
300	8.284E-08
320	8.378E-08
340	8.456E-08
360	8.513E-08
380	8.568E-08
400	8.512E-08
420	8.403E-08
440	8.45E-08
460	8.498E-08
480	8.544E-08
500	8.59E-08
520	8.635E-08
540	8.679E-08
560	8.723E-08
580	8.766E-08
600	8.809E-08
620	8.852E-08
640	8.895E-08
660	8.938E-08
680	8.982E-08
700	9.025E-08
720	9.069E-08
740	9.112E-08
760	9.158E-08
780	9.203E-08
800	9.249E-08
820	9.296E-08
840	9.344E-08
860	9.393E-08
880	9.442E-08
900	9.493E-08
920	9.546E-08
940	0.000000096
960	9.655E-08
980	9.713E-08
1000	9.772E-08
	
voltage [V]	capacitance [F]
0	6.13525E-08
10	8.0202E-09
20	5.66739E-09
30	4.73478E-09
40	4.13188E-09
50	3.71714E-09
60	3.39684E-09
70	3.13817E-09
80	2.94149E-09
90	2.77781E-09
100	2.63853E-09
110	2.51811E-09
120	2.41293E-09
130	2.31982E-09
140	2.23642E-09
150	2.1616E-09
160	2.09448E-09
170	2.03383E-09
180	1.97561E-09
190	1.9206E-09
200	1.86973E-09
210	1.82198E-09
220	1.77681E-09
230	1.73209E-09
240	1.68829E-09
250	1.64923E-09
260	1.61545E-09
270	1.58958E-09
280	1.57518E-09
290	1.56914E-09
300	1.56638E-09
310	1.56466E-09
320	1.56349E-09
330	1.56252E-09
340	1.56182E-09
350	1.5612E-09
360	1.56067E-09
370	1.56021E-09
380	1.55979E-09
390	1.55943E-09
400	1.55905E-09
	
#End of manufacturer data file		
