#Measurement file	
#project	CMS tracker
#Sensor Type	PSS
#ID	34342_013_PSS_MAINR
#Scratch PAD	|0000|0000|0000|0000|0001|0011|
#Operator	HPK
#Date	28-Sep-20
#Ingot No.	2984038-504
#Bad strips	0
#AC NG	none
#AC open	none
#AC short	none
#DC high	none
#DC low	none
#DC leaky	none
#Polysilicon Bias Resistance Upper [Mohm]	1.81 
#Polysilicon Bias Resistance Lower [Mohm]	1.60 
#Polysilicon Bias Resistance Average [Mohm]	1.70 
#Depletion voltage [V]	280
#temperature [deg]	25
#humidity [%]	50
	
voltage [V]	current [A]
0	4.63E-09
20	6.694E-08
40	7.166E-08
60	7.457E-08
80	7.606E-08
100	7.72E-08
120	7.847E-08
140	7.922E-08
160	8.002E-08
180	8.038E-08
200	8.055E-08
220	8.105E-08
240	7.703E-08
260	7.871E-08
280	7.993E-08
300	8.074E-08
320	8.14E-08
340	0.000000082
360	8.255E-08
380	8.306E-08
400	8.357E-08
420	8.405E-08
440	8.452E-08
460	8.498E-08
480	8.543E-08
500	8.588E-08
520	8.631E-08
540	8.674E-08
560	8.718E-08
580	8.761E-08
600	8.804E-08
620	8.846E-08
640	8.889E-08
660	8.932E-08
680	8.975E-08
700	9.017E-08
720	9.061E-08
740	9.104E-08
760	9.152E-08
780	9.197E-08
800	9.243E-08
820	9.29E-08
840	9.339E-08
860	9.388E-08
880	9.439E-08
900	9.492E-08
920	9.546E-08
940	9.603E-08
960	9.661E-08
980	9.724E-08
1000	9.789E-08
	
voltage [V]	capacitance [F]
0	6.14179E-08
10	8.14227E-09
20	5.66614E-09
30	4.72338E-09
40	4.13067E-09
50	3.70999E-09
60	3.39893E-09
70	3.15619E-09
80	2.9352E-09
90	2.77147E-09
100	2.63273E-09
110	2.51275E-09
120	2.40796E-09
130	2.31524E-09
140	2.23215E-09
150	2.15759E-09
160	2.08998E-09
170	2.03046E-09
180	1.97367E-09
190	1.91899E-09
200	1.8684E-09
210	1.82089E-09
220	1.77588E-09
230	1.73035E-09
240	1.68751E-09
250	1.64815E-09
260	1.61415E-09
270	1.58824E-09
280	1.57419E-09
290	1.56855E-09
300	1.56587E-09
310	1.56426E-09
320	1.56313E-09
330	1.56225E-09
340	1.56155E-09
350	1.56094E-09
360	1.56039E-09
370	1.55994E-09
380	1.55955E-09
390	1.55916E-09
400	1.55881E-09
	
#End of manufacturer data file		
