#Measurement file	
#project	CMS tracker
#Sensor Type	PSS
#ID	34342_006_PSS_MAINR
#Scratch PAD	|0000|0000|0000|0000|0000|0110|
#Operator	HPK
#Date	28-Sep-20
#Ingot No.	2984038-504
#Bad strips	0
#AC NG	none
#AC open	none
#AC short	none
#DC high	none
#DC low	none
#DC leaky	none
#Polysilicon Bias Resistance Upper [Mohm]	1.81 
#Polysilicon Bias Resistance Lower [Mohm]	1.60 
#Polysilicon Bias Resistance Average [Mohm]	1.70 
#Depletion voltage [V]	280
#temperature [deg]	25
#humidity [%]	50
	
voltage [V]	current [A]
0	4.613E-09
20	7.149E-08
40	7.713E-08
60	7.997E-08
80	8.159E-08
100	8.283E-08
120	8.424E-08
140	8.508E-08
160	8.597E-08
180	8.655E-08
200	8.688E-08
220	8.76E-08
240	8.394E-08
260	8.662E-08
280	8.887E-08
300	9.018E-08
320	9.113E-08
340	9.193E-08
360	9.265E-08
380	9.331E-08
400	9.393E-08
420	9.452E-08
440	9.509E-08
460	9.565E-08
480	9.619E-08
500	9.671E-08
520	9.724E-08
540	9.775E-08
560	9.825E-08
580	9.875E-08
600	9.924E-08
620	9.973E-08
640	1.0023E-07
660	1.0072E-07
680	1.012E-07
700	1.017E-07
720	1.022E-07
740	1.027E-07
760	1.0319E-07
780	1.037E-07
800	1.0422E-07
820	1.0474E-07
840	1.0528E-07
860	1.0583E-07
880	1.064E-07
900	1.0698E-07
920	1.0758E-07
940	1.082E-07
960	1.0884E-07
980	1.0951E-07
1000	1.1021E-07
	
voltage [V]	capacitance [F]
0	6.13701E-08
10	8.12322E-09
20	5.63192E-09
30	4.70382E-09
40	4.11258E-09
50	3.69373E-09
60	3.38468E-09
70	3.14301E-09
80	2.92281E-09
90	2.76015E-09
100	2.62197E-09
110	2.50249E-09
120	2.39801E-09
130	2.30573E-09
140	2.22289E-09
150	2.14871E-09
160	2.08139E-09
170	2.0211E-09
180	1.9662E-09
190	1.91215E-09
200	1.86127E-09
210	1.81358E-09
220	1.76837E-09
230	1.7248E-09
240	1.67989E-09
250	1.64007E-09
260	1.60673E-09
270	1.58386E-09
280	1.57313E-09
290	1.56881E-09
300	1.56657E-09
310	1.56515E-09
320	1.56411E-09
330	1.56322E-09
340	1.56258E-09
350	1.56199E-09
360	1.56148E-09
370	1.56103E-09
380	1.56062E-09
390	1.56029E-09
400	1.55997E-09
	
#End of manufacturer data file		
