#Measurement file	
#project	CMS tracker
#Sensor Type	PSS
#ID	34342_018_PSS_MAINR
#Scratch PAD	|0000|0000|0000|0000|0001|1000|
#Operator	HPK
#Date	28-Sep-20
#Ingot No.	2984038-504
#Bad strips	0
#AC NG	none
#AC open	none
#AC short	none
#DC high	none
#DC low	none
#DC leaky	none
#Polysilicon Bias Resistance Upper [Mohm]	1.81 
#Polysilicon Bias Resistance Lower [Mohm]	1.60 
#Polysilicon Bias Resistance Average [Mohm]	1.70 
#Depletion voltage [V]	280
#temperature [deg]	25
#humidity [%]	50
	
voltage [V]	current [A]
0	4.548E-09
20	6.838E-08
40	7.225E-08
60	7.841E-08
80	8.005E-08
100	8.13E-08
120	8.259E-08
140	8.344E-08
160	8.44E-08
180	8.478E-08
200	8.53E-08
220	8.616E-08
240	8.286E-08
260	8.529E-08
280	8.709E-08
300	8.819E-08
320	8.901E-08
340	8.972E-08
360	9.036E-08
380	9.096E-08
400	9.153E-08
420	9.207E-08
440	9.26E-08
460	9.311E-08
480	9.36E-08
500	9.409E-08
520	9.457E-08
540	9.505E-08
560	9.551E-08
580	9.599E-08
600	9.645E-08
620	9.691E-08
640	9.737E-08
660	9.783E-08
680	9.829E-08
700	9.876E-08
720	9.923E-08
740	9.97E-08
760	1.0018E-07
780	1.0067E-07
800	1.0116E-07
820	1.0166E-07
840	1.0217E-07
860	1.027E-07
880	1.0324E-07
900	1.038E-07
920	1.0437E-07
940	1.0497E-07
960	1.0559E-07
980	1.0625E-07
1000	1.0693E-07
	
voltage [V]	capacitance [F]
0	6.18566E-08
10	8.20055E-09
20	5.64415E-09
30	4.71519E-09
40	4.12482E-09
50	3.70514E-09
60	3.39461E-09
70	3.15291E-09
80	2.93304E-09
90	2.76896E-09
100	2.63044E-09
110	2.5106E-09
120	2.40602E-09
130	2.31341E-09
140	2.23042E-09
150	2.15607E-09
160	2.08837E-09
170	2.02972E-09
180	1.97176E-09
190	1.91694E-09
200	1.86632E-09
210	1.81872E-09
220	1.77347E-09
230	1.72683E-09
240	1.68456E-09
250	1.64529E-09
260	1.61201E-09
270	1.58789E-09
280	1.57584E-09
290	1.57103E-09
300	1.56861E-09
310	1.56707E-09
320	1.56602E-09
330	1.56517E-09
340	1.56452E-09
350	1.56391E-09
360	1.56338E-09
370	1.56288E-09
380	1.56249E-09
390	1.56216E-09
400	1.56179E-09
	
#End of manufacturer data file		
