#Measurement file	
#project	CMS tracker
#Sensor Type	PSS
#ID	34342_017_PSS_MAINR
#Scratch PAD	|0000|0000|0000|0000|0001|0111|
#Operator	HPK
#Date	28-Sep-20
#Ingot No.	2984038-504
#Bad strips	0
#AC NG	none
#AC open	none
#AC short	none
#DC high	none
#DC low	none
#DC leaky	none
#Polysilicon Bias Resistance Upper [Mohm]	1.81 
#Polysilicon Bias Resistance Lower [Mohm]	1.60 
#Polysilicon Bias Resistance Average [Mohm]	1.70 
#Depletion voltage [V]	280
#temperature [deg]	25
#humidity [%]	50
	
voltage [V]	current [A]
0	4.33E-09
20	6.775E-08
40	7.548E-08
60	7.789E-08
80	7.957E-08
100	8.079E-08
120	8.218E-08
140	8.304E-08
160	8.391E-08
180	8.44E-08
200	8.487E-08
220	8.06E-08
240	8.239E-08
260	8.468E-08
280	8.636E-08
300	8.74E-08
320	8.821E-08
340	8.891E-08
360	8.955E-08
380	9.014E-08
400	9.071E-08
420	9.125E-08
440	9.178E-08
460	9.228E-08
480	9.278E-08
500	9.328E-08
520	9.376E-08
540	9.424E-08
560	9.472E-08
580	9.519E-08
600	9.565E-08
620	9.612E-08
640	9.659E-08
660	9.705E-08
680	9.752E-08
700	9.799E-08
720	9.846E-08
740	9.893E-08
760	9.941E-08
780	9.989E-08
800	1.0038E-07
820	1.0087E-07
840	1.0137E-07
860	1.0188E-07
880	1.024E-07
900	1.0292E-07
920	1.0346E-07
940	1.0401E-07
960	1.0456E-07
980	1.0514E-07
1000	1.0573E-07
	
voltage [V]	capacitance [F]
0	6.17459E-08
10	8.16036E-09
20	5.64251E-09
30	4.71618E-09
40	4.12616E-09
50	3.70517E-09
60	3.39446E-09
70	3.15265E-09
80	2.93176E-09
90	2.76904E-09
100	2.6306E-09
110	2.51087E-09
120	2.40621E-09
130	2.31369E-09
140	2.23067E-09
150	2.15628E-09
160	2.08869E-09
170	2.02965E-09
180	1.97186E-09
190	1.91707E-09
200	1.8667E-09
210	1.81912E-09
220	1.77393E-09
230	1.72756E-09
240	1.68535E-09
250	1.64609E-09
260	1.61236E-09
270	1.58702E-09
280	1.57384E-09
290	1.56854E-09
300	1.56604E-09
310	1.56448E-09
320	1.56336E-09
330	1.56253E-09
340	1.56181E-09
350	1.5612E-09
360	1.56068E-09
370	1.56024E-09
380	1.55982E-09
390	1.55943E-09
400	1.55906E-09
	
#End of manufacturer data file		
