#Measurement file	
#project	CMS tracker
#Sensor Type	PSS
#ID	34342_010_PSS_MAINR
#Scratch PAD	|0000|0000|0000|0000|0001|0000|
#Operator	HPK
#Date	28-Sep-20
#Ingot No.	2984038-504
#Bad strips	0
#AC NG	none
#AC open	none
#AC short	none
#DC high	none
#DC low	none
#DC leaky	none
#Polysilicon Bias Resistance Upper [Mohm]	1.81 
#Polysilicon Bias Resistance Lower [Mohm]	1.60 
#Polysilicon Bias Resistance Average [Mohm]	1.70 
#Depletion voltage [V]	280
#temperature [deg]	25
#humidity [%]	50
	
voltage [V]	current [A]
0	4.838E-09
20	6.897E-08
40	7.285E-08
60	7.44E-08
80	7.657E-08
100	7.92E-08
120	8.035E-08
140	8.113E-08
160	8.193E-08
180	8.261E-08
200	8.288E-08
220	8.35E-08
240	8.485E-08
260	8.682E-08
280	8.312E-08
300	8.407E-08
320	8.483E-08
340	8.548E-08
360	8.608E-08
380	8.665E-08
400	8.718E-08
420	8.771E-08
440	8.821E-08
460	8.87E-08
480	8.919E-08
500	8.966E-08
520	9.013E-08
540	9.059E-08
560	9.105E-08
580	9.15E-08
600	9.196E-08
620	9.241E-08
640	9.286E-08
660	9.331E-08
680	9.376E-08
700	9.422E-08
720	9.468E-08
740	9.515E-08
760	9.561E-08
780	9.609E-08
800	9.657E-08
820	9.707E-08
840	9.757E-08
860	9.808E-08
880	9.861E-08
900	9.915E-08
920	9.971E-08
940	1.0029E-07
960	1.0088E-07
980	1.015E-07
1000	1.0214E-07
	
voltage [V]	capacitance [F]
0	6.16872E-08
10	8.16462E-09
20	5.61134E-09
30	4.68802E-09
40	4.10149E-09
50	3.6838E-09
60	3.3759E-09
70	3.13549E-09
80	2.91601E-09
90	2.75386E-09
100	2.61636E-09
110	2.49727E-09
120	2.39323E-09
130	2.30121E-09
140	2.21873E-09
150	2.14476E-09
160	2.0776E-09
170	2.01822E-09
180	1.96203E-09
190	1.90796E-09
200	1.85717E-09
210	1.8095E-09
220	1.7643E-09
230	1.72063E-09
240	1.67624E-09
250	1.63672E-09
260	1.60363E-09
270	1.58109E-09
280	1.57058E-09
290	1.56633E-09
300	1.56414E-09
310	1.56271E-09
320	1.56168E-09
330	1.56085E-09
340	1.56012E-09
350	1.55962E-09
360	1.55906E-09
370	1.55862E-09
380	1.55825E-09
390	1.55788E-09
400	1.55752E-09
	
#End of manufacturer data file		
