#Measurement file	
#project	CMS tracker
#Sensor Type	PSS
#ID	34342_037_PSS_MAINR
#Scratch PAD	|0000|0000|0000|0000|0011|0111|
#Operator	HPK
#Date	28-Sep-20
#Ingot No.	2984038-504
#Bad strips	0
#AC NG	none
#AC open	none
#AC short	none
#DC high	none
#DC low	none
#DC leaky	none
#Polysilicon Bias Resistance Upper [Mohm]	1.81 
#Polysilicon Bias Resistance Lower [Mohm]	1.60 
#Polysilicon Bias Resistance Average [Mohm]	1.70 
#Depletion voltage [V]	280
#temperature [deg]	25
#humidity [%]	50
	
voltage [V]	current [A]
0	2.357E-09
20	7.133E-08
40	7.566E-08
60	7.868E-08
80	8.075E-08
100	8.34E-08
120	8.519E-08
140	8.651E-08
160	8.776E-08
180	8.874E-08
200	8.968E-08
220	9.11E-08
240	9.322E-08
260	9.609E-08
280	9.822E-08
300	9.688E-08
320	9.78E-08
340	9.86E-08
360	9.932E-08
380	9.999E-08
400	1.0061E-07
420	1.0122E-07
440	1.0181E-07
460	1.0237E-07
480	1.0293E-07
500	1.0347E-07
520	0.000000104
540	1.0452E-07
560	1.0504E-07
580	1.0555E-07
600	1.0605E-07
620	1.0655E-07
640	1.0705E-07
660	1.0755E-07
680	1.0804E-07
700	1.0854E-07
720	1.0904E-07
740	1.0954E-07
760	1.1005E-07
780	1.1056E-07
800	1.1108E-07
820	1.1161E-07
840	1.1215E-07
860	1.1269E-07
880	1.1325E-07
900	1.1382E-07
920	1.144E-07
940	0.000000115
960	1.1561E-07
980	1.1624E-07
1000	1.1689E-07
	
voltage [V]	capacitance [F]
0	6.17274E-08
10	8.10919E-09
20	5.64445E-09
30	4.72284E-09
40	4.12538E-09
50	3.70799E-09
60	3.39878E-09
70	3.13424E-09
80	2.93438E-09
90	2.77119E-09
100	2.63248E-09
110	2.51246E-09
120	2.4076E-09
130	2.31485E-09
140	2.23177E-09
150	2.15713E-09
160	2.08911E-09
170	2.03022E-09
180	1.97225E-09
190	1.91727E-09
200	1.8666E-09
210	1.81891E-09
220	1.77375E-09
230	1.72946E-09
240	1.68461E-09
250	1.64548E-09
260	1.61234E-09
270	1.58789E-09
280	1.57532E-09
290	1.57027E-09
300	1.56777E-09
310	1.5663E-09
320	1.56517E-09
330	1.56435E-09
340	1.56364E-09
350	1.56307E-09
360	1.56251E-09
370	1.56207E-09
380	1.56165E-09
390	1.56126E-09
400	1.56093E-09
	
#End of manufacturer data file		
