Wafer Name:,V8CUMAH

position,ID,result
1,5801,pass
2,5802,pass
3,5803,pass
4,5804, FAIL
5,5805,pass
6,5806,pass
7,5807,pass
8,5808, FAIL
9,5809,pass
10,5810,pass
11,5811,pass
12,5812, FAIL
13,5813, FAIL
14,5814,pass
15,5815,pass
16,5816,pass
17,5817,pass
18,5818,pass
19,5819,pass
20,5820,pass
21,5821,pass
22,5822,pass
23,5823, FAIL
24,5824,pass
25,5825,pass
26,5826,pass
27,5827,pass
28,5828,pass
29,5829,pass
30,5830,pass
31,5831,pass
32,5832,pass
33,5833,pass
34,5834,pass
35,5835,pass
36,5836,pass
37,5837,pass
38,5838,pass
39,5839,pass
40,5840,pass
41,5841,pass
42,5842,pass
43,5843,pass
44,5844,pass
45,5845,pass
46,5846,pass
47,5847,pass
48,5848,pass
49,5849,pass
50,5850,pass
51,5851,pass
52,5852,pass
53,5853,pass
54,5854,pass
55,5855,pass
56,5856, FAIL
57,5857, FAIL
58,5858,pass
59,5859,pass
60,5860,pass
61,5861,pass
62,5862,pass
63,5863, FAIL
64,5864,pass
65,5865,pass
66,5866,pass
67,5867, FAIL
68,5868,pass
69,5869,pass
70,5870,pass
71,5871,pass
72,5872,pass
73,5873,pass
74,5874,pass
75,5875,pass
76,5876,pass
77,5877,pass
78,5878, FAIL
79,5879,pass
80,5880,pass
81,5881,pass
82,5882,pass
83,5883,pass
84,5884, FAIL
85,5885,pass
86,5886,pass
87,5887, FAIL
88,5888,pass
89,5889,pass
90,5890,pass
91,5891,pass
92,5892,pass
93,5893, FAIL
94,5894,pass
95,5895,pass
96,5896,pass
97,5897,pass
98,5898,pass
99,5899,pass
100,5900,pass
101,5901,pass
102,5902,pass
103,5903,pass
104,5904,pass
105,5905,pass
106,5906,pass
107,5907,pass
108,5908, FAIL
109,5909,pass
110,5910,pass
111,5911,pass
112,5912,pass
113,5913,pass
114,5914,pass
115,5915,pass
116,5916,pass
117,5917,pass
118,5918,pass
119,5919,pass
120,5920,pass
121,5921,pass
122,5922,pass
123,5923,pass
124,5924,pass
125,5925,pass
126,5926,pass
127,5927,pass
128,5928, FAIL
129,5929,pass
130,5930,pass
131,5931,pass
132,5932,pass
133,5933,pass
134,5934,pass
135,5935,pass
136,5936,pass
137,5937,pass
138,5938,pass
139,5939,pass
140,5940,pass
141,5941,pass
142,5942,pass
143,5943,pass
144,5944,pass
145,5945,pass
146,5946,pass
147,5947,pass
148,5948,pass
149,5949,pass
150,5950,pass
151,5951,pass
152,5952,pass
153,5953,pass
154,5954,pass
155,5955,pass
156,5956,pass
157,5957,pass
158,5958,pass
159,5959,pass
160,5960,pass
161,5961,pass
162,5962,pass
163,5963,pass
164,5964, FAIL
165,5965,pass
166,5966,pass
167,5967, FAIL
168,5968,pass
169,5969,pass
170,5970,pass
171,5971,pass
172,5972,pass
173,5973,pass
174,5974,pass
175,5975,pass
176,5976,pass
177,5977,pass
178,5978,pass
179,5979,pass
180,5980,pass
181,5981, FAIL
182,5982,pass
183,5983,pass
184,5984,pass
185,5985,pass
186,5986,pass
