Wafer Name:,VPCUMUH

position,ID,result
1,6801, FAIL
2,6802,pass
3,6803, FAIL
4,6804,pass
5,6805,pass
6,6806, FAIL
7,6807,pass
8,6808,pass
9,6809,pass
10,6810,pass
11,6811,pass
12,6812, FAIL
13,6813, FAIL
14,6814,pass
15,6815,pass
16,6816,pass
17,6817, FAIL
18,6818,pass
19,6819,pass
20,6820,pass
21,6821,pass
22,6822,pass
23,6823, FAIL
24,6824,pass
25,6825,pass
26,6826,pass
27,6827, FAIL
28,6828,pass
29,6829, FAIL
30,6830, FAIL
31,6831,pass
32,6832,pass
33,6833,pass
34,6834, FAIL
35,6835,pass
36,6836,pass
37,6837,pass
38,6838,pass
39,6839,pass
40,6840,pass
41,6841,pass
42,6842,pass
43,6843,pass
44,6844,pass
45,6845,pass
46,6846,pass
47,6847,pass
48,6848,pass
49,6849,pass
50,6850,pass
51,6851, FAIL
52,6852,pass
53,6853,pass
54,6854,pass
55,6855, FAIL
56,6856, FAIL
57,6857, FAIL
58,6858, FAIL
59,6859,pass
60,6860,pass
61,6861,pass
62,6862,pass
63,6863, FAIL
64,6864,pass
65,6865,pass
66,6866,pass
67,6867,pass
68,6868, FAIL
69,6869,pass
70,6870, FAIL
71,6871,pass
72,6872,pass
73,6873,pass
74,6874,pass
75,6875,pass
76,6876,pass
77,6877,pass
78,6878, FAIL
79,6879, FAIL
80,6880, FAIL
81,6881,pass
82,6882,pass
83,6883, FAIL
84,6884, FAIL
85,6885,pass
86,6886, FAIL
87,6887, FAIL
88,6888, FAIL
89,6889,pass
90,6890,pass
91,6891,pass
92,6892, FAIL
93,6893, FAIL
94,6894,pass
95,6895,pass
96,6896,pass
97,6897,pass
98,6898, FAIL
99,6899,pass
100,6900,pass
101,6901,pass
102,6902,pass
103,6903,pass
104,6904,pass
105,6905,pass
106,6906,pass
107,6907,pass
108,6908, FAIL
109,6909,pass
110,6910,pass
111,6911,pass
112,6912,pass
113,6913,pass
114,6914, FAIL
115,6915,pass
116,6916,pass
117,6917,pass
118,6918,pass
119,6919,pass
120,6920,pass
121,6921,pass
122,6922,pass
123,6923, FAIL
124,6924,pass
125,6925,pass
126,6926,pass
127,6927,pass
128,6928,pass
129,6929, FAIL
130,6930,pass
131,6931,pass
132,6932,pass
133,6933,pass
134,6934,pass
135,6935,pass
136,6936,pass
137,6937,pass
138,6938,pass
139,6939,pass
140,6940, FAIL
141,6941,pass
142,6942,pass
143,6943,pass
144,6944,pass
145,6945,pass
146,6946,pass
147,6947,pass
148,6948,pass
149,6949,pass
150,6950,pass
151,6951,pass
152,6952, FAIL
153,6953,pass
154,6954,pass
155,6955,pass
156,6956,pass
157,6957,pass
158,6958,pass
159,6959,pass
160,6960,pass
161,6961,pass
162,6962,pass
163,6963,pass
164,6964,pass
165,6965,pass
166,6966,pass
167,6967,pass
168,6968,pass
169,6969,pass
170,6970,pass
171,6971,pass
172,6972,pass
173,6973,pass
174,6974,pass
175,6975,pass
176,6976, FAIL
177,6977,pass
178,6978,pass
179,6979,pass
180,6980,pass
181,6981,pass
182,6982, FAIL
183,6983,pass
184,6984,pass
185,6985,pass
186,6986,pass
