#NameLabel,2S_18_5_FNL-00002
#Date,2024-01-24 15:53:00
#Comment,abc
#Location,Fermilab
#Inserter,Stefan Maier
#RunType,mod_final

STATION, AV_TEMP-DEGC, AV_RH_PRCNT
KIT-ModuleReadout-Station1, 20, 5

VOLTS, CURRNT_NAMP, TEMP_DEGC, RH_PRCNT, TIME
1.0,0.1,17,5,2024-01-24 15:53:00
2.0,0.2,18,6,2024-01-24 15:54:00
3.0,0.3,19,7,2024-01-24 15:55:00
4.0,0.4,20,8,2024-01-24 15:56:00
5.0,0.5,21,9,2024-01-24 15:57:00
6.0,0.6,22,8,2024-01-24 15:58:00
7.0,0.7,23,7,2024-01-24 15:59:00
8.0,0.8,24,6,2024-01-24 16:00:00
9.0,0.9,25,5,2024-01-24 16:01:00
