%CMSwaferCode:CMSchipCode:ChipColumn:ChipRow:Grading:Color:CutVersion:Status:Location:ChipBoardType:BoardNumber:Dose:Sensor:ProbingSite:Iref:IrefTrim:Vref_A:Vref_A_Trim:Vref_D:Vref_D_Trim:Vref_ADC:Vref_ADC_Trim:MON_ADC_Trim:VCAL_HIGH_slope:VCAL_HIGH_offset:VCAL_MED_slope:VCAL_MED_offset:TrefTsensors:Nf1:Nf2:Nf3:Nf4:RD53chipID:Comment:BoardComment:
TSMC_N2WX39-05D4:TSMC_N2WX39-05D4_9_8:9:8:1:yellow:4:1:CERN:0:0:0:none:CERN:3.962521e-06:7:1.191406:27:1.201095:22:0.9022116:13:0:2.098E-04:1.042E-02:2.112E-04:1.010E-02:0:0:0:0:0:5498:Probed at CERN, Iref = 3.962521e-06 with trim bits 7:No loaded to any board yet
TSMC_N2WX39-05D4:TSMC_N2WX39-05D4_8_8:8:8:1:yellow:4:1:CERN:0:0:0:none:CERN:4.049542e-06:11:1.201163:29:1.195071:15:0.9047542:12:0:2.102E-04:1.087E-02:2.118E-04:1.044E-02:0:0:0:0:0:5488:Probed at CERN, Iref = 4.049542e-06 with trim bits 11:No loaded to any board yet
TSMC_N2WX39-05D4:TSMC_N2WX39-05D4_7_8:7:8:2:green:4:2:CERN:0:0:0:none:CERN:4.037852e-06:11:1.198319:26:1.199008:13:0.8956688:11:0:2.084E-04:1.077E-02:2.100E-04:1.041E-02:0:0:0:0:0:5478:Probed at CERN, Iref = 4.037852e-06 with trim bits 11:No loaded to any board yet
TSMC_N2WX39-05D4:TSMC_N2WX39-05D4_6_8:6:8:1:yellow:4:1:CERN:0:0:0:none:CERN:3.99762e-06:9:1.202376:26:1.198426:23:0.8971173:11:0:2.087E-04:1.006E-02:2.102E-04:9.719E-03:0:0:0:0:0:5468:Probed at CERN, Iref = 3.99762e-06 with trim bits 9:No loaded to any board yet
TSMC_N2WX39-05D4:TSMC_N2WX39-05D4_5_8:5:8:1:yellow:4:1:CERN:0:0:0:none:CERN:4.026075e-06:9:1.202687:27:1.201128:20:0.901751:10:0:2.096E-04:1.044E-02:2.112E-04:9.955E-03:0:0:0:0:0:5458:Probed at CERN, Iref = 4.026075e-06 with trim bits 9:No loaded to any board yet
TSMC_N2WX39-05D4:TSMC_N2WX39-05D4_4_8:4:8:1:yellow:4:1:CERN:0:0:0:none:CERN:3.961297e-06:9:1.188834:23:1.198764:23:0.8979191:13:0:2.087E-04:9.912E-03:2.104E-04:9.585E-03:0:0:0:0:0:5448:Probed at CERN, Iref = 3.961297e-06 with trim bits 9:No loaded to any board yet
TSMC_N2WX39-05D4:TSMC_N2WX39-05D4_3_8:3:8:1:yellow:4:1:CERN:0:0:0:none:CERN:3.985554e-06:9:1.197813:25:1.20683:16:0.9014332:10:0:2.097E-04:9.846E-03:2.113E-04:9.550E-03:0:0:0:0:0:5438:Probed at CERN, Iref = 3.985554e-06 with trim bits 9:No loaded to any board yet
TSMC_N2WX39-05D4:TSMC_N2WX39-05D4_2_8:2:8:1:yellow:4:1:CERN:0:0:0:none:CERN:3.937141e-06:7:1.209403:24:1.199515:18:0.8977056:11:0:2.092E-04:1.042E-02:2.108E-04:9.891E-03:0:0:0:0:0:5428:Probed at CERN, Iref = 3.937141e-06 with trim bits 7:No loaded to any board yet
TSMC_N2WX39-05D4:TSMC_N2WX39-05D4_1_8:1:8:1:yellow:4:1:CERN:0:0:0:none:CERN:4.005467e-06:7:1.198936:23:1.206947:16:0.8964887:11:0:2.094E-04:1.127E-02:2.111E-04:1.069E-02:0:0:0:0:0:5418:Probed at CERN, Iref = 4.005467e-06 with trim bits 7:No loaded to any board yet
TSMC_N2WX39-05D4:TSMC_N2WX39-05D4_1_7:1:7:2:green:4:2:CERN:0:0:0:none:CERN:4.048988e-06:7:1.20346:20:1.202889:24:0.899482:12:0:2.098E-04:1.013E-02:2.114E-04:9.595E-03:0:0:0:0:0:5417:Probed at CERN, Iref = 4.048988e-06 with trim bits 7:No loaded to any board yet
TSMC_N2WX39-05D4:TSMC_N2WX39-05D4_2_7:2:7:1:yellow:4:1:CERN:0:0:0:none:CERN:4.000759e-06:9:1.201364:26:1.200779:18:0.8998039:10:0:2.096E-04:1.014E-02:2.111E-04:9.814E-03:0:0:0:0:0:5427:Probed at CERN, Iref = 4.000759e-06 with trim bits 9:No loaded to any board yet
TSMC_N2WX39-05D4:TSMC_N2WX39-05D4_3_7:3:7:1:yellow:4:1:CERN:0:0:0:none:CERN:4.029636e-06:9:1.201807:26:1.198634:22:0.8961574:13:0:2.086E-04:1.022E-02:2.101E-04:9.879E-03:0:0:0:0:0:5437:Probed at CERN, Iref = 4.029636e-06 with trim bits 9:No loaded to any board yet
TSMC_N2WX39-05D4:TSMC_N2WX39-05D4_4_7:4:7:2:green:4:2:CERN:0:0:0:none:CERN:4.048522e-06:10:1.198584:25:1.199281:18:0.9012655:11:0:2.101E-04:1.020E-02:2.116E-04:9.697E-03:0:0:0:0:0:5447:Probed at CERN, Iref = 4.048522e-06 with trim bits 10:No loaded to any board yet
TSMC_N2WX39-05D4:TSMC_N2WX39-05D4_5_7:5:7:1:yellow:4:1:CERN:0:0:0:none:CERN:3.964953e-06:9:1.192672:25:1.204343:20:0.8986318:10:0:2.095E-04:9.952E-03:2.110E-04:9.653E-03:0:0:0:0:0:5457:Probed at CERN, Iref = 3.964953e-06 with trim bits 9:No loaded to any board yet
TSMC_N2WX39-05D4:TSMC_N2WX39-05D4_6_7:6:7:1:yellow:4:1:CERN:0:0:0:none:CERN:3.982049e-06:9:1.19015:27:1.196186:18:0.901184:11:0:2.095E-04:1.041E-02:2.110E-04:1.003E-02:0:0:0:0:0:5467:Probed at CERN, Iref = 3.982049e-06 with trim bits 9:No loaded to any board yet
TSMC_N2WX39-05D4:TSMC_N2WX39-05D4_7_7:7:7:1:yellow:4:1:CERN:0:0:0:none:CERN:4.018194e-06:9:1.197106:28:1.203123:20:0.8966137:11:0:2.085E-04:1.018E-02:2.100E-04:9.647E-03:0:0:0:0:0:5477:Probed at CERN, Iref = 4.018194e-06 with trim bits 9:No loaded to any board yet
TSMC_N2WX39-05D4:TSMC_N2WX39-05D4_8_7:8:7:1:yellow:4:1:CERN:0:0:0:none:CERN:4.03906e-06:9:1.208264:24:1.19467:23:0.8805309:9:0:2.050E-04:9.911E-03:2.067E-04:9.392E-03:0:0:0:0:0:5487:Probed at CERN, Iref = 4.03906e-06 with trim bits 9:No loaded to any board yet
TSMC_N2WX39-05D4:TSMC_N2WX39-05D4_9_7:9:7:1:yellow:4:1:CERN:0:0:0:none:CERN:3.983659e-06:10:1.201825:29:1.196748:23:0.8983374:11:0:2.090E-04:9.948E-03:2.105E-04:9.537E-03:0:0:0:0:0:5497:Probed at CERN, Iref = 3.983659e-06 with trim bits 10:No loaded to any board yet
TSMC_N2WX39-05D4:TSMC_N2WX39-05D4_10_7:10:7:1:yellow:4:1:CERN:0:0:0:none:CERN:4.038636e-06:9:1.203126:25:1.199207:15:0.9016554:12:0:2.099E-04:1.111E-02:2.114E-04:1.050E-02:0:0:0:0:0:54A7:Probed at CERN, Iref = 4.038636e-06 with trim bits 9:No loaded to any board yet
TSMC_N2WX39-05D4:TSMC_N2WX39-05D4_10_6:10:6:2:green:4:2:CERN:0:0:0:none:CERN:3.985027e-06:8:1.189227:23:1.194927:17:0.8973758:13:0:2.091E-04:9.617E-03:2.105E-04:9.310E-03:0:0:0:0:0:54A6:Probed at CERN, Iref = 3.985027e-06 with trim bits 8:No loaded to any board yet
TSMC_N2WX39-05D4:TSMC_N2WX39-05D4_9_6:9:6:1:yellow:4:1:CERN:0:0:0:none:CERN:3.988803e-06:6:1.195725:21:1.197928:16:0.8983754:11:0:2.093E-04:9.881E-03:2.108E-04:9.437E-03:0:0:0:0:0:5496:Probed at CERN, Iref = 3.988803e-06 with trim bits 6:No loaded to any board yet
TSMC_N2WX39-05D4:TSMC_N2WX39-05D4_8_6:8:6:1:yellow:4:1:CERN:0:0:0:none:CERN:3.996211e-06:10:1.201303:25:1.192235:19:0.893042:15:0:2.080E-04:9.729E-03:2.095E-04:9.468E-03:0:0:0:0:0:5486:Probed at CERN, Iref = 3.996211e-06 with trim bits 10:No loaded to any board yet
TSMC_N2WX39-05D4:TSMC_N2WX39-05D4_7_6:7:6:2:green:4:2:CERN:0:0:0:none:CERN:4.015659e-06:11:1.198527:22:1.204178:25:0.9009293:11:0:2.094E-04:9.963E-03:2.109E-04:9.585E-03:0:0:0:0:0:5476:Probed at CERN, Iref = 4.015659e-06 with trim bits 11:No loaded to any board yet
TSMC_N2WX39-05D4:TSMC_N2WX39-05D4_6_6:6:6:1:yellow:4:1:CERN:0:0:0:none:CERN:4.045571e-06:8:1.197914:22:1.203094:16:0.8985538:11:0:2.089E-04:9.956E-03:2.105E-04:9.288E-03:0:0:0:0:0:5466:Probed at CERN, Iref = 4.045571e-06 with trim bits 8:No loaded to any board yet
TSMC_N2WX39-05D4:TSMC_N2WX39-05D4_5_6:5:6:1:yellow:4:1:CERN:0:0:0:none:CERN:4.016998e-06:8:1.204925:23:1.197285:20:0.9014131:10:0:2.098E-04:1.015E-02:2.114E-04:9.691E-03:0:0:0:0:0:5456:Probed at CERN, Iref = 4.016998e-06 with trim bits 8:No loaded to any board yet
TSMC_N2WX39-05D4:TSMC_N2WX39-05D4_4_6:4:6:2:green:4:2:CERN:0:0:0:none:CERN:3.974208e-06:7:1.202644:21:1.201131:25:0.8947551:11:0:2.088E-04:9.982E-03:2.104E-04:9.559E-03:0:0:0:0:0:5446:Probed at CERN, Iref = 3.974208e-06 with trim bits 7:No loaded to any board yet
TSMC_N2WX39-05D4:TSMC_N2WX39-05D4_3_6:3:6:2:green:4:2:CERN:0:0:0:none:CERN:3.959213e-06:7:1.198382:21:1.197881:18:0.8982083:12:0:2.093E-04:9.556E-03:2.108E-04:9.249E-03:0:0:0:0:0:5436:Probed at CERN, Iref = 3.959213e-06 with trim bits 7:No loaded to any board yet
TSMC_N2WX39-05D4:TSMC_N2WX39-05D4_2_6:2:6:1:yellow:4:1:CERN:0:0:0:none:CERN:4.009664e-06:10:1.195544:26:1.201181:22:0.9007066:15:0:2.098E-04:9.988E-03:2.113E-04:9.581E-03:0:0:0:0:0:5426:Probed at CERN, Iref = 4.009664e-06 with trim bits 10:No loaded to any board yet
TSMC_N2WX39-05D4:TSMC_N2WX39-05D4_1_6:1:6:2:green:4:2:CERN:0:0:0:none:CERN:3.975134e-06:8:1.199686:26:1.198759:24:0.9014826:9:0:2.105E-04:1.003E-02:2.119E-04:9.849E-03:0:0:0:0:0:5416:Probed at CERN, Iref = 3.975134e-06 with trim bits 8:No loaded to any board yet
TSMC_N2WX39-05D4:TSMC_N2WX39-05D4_2_5:2:5:2:green:4:2:CERN:0:0:0:none:CERN:4.056642e-06:6:1.190317:23:1.200734:21:0.899759:10:0:2.105E-04:9.582E-03:2.119E-04:9.328E-03:0:0:0:0:0:5425:Probed at CERN, Iref = 4.056642e-06 with trim bits 6:No loaded to any board yet
TSMC_N2WX39-05D4:TSMC_N2WX39-05D4_3_5:3:5:1:yellow:4:1:CERN:0:0:0:none:CERN:4.003579e-06:9:1.201481:22:1.201215:18:0.8971118:9:0:2.091E-04:9.586E-03:2.107E-04:9.150E-03:0:0:0:0:0:5435:Probed at CERN, Iref = 4.003579e-06 with trim bits 9:No loaded to any board yet
TSMC_N2WX39-05D4:TSMC_N2WX39-05D4_4_5:4:5:1:yellow:4:1:CERN:0:0:0:none:CERN:4.035423e-06:11:1.203661:25:1.20648:22:0.8990489:11:0:2.097E-04:9.811E-03:2.113E-04:9.383E-03:0:0:0:0:0:5445:Probed at CERN, Iref = 4.035423e-06 with trim bits 11:No loaded to any board yet
TSMC_N2WX39-05D4:TSMC_N2WX39-05D4_5_5:5:5:2:green:4:2:CERN:0:0:0:none:CERN:3.95875e-06:9:1.205409:26:1.195745:23:0.9032504:12:0:2.103E-04:1.011E-02:2.116E-04:9.682E-03:0:0:0:0:0:5455:Probed at CERN, Iref = 3.95875e-06 with trim bits 9:No loaded to any board yet
TSMC_N2WX39-05D4:TSMC_N2WX39-05D4_6_5:6:5:2:green:4:2:CERN:0:0:0:none:CERN:4.019344e-06:6:1.193105:21:1.195814:20:0.9045442:12:0:2.107E-04:9.884E-03:2.123E-04:9.319E-03:0:0:0:0:0:5465:Probed at CERN, Iref = 4.019344e-06 with trim bits 6:No loaded to any board yet
TSMC_N2WX39-05D4:TSMC_N2WX39-05D4_7_5:7:5:1:yellow:4:1:CERN:0:0:0:none:CERN:4.044556e-06:11:1.1975:26:1.196991:14:0.8966852:13:0:2.087E-04:9.794E-03:2.105E-04:9.336E-03:0:0:0:0:0:5475:Probed at CERN, Iref = 4.044556e-06 with trim bits 11:No loaded to any board yet
TSMC_N2WX39-05D4:TSMC_N2WX39-05D4_8_5:8:5:1:yellow:4:1:CERN:0:0:0:none:CERN:4.006086e-06:9:1.202808:24:1.193693:21:0.898542:14:0:2.093E-04:9.675E-03:2.108E-04:9.153E-03:0:0:0:0:0:5485:Probed at CERN, Iref = 4.006086e-06 with trim bits 9:No loaded to any board yet
TSMC_N2WX39-05D4:TSMC_N2WX39-05D4_9_5:9:5:2:green:4:2:CERN:0:0:0:none:CERN:3.941783e-06:6:1.19522:23:1.200981:14:0.8954931:11:0:2.091E-04:9.613E-03:2.107E-04:9.166E-03:0:0:0:0:0:5495:Probed at CERN, Iref = 3.941783e-06 with trim bits 6:No loaded to any board yet
TSMC_N2WX39-05D4:TSMC_N2WX39-05D4_10_5:10:5:2:green:4:2:CERN:0:0:0:none:CERN:4.008559e-06:9:1.195366:21:1.211072:16:0.8968154:13:0:2.092E-04:1.002E-02:2.107E-04:9.541E-03:0:0:0:0:0:54A5:Probed at CERN, Iref = 4.008559e-06 with trim bits 9:No loaded to any board yet
TSMC_N2WX39-05D4:TSMC_N2WX39-05D4_9_4:9:4:1:yellow:4:1:CERN:0:0:0:none:CERN:4.035118e-06:8:1.198875:23:1.210136:24:0.8988971:10:0:2.098E-04:9.712E-03:2.112E-04:9.352E-03:0:0:0:0:0:5494:Probed at CERN, Iref = 4.035118e-06 with trim bits 8:No loaded to any board yet
TSMC_N2WX39-05D4:TSMC_N2WX39-05D4_8_4:8:4:1:yellow:4:1:CERN:0:0:0:none:CERN:3.962598e-06:9:1.206548:26:1.204677:20:0.9045673:12:0:2.106E-04:9.670E-03:2.122E-04:9.245E-03:0:0:0:0:0:5484:Probed at CERN, Iref = 3.962598e-06 with trim bits 9:No loaded to any board yet
TSMC_N2WX39-05D4:TSMC_N2WX39-05D4_7_4:7:4:1:yellow:4:1:CERN:0:0:0:none:CERN:4.048988e-06:9:1.199397:29:1.196501:19:0.8970116:11:0:2.091E-04:9.982E-03:2.105E-04:9.528E-03:0:0:0:0:0:5474:Probed at CERN, Iref = 4.048988e-06 with trim bits 9:No loaded to any board yet
TSMC_N2WX39-05D4:TSMC_N2WX39-05D4_6_4:6:4:2:green:4:2:CERN:0:0:0:none:CERN:4.053995e-06:6:1.206146:22:1.191314:23:0.8988491:11:0:2.095E-04:9.595E-03:2.110E-04:9.348E-03:0:0:0:0:0:5464:Probed at CERN, Iref = 4.053995e-06 with trim bits 6:No loaded to any board yet
TSMC_N2WX39-05D4:TSMC_N2WX39-05D4_5_4:5:4:2:green:4:2:CERN:0:0:0:none:CERN:3.977756e-06:11:1.205787:24:1.202304:22:0.898508:12:0:2.091E-04:9.679E-03:2.109E-04:9.041E-03:0:0:0:0:0:5454:Probed at CERN, Iref = 3.977756e-06 with trim bits 11:No loaded to any board yet
TSMC_N2WX39-05D4:TSMC_N2WX39-05D4_4_4:4:4:2:green:4:2:CERN:0:0:0:none:CERN:3.996394e-06:7:1.189726:23:1.201782:24:0.8988785:12:0:2.094E-04:9.396E-03:2.108E-04:8.937E-03:0:0:0:0:0:5444:Probed at CERN, Iref = 3.996394e-06 with trim bits 7:No loaded to any board yet
TSMC_N2WX39-05D4:TSMC_N2WX39-05D4_3_4:3:4:2:green:4:2:CERN:0:0:0:none:CERN:4.008993e-06:9:1.199838:21:1.201753:17:0.8995:14:0:2.104E-04:9.454E-03:2.119E-04:8.998E-03:0:0:0:0:0:5434:Probed at CERN, Iref = 4.008993e-06 with trim bits 9:No loaded to any board yet
TSMC_N2WX39-05D4:TSMC_N2WX39-05D4_2_4:2:4:1:yellow:4:1:CERN:0:0:0:none:CERN:3.958282e-06:8:1.199056:24:1.204915:20:0.8994873:12:0:2.099E-04:9.656E-03:2.114E-04:9.444E-03:0:0:0:0:0:5424:Probed at CERN, Iref = 3.958282e-06 with trim bits 8:No loaded to any board yet
TSMC_N2WX39-05D4:TSMC_N2WX39-05D4_2_3:2:3:10:red:4:10:CERN:0:0:0:none:CERN:3.979209e-06:8:1.194612:27:1.200003:24:0.9019811:13:0:2.098E-04:1.249E-02:2.113E-04:1.211E-02:0:0:0:0:0:5423:Probed at CERN, Iref = 3.979209e-06 with trim bits 8:No loaded to any board yet
TSMC_N2WX39-05D4:TSMC_N2WX39-05D4_3_3:3:3:2:green:4:2:CERN:0:0:0:none:CERN:3.937155e-06:6:1.198833:21:1.199199:24:0.8980031:13:0:2.098E-04:9.224E-03:2.113E-04:8.873E-03:0:0:0:0:0:5433:Probed at CERN, Iref = 3.937155e-06 with trim bits 6:No loaded to any board yet
TSMC_N2WX39-05D4:TSMC_N2WX39-05D4_4_3:4:3:2:green:4:2:CERN:0:0:0:none:CERN:3.951125e-06:6:1.19539:25:1.188452:23:0.8973387:11:0:2.097E-04:9.188E-03:2.112E-04:8.847E-03:0:0:0:0:0:5443:Probed at CERN, Iref = 3.951125e-06 with trim bits 6:No loaded to any board yet
TSMC_N2WX39-05D4:TSMC_N2WX39-05D4_5_3:5:3:2:green:4:2:CERN:0:0:0:none:CERN:3.957827e-06:6:1.210041:24:1.198891:25:0.901598:13:0:2.105E-04:9.560E-03:2.121E-04:9.173E-03:0:0:0:0:0:5453:Probed at CERN, Iref = 3.957827e-06 with trim bits 6:No loaded to any board yet
TSMC_N2WX39-05D4:TSMC_N2WX39-05D4_6_3:6:3:2:green:4:2:CERN:0:0:0:none:CERN:4.040473e-06:9:1.200942:22:1.200445:21:0.8978858:12:0:2.093E-04:9.884E-03:2.109E-04:9.533E-03:0:0:0:0:0:5463:Probed at CERN, Iref = 4.040473e-06 with trim bits 9:No loaded to any board yet
TSMC_N2WX39-05D4:TSMC_N2WX39-05D4_7_3:7:3:1:yellow:4:1:CERN:0:0:0:none:CERN:4.053413e-06:8:1.209156:28:1.201509:21:0.9021723:12:0:2.110E-04:9.834E-03:2.125E-04:9.372E-03:0:0:0:0:0:5473:Probed at CERN, Iref = 4.053413e-06 with trim bits 8:No loaded to any board yet
TSMC_N2WX39-05D4:TSMC_N2WX39-05D4_8_3:8:3:1:yellow:4:1:CERN:0:0:0:none:CERN:4.012542e-06:10:1.206951:28:1.187038:23:0.9015297:12:0:2.101E-04:9.764E-03:2.117E-04:9.370E-03:0:0:0:0:0:5483:Probed at CERN, Iref = 4.012542e-06 with trim bits 10:No loaded to any board yet
TSMC_N2WX39-05D4:TSMC_N2WX39-05D4_9_3:9:3:10:red:4:10:CERN:0:0:0:none:CERN:0:0:0:0:0:0:0:0:0:0.000E+00:0.000E+00:0.000E+00:0.000E+00:0:0:0:0:0:5493:Probed at CERN, Iref = 0 with trim bits 0:No loaded to any board yet
TSMC_N2WX39-05D4:TSMC_N2WX39-05D4_8_2:8:2:2:green:4:2:CERN:0:0:0:none:CERN:4.057174e-06:8:1.195632:25:1.198849:20:0.8978879:14:0:2.094E-04:9.893E-03:2.109E-04:9.444E-03:0:0:0:0:0:5482:Probed at CERN, Iref = 4.057174e-06 with trim bits 8:No loaded to any board yet
TSMC_N2WX39-05D4:TSMC_N2WX39-05D4_7_2:7:2:1:yellow:4:1:CERN:0:0:0:none:CERN:3.958851e-06:8:1.195328:24:1.194178:25:0.8954283:11:0:2.088E-04:9.556E-03:2.104E-04:8.963E-03:0:0:0:0:0:5472:Probed at CERN, Iref = 3.958851e-06 with trim bits 8:No loaded to any board yet
TSMC_N2WX39-05D4:TSMC_N2WX39-05D4_6_2:6:2:1:yellow:4:1:CERN:0:0:0:none:CERN:3.979752e-06:7:1.200958:23:1.206857:18:0.901636:12:0:2.104E-04:9.499E-03:2.119E-04:9.317E-03:0:0:0:0:0:5462:Probed at CERN, Iref = 3.979752e-06 with trim bits 7:No loaded to any board yet
TSMC_N2WX39-05D4:TSMC_N2WX39-05D4_5_2:5:2:1:yellow:4:1:CERN:0:0:0:none:CERN:3.988795e-06:7:1.202566:19:1.202297:23:0.8969935:11:0:2.096E-04:9.474E-03:2.111E-04:9.041E-03:0:0:0:0:0:5452:Probed at CERN, Iref = 3.988795e-06 with trim bits 7:No loaded to any board yet
TSMC_N2WX39-05D4:TSMC_N2WX39-05D4_4_2:4:2:2:green:4:2:CERN:0:0:0:none:CERN:3.999332e-06:7:1.19801:27:1.197936:16:0.900284:13:0:2.096E-04:9.563E-03:2.112E-04:9.142E-03:0:0:0:0:0:5442:Probed at CERN, Iref = 3.999332e-06 with trim bits 7:No loaded to any board yet
TSMC_N2WX39-05D4:TSMC_N2WX39-05D4_5_1:5:1:2:green:4:2:CERN:0:0:0:none:CERN:3.988269e-06:7:1.198947:24:1.197013:21:0.8948244:15:0:2.090E-04:9.605E-03:2.104E-04:9.188E-03:0:0:0:0:0:5451:Probed at CERN, Iref = 3.988269e-06 with trim bits 7:No loaded to any board yet
TSMC_N2WX39-05D4:TSMC_N2WX39-05D4_6_1:6:1:1:yellow:4:1:CERN:0:0:0:none:CERN:4.036207e-06:7:1.200117:20:1.193612:21:0.8985595:12:0:2.099E-04:9.623E-03:2.115E-04:9.114E-03:0:0:0:0:0:5461:Probed at CERN, Iref = 4.036207e-06 with trim bits 7:No loaded to any board yet
TSMC_N2WX39-05D4:TSMC_N2WX39-05D4_8_10:8:10:2:green:4:2:CERN:0:0:0:none:CERN:4.049562e-06:8:1.195894:21:1.203554:19:0.8985956:14:0:2.095E-04:1.144E-02:2.110E-04:1.108E-02:0:0:0:0:0:548A:Probed at CERN, Iref = 4.049562e-06 with trim bits 8:No loaded to any board yet
TSMC_N2WX39-05D4:TSMC_N2WX39-05D4_6_10:6:10:1:yellow:4:1:CERN:0:0:0:none:CERN:4.019952e-06:8:1.198686:25:1.200815:18:0.8971602:9:0:2.086E-04:1.146E-02:2.100E-04:1.098E-02:0:0:0:0:0:546A:Probed at CERN, Iref = 4.019952e-06 with trim bits 8:No loaded to any board yet
TSMC_N2WX39-05D4:TSMC_N2WX39-05D4_7_10:7:10:1:yellow:4:1:CERN:0:0:0:none:CERN:3.97762e-06:8:1.202051:27:1.195501:17:0.8994443:11:0:2.093E-04:1.168E-02:2.107E-04:1.127E-02:0:0:0:0:0:547A:Probed at CERN, Iref = 3.97762e-06 with trim bits 8:No loaded to any board yet
TSMC_N2WX39-05D4:TSMC_N2WX39-05D4_3_9:3:9:1:yellow:4:1:CERN:0:0:0:none:CERN:4.048586e-06:10:1.198825:25:1.201124:22:0.8992003:10:0:2.094E-04:1.070E-02:2.109E-04:1.033E-02:0:0:0:0:0:5439:Probed at CERN, Iref = 4.048586e-06 with trim bits 10:No loaded to any board yet
TSMC_N2WX39-05D4:TSMC_N2WX39-05D4_5_10:5:10:1:yellow:4:1:CERN:0:0:0:none:CERN:4.013016e-06:8:1.200398:23:1.208141:20:0.898254:9:0:2.091E-04:1.101E-02:2.106E-04:1.071E-02:0:0:0:0:0:545A:Probed at CERN, Iref = 4.013016e-06 with trim bits 8:No loaded to any board yet
TSMC_N2WX39-05D4:TSMC_N2WX39-05D4_4_10:4:10:1:yellow:4:1:CERN:0:0:0:none:CERN:3.958502e-06:8:1.189635:23:1.209095:24:0.9032878:12:0:2.105E-04:1.153E-02:2.120E-04:1.105E-02:0:0:0:0:0:544A:Probed at CERN, Iref = 3.958502e-06 with trim bits 8:No loaded to any board yet
TSMC_N2WX39-05D4:TSMC_N2WX39-05D4_3_10:3:10:1:yellow:4:1:CERN:0:0:0:none:CERN:4.034272e-06:7:1.20052:25:1.207661:20:0.9041452:12:0:2.105E-04:1.100E-02:2.122E-04:1.044E-02:0:0:0:0:0:543A:Probed at CERN, Iref = 4.034272e-06 with trim bits 7:No loaded to any board yet
TSMC_N2WX39-05D4:TSMC_N2WX39-05D4_4_9:4:9:1:yellow:4:1:CERN:0:0:0:none:CERN:3.994575e-06:9:1.198645:28:1.197675:20:0.9016823:13:0:2.103E-04:1.055E-02:2.118E-04:1.010E-02:0:0:0:0:0:5449:Probed at CERN, Iref = 3.994575e-06 with trim bits 9:No loaded to any board yet
TSMC_N2WX39-05D4:TSMC_N2WX39-05D4_10_8:10:8:1:yellow:4:1:CERN:0:0:0:none:CERN:3.970043e-06:10:1.210457:24:1.202396:19:0.8987972:12:0:2.095E-04:1.041E-02:2.111E-04:9.911E-03:0:0:0:0:0:54A8:Probed at CERN, Iref = 3.970043e-06 with trim bits 10:No loaded to any board yet
TSMC_N2WX39-05D4:TSMC_N2WX39-05D4_5_9:5:9:2:green:4:2:CERN:0:0:0:none:CERN:3.995406e-06:8:1.201748:25:1.192632:23:0.9047851:12:0:2.104E-04:1.058E-02:2.120E-04:1.008E-02:0:0:0:0:0:5459:Probed at CERN, Iref = 3.995406e-06 with trim bits 8:No loaded to any board yet
TSMC_N2WX39-05D4:TSMC_N2WX39-05D4_6_9:6:9:1:yellow:4:1:CERN:0:0:0:none:CERN:4.01214e-06:7:1.202544:26:1.189538:15:0.897824:10:0:2.092E-04:1.091E-02:2.108E-04:1.048E-02:0:0:0:0:0:5469:Probed at CERN, Iref = 4.01214e-06 with trim bits 7:No loaded to any board yet
TSMC_N2WX39-05D4:TSMC_N2WX39-05D4_9_9:9:9:2:green:4:2:CERN:0:0:0:none:CERN:4.049292e-06:7:1.18725:23:1.202849:19:0.8965705:11:0:2.089E-04:1.099E-02:2.104E-04:1.058E-02:0:0:0:0:0:5499:Probed at CERN, Iref = 4.049292e-06 with trim bits 7:No loaded to any board yet
TSMC_N2WX39-05D4:TSMC_N2WX39-05D4_10_9:10:9:10:red:4:10:CERN:0:0:0:none:CERN:0:0:0:0:0:0:0:0:0:0.000E+00:0.000E+00:0.000E+00:0.000E+00:0:0:0:0:0:54A9:Probed at CERN, Iref = 0 with trim bits 0:No loaded to any board yet
TSMC_N2WX39-05D4:TSMC_N2WX39-05D4_2_10:2:10:2:green:4:2:CERN:0:0:0:none:CERN:3.999548e-06:9:1.201457:16:1.1986:20:0.9051155:12:0:2.108E-04:1.084E-02:2.124E-04:1.027E-02:0:0:0:0:0:542A:Probed at CERN, Iref = 3.999548e-06 with trim bits 9:No loaded to any board yet
TSMC_N2WX39-05D4:TSMC_N2WX39-05D4_2_9:2:9:2:green:4:2:CERN:0:0:0:none:CERN:3.969991e-06:8:1.194038:21:1.197268:22:0.8999129:12:0:2.095E-04:1.099E-02:2.110E-04:1.068E-02:0:0:0:0:0:5429:Probed at CERN, Iref = 3.969991e-06 with trim bits 8:No loaded to any board yet
TSMC_N2WX39-05D4:TSMC_N2WX39-05D4_7_9:7:9:2:green:4:2:CERN:0:0:0:none:CERN:4.054642e-06:6:1.200052:25:1.195538:19:0.8993704:11:0:2.101E-04:1.095E-02:2.117E-04:1.060E-02:0:0:0:0:0:5479:Probed at CERN, Iref = 4.054642e-06 with trim bits 6:No loaded to any board yet
TSMC_N2WX39-05D4:TSMC_N2WX39-05D4_8_9:8:9:1:yellow:4:1:CERN:0:0:0:none:CERN:4.037522e-06:10:1.190509:27:1.200893:22:0.8991854:13:0:2.093E-04:1.070E-02:2.110E-04:1.021E-02:0:0:0:0:0:5489:Probed at CERN, Iref = 4.037522e-06 with trim bits 10:No loaded to any board yet
TSMC_N2WX39-05D4:TSMC_N2WX39-05D4_9_10:9:10:2:green:4:2:CERN:0:0:0:none:CERN:4.00098e-06:7:1.19436:23:1.19661:17:0.9001234:12:0:2.091E-04:1.190E-02:2.106E-04:1.136E-02:0:0:0:0:0:549A:Probed at CERN, Iref = 4.00098e-06 with trim bits 7:No loaded to any board yet
TSMC_N2WX39-05D4:TSMC_N2WX39-05D4_6_12:6:12:1:yellow:4:1:CERN:0:0:0:none:CERN:4.05122e-06:7:1.199555:25:1.207391:20:0.9005402:10:0:2.080E-04:1.930E-02:2.095E-04:1.894E-02:0:0:0:0:0:546C:Probed at CERN, Iref = 4.05122e-06 with trim bits 7:No loaded to any board yet
TSMC_N2WX39-05D4:TSMC_N2WX39-05D4_7_12:7:12:2:green:4:2:CERN:0:0:0:none:CERN:3.971502e-06:7:1.198003:23:1.201524:12:0.8974998:9:0:2.085E-04:1.572E-02:2.099E-04:1.545E-02:0:0:0:0:0:547C:Probed at CERN, Iref = 3.971502e-06 with trim bits 7:No loaded to any board yet
TSMC_N2WX39-05D4:TSMC_N2WX39-05D4_6_11:6:11:1:yellow:4:1:CERN:0:0:0:none:CERN:4.0658e-06:8:1.194243:23:1.200526:18:0.899338:12:0:2.087E-04:1.279E-02:2.101E-04:1.241E-02:0:0:0:0:0:546B:Probed at CERN, Iref = 4.0658e-06 with trim bits 8:No loaded to any board yet
TSMC_N2WX39-05D4:TSMC_N2WX39-05D4_5_12:5:12:2:green:4:2:CERN:0:0:0:none:CERN:4.017322e-06:9:1.200648:19:1.200624:21:0.8934097:7:0:2.067E-04:1.754E-02:2.082E-04:1.718E-02:0:0:0:0:0:545C:Probed at CERN, Iref = 4.017322e-06 with trim bits 9:No loaded to any board yet
TSMC_N2WX39-05D4:TSMC_N2WX39-05D4_4_12:4:12:1:yellow:4:1:CERN:0:0:0:none:CERN:4.047033e-06:6:1.194145:21:1.200214:18:0.9011573:8:0:2.097E-04:1.437E-02:2.114E-04:1.371E-02:0:0:0:0:0:544C:Probed at CERN, Iref = 4.047033e-06 with trim bits 6:No loaded to any board yet
TSMC_N2WX39-05D4:TSMC_N2WX39-05D4_3_11:3:11:2:green:4:2:CERN:0:0:0:none:CERN:3.958146e-06:9:1.203125:24:1.196329:19:0.9036983:12:0:2.096E-04:1.568E-02:2.109E-04:1.533E-02:0:0:0:0:0:543B:Probed at CERN, Iref = 3.958146e-06 with trim bits 9:No loaded to any board yet
TSMC_N2WX39-05D4:TSMC_N2WX39-05D4_7_11:7:11:1:yellow:4:1:CERN:0:0:0:none:CERN:4.030193e-06:8:1.191066:23:1.21114:16:0.9011341:10:0:2.094E-04:1.259E-02:2.109E-04:1.226E-02:0:0:0:0:0:547B:Probed at CERN, Iref = 4.030193e-06 with trim bits 8:No loaded to any board yet
TSMC_N2WX39-05D4:TSMC_N2WX39-05D4_8_11:8:11:1:yellow:4:1:CERN:0:0:0:none:CERN:3.957095e-06:7:1.198876:23:1.192412:21:0.900141:11:0:2.094E-04:1.209E-02:2.110E-04:1.171E-02:0:0:0:0:0:548B:Probed at CERN, Iref = 3.957095e-06 with trim bits 7:No loaded to any board yet
TSMC_N2WX39-05D4:TSMC_N2WX39-05D4_4_11:4:11:2:green:4:2:CERN:0:0:0:none:CERN:3.968065e-06:6:1.203677:25:1.199811:19:0.9013573:10:0:2.092E-04:1.351E-02:2.107E-04:1.288E-02:0:0:0:0:0:544B:Probed at CERN, Iref = 3.968065e-06 with trim bits 6:No loaded to any board yet
TSMC_N2WX39-05D4:TSMC_N2WX39-05D4_5_11:5:11:1:yellow:4:1:CERN:0:0:0:none:CERN:3.955103e-06:11:1.202096:29:1.20039:23:0.8974566:11:0:2.084E-04:1.415E-02:2.099E-04:1.368E-02:0:0:0:0:0:545B:Probed at CERN, Iref = 3.955103e-06 with trim bits 11:No loaded to any board yet
