%CMSwaferCode:CMSchipCode:ChipColumn:ChipRow:Grading:Color:CutVersion:Status:Location:ChipBoardType:BoardNumber:Dose:Sensor:ProbingSite:Iref:IrefTrim:Vref_A:Vref_A_Trim:Vref_D:Vref_D_Trim:Vref_ADC:Vref_ADC_Trim:MON_ADC_Trim:VCAL_HIGH_slope:VCAL_HIGH_offset:VCAL_MED_slope:VCAL_MED_offset:TrefTsensors:Nf1:Nf2:Nf3:Nf4:RD53chipID:Comment:BoardComment:
TSMC_N2WX39-17E5:TSMC_N2WX39-17E5_6_12:6:12:1:yellow:4:1:Torino:0:0:0:none:Torino:4.034939e-06:7:1.19959:28:1.198778:16:0.9007477:8:0:1.374E-08:8.864E-02:4.967E-09:1.306E-01:0:0:0:0:0:606C:Probed at Torino, Iref = 4.034939e-06 with trim bits 7:No loaded to any board yet
TSMC_N2WX39-17E5:TSMC_N2WX39-17E5_5_11:5:11:1:yellow:4:1:Torino:0:0:0:none:Torino:4.02351e-06:10:1.204992:27:1.201963:21:0.8998482:8:0:1.090E-08:8.442E-02:5.633E-09:1.268E-01:0:0:0:0:0:605B:Probed at Torino, Iref = 4.02351e-06 with trim bits 10:No loaded to any board yet
TSMC_N2WX39-17E5:TSMC_N2WX39-17E5_7_12:7:12:2:green:4:2:Torino:0:0:0:none:Torino:4.027523e-06:8:1.200326:26:1.20193:18:0.8950776:11:0:5.833E-10:7.759E-02:-1.113E-08:1.204E-01:0:0:0:0:0:607C:Probed at Torino, Iref = 4.027523e-06 with trim bits 8:No loaded to any board yet
TSMC_N2WX39-17E5:TSMC_N2WX39-17E5_4_11:4:11:1:yellow:4:1:Torino:0:0:0:none:Torino:4.055878e-06:10:1.207577:26:1.198369:19:0.9012257:9:0:2.107E-09:8.512E-02:-1.603E-08:1.275E-01:0:0:0:0:0:604B:Probed at Torino, Iref = 4.055878e-06 with trim bits 10:No loaded to any board yet
TSMC_N2WX39-17E5:TSMC_N2WX39-17E5_2_10:2:10:2:green:4:2:Torino:0:0:0:none:Torino:3.996988e-06:9:1.202966:25:1.19917:17:0.905426:8:0:1.553E-09:8.167E-02:3.067E-09:1.246E-01:0:0:0:0:0:602A:Probed at Torino, Iref = 3.996988e-06 with trim bits 9:No loaded to any board yet
TSMC_N2WX39-17E5:TSMC_N2WX39-17E5_3_11:3:11:1:yellow:4:1:Torino:0:0:0:none:Torino:4.052034e-06:8:1.203511:28:1.202529:18:0.9029369:8:0:4.390E-09:8.130E-02:-1.667E-09:1.243E-01:0:0:0:0:0:603B:Probed at Torino, Iref = 4.052034e-06 with trim bits 8:No loaded to any board yet
TSMC_N2WX39-17E5:TSMC_N2WX39-17E5_5_12:5:12:2:green:4:2:Torino:0:0:0:none:Torino:3.992439e-06:8:1.203086:22:1.19945:22:0.9009216:8:0:6.623E-09:7.842E-02:1.123E-08:1.215E-01:0:0:0:0:0:605C:Probed at Torino, Iref = 3.992439e-06 with trim bits 8:No loaded to any board yet
TSMC_N2WX39-17E5:TSMC_N2WX39-17E5_6_11:6:11:2:green:4:2:Torino:0:0:0:none:Torino:3.983001e-06:8:1.208795:28:1.20415:18:0.8975711:9:0:2.058E-04:2.324E-02:2.071E-04:2.295E-02:0:0:0:0:0:606B:Probed at Torino, Iref = 3.983001e-06 with trim bits 8:No loaded to any board yet
TSMC_N2WX39-17E5:TSMC_N2WX39-17E5_7_11:7:11:2:green:4:2:Torino:0:0:0:none:Torino:4.011084e-06:7:1.200611:23:1.192306:19:0.8982844:9:0:2.069E-04:2.235E-02:2.084E-04:2.183E-02:0:0:0:0:0:607B:Probed at Torino, Iref = 4.011084e-06 with trim bits 7:No loaded to any board yet
TSMC_N2WX39-17E5:TSMC_N2WX39-17E5_3_10:3:10:2:green:4:2:Torino:0:0:0:none:Torino:3.941329e-06:9:1.202582:18:1.201179:20:0.8980782:12:0:1.265E-08:8.048E-02:5.300E-09:1.232E-01:0:0:0:0:0:603A:Probed at Torino, Iref = 3.941329e-06 with trim bits 9:No loaded to any board yet
TSMC_N2WX39-17E5:TSMC_N2WX39-17E5_9_10:9:10:2:green:4:2:Torino:0:0:0:none:Torino:3.977128e-06:8:1.212117:24:1.190938:15:0.8996617:10:0:2.064E-04:2.419E-02:2.078E-04:2.377E-02:0:0:0:0:0:609A:Probed at Torino, Iref = 3.977128e-06 with trim bits 8:No loaded to any board yet
TSMC_N2WX39-17E5:TSMC_N2WX39-17E5_8_10:8:10:1:yellow:4:1:Torino:0:0:0:none:Torino:3.983558e-06:10:1.204388:20:1.204909:16:0.9021315:8:0:4.807E-09:8.548E-02:5.067E-09:1.279E-01:0:0:0:0:0:608A:Probed at Torino, Iref = 3.983558e-06 with trim bits 10:No loaded to any board yet
TSMC_N2WX39-17E5:TSMC_N2WX39-17E5_8_11:8:11:2:green:4:2:Torino:0:0:0:none:Torino:3.994317e-06:9:1.197374:23:1.197542:23:0.9004716:12:0:4.230E-09:8.092E-02:2.293E-08:1.236E-01:0:0:0:0:0:608B:Probed at Torino, Iref = 3.994317e-06 with trim bits 9:No loaded to any board yet
TSMC_N2WX39-17E5:TSMC_N2WX39-17E5_5_7:5:7:1:yellow:4:1:Torino:0:0:0:none:Torino:4.033534e-06:7:1.206037:22:1.206727:16:0.8966693:7:0:1.667E-09:9.213E-02:-4.667E-10:1.336E-01:0:0:0:0:0:6057:Probed at Torino, Iref = 4.033534e-06 with trim bits 7:No loaded to any board yet
TSMC_N2WX39-17E5:TSMC_N2WX39-17E5_4_9:4:9:2:green:4:2:Torino:0:0:0:none:Torino:3.957099e-06:8:1.189012:23:1.201899:22:0.8994328:11:0:7.507E-09:8.600E-02:-2.667E-10:1.282E-01:0:0:0:0:0:6049:Probed at Torino, Iref = 3.957099e-06 with trim bits 8:No loaded to any board yet
TSMC_N2WX39-17E5:TSMC_N2WX39-17E5_8_9:8:9:2:green:4:2:Torino:0:0:0:none:Torino:3.942729e-06:5:1.199668:22:1.188573:15:0.8976178:9:0:6.777E-09:8.820E-02:2.033E-09:1.301E-01:0:0:0:0:0:6089:Probed at Torino, Iref = 3.942729e-06 with trim bits 5:No loaded to any board yet
TSMC_N2WX39-17E5:TSMC_N2WX39-17E5_6_10:6:10:2:green:4:2:Torino:0:0:0:none:Torino:4.018199e-06:9:1.201452:28:1.197322:20:0.8959228:7:0:-1.460E-09:8.776E-02:1.700E-09:1.295E-01:0:0:0:0:0:606A:Probed at Torino, Iref = 4.018199e-06 with trim bits 9:No loaded to any board yet
TSMC_N2WX39-17E5:TSMC_N2WX39-17E5_5_10:5:10:1:yellow:4:1:Torino:0:0:0:none:Torino:3.977571e-06:6:1.210223:28:1.201373:21:0.9014996:8:0:4.940E-09:8.705E-02:6.733E-09:1.291E-01:0:0:0:0:0:605A:Probed at Torino, Iref = 3.977571e-06 with trim bits 6:No loaded to any board yet
TSMC_N2WX39-17E5:TSMC_N2WX39-17E5_4_10:4:10:1:yellow:4:1:Torino:0:0:0:none:Torino:4.037359e-06:11:1.199374:24:1.199525:21:0.8989236:11:0:7.680E-09:8.618E-02:8.000E-09:1.282E-01:0:0:0:0:0:604A:Probed at Torino, Iref = 4.037359e-06 with trim bits 11:No loaded to any board yet
TSMC_N2WX39-17E5:TSMC_N2WX39-17E5_2_9:2:9:2:green:4:2:Torino:0:0:0:none:Torino:4.04668e-06:10:1.203352:23:1.193485:21:0.899848:9:0:3.923E-09:8.744E-02:-8.200E-09:1.295E-01:0:0:0:0:0:6029:Probed at Torino, Iref = 4.04668e-06 with trim bits 10:No loaded to any board yet
TSMC_N2WX39-17E5:TSMC_N2WX39-17E5_5_9:5:9:2:green:4:2:Torino:0:0:0:none:Torino:3.935817e-06:7:1.198259:22:1.198966:15:0.8982027:10:0:2.473E-09:9.280E-02:-7.300E-09:1.341E-01:0:0:0:0:0:6059:Probed at Torino, Iref = 3.935817e-06 with trim bits 7:No loaded to any board yet
TSMC_N2WX39-17E5:TSMC_N2WX39-17E5_3_9:3:9:10:red:4:10:Torino:0:0:0:none:Torino:0:0:0:0:0:0:0:0:0:0.000E+00:0.000E+00:0.000E+00:0.000E+00:0:0:0:0:0:6039:Probed at Torino, Iref = 0 with trim bits 0:No loaded to any board yet
TSMC_N2WX39-17E5:TSMC_N2WX39-17E5_7_9:7:9:2:green:4:2:Torino:0:0:0:none:Torino:3.961444e-06:9:1.19487:29:1.196619:21:0.896836:9:0:2.054E-04:2.587E-02:2.069E-04:2.543E-02:0:0:0:0:0:6079:Probed at Torino, Iref = 3.961444e-06 with trim bits 9:No loaded to any board yet
TSMC_N2WX39-17E5:TSMC_N2WX39-17E5_6_9:6:9:2:green:4:2:Torino:0:0:0:none:Torino:4.054163e-06:10:1.200981:24:1.196207:19:0.9004031:8:0:-2.317E-09:9.066E-02:-4.567E-09:1.324E-01:0:0:0:0:0:6069:Probed at Torino, Iref = 4.054163e-06 with trim bits 10:No loaded to any board yet
TSMC_N2WX39-17E5:TSMC_N2WX39-17E5_9_8:9:8:2:green:4:2:Torino:0:0:0:none:Torino:3.979322e-06:9:1.19728:26:1.199882:15:0.9047761:8:0:7.133E-09:9.448E-02:-2.933E-09:1.359E-01:0:0:0:0:0:6098:Probed at Torino, Iref = 3.979322e-06 with trim bits 9:No loaded to any board yet
TSMC_N2WX39-17E5:TSMC_N2WX39-17E5_9_9:9:9:2:green:4:2:Torino:0:0:0:none:Torino:3.956458e-06:7:1.198925:21:1.206688:18:0.8985783:9:0:-4.030E-09:8.611E-02:-3.000E-10:1.281E-01:0:0:0:0:0:6099:Probed at Torino, Iref = 3.956458e-06 with trim bits 7:No loaded to any board yet
TSMC_N2WX39-17E5:TSMC_N2WX39-17E5_5_8:5:8:2:green:4:2:Torino:0:0:0:none:Torino:4.053662e-06:11:1.194272:19:1.198816:16:0.8943823:7:0:-1.230E-09:8.622E-02:1.613E-08:1.280E-01:0:0:0:0:0:6058:Probed at Torino, Iref = 4.053662e-06 with trim bits 11:No loaded to any board yet
TSMC_N2WX39-17E5:TSMC_N2WX39-17E5_6_8:6:8:10:red:4:10:Torino:0:0:0:none:Torino:0:0:0:0:0:0:0:0:0:0.000E+00:0.000E+00:0.000E+00:0.000E+00:0:0:0:0:0:6068:Probed at Torino, Iref = 0 with trim bits 0:No loaded to any board yet
TSMC_N2WX39-17E5:TSMC_N2WX39-17E5_10_9:10:9:10:red:4:10:Torino:0:0:0:none:Torino:0:0:0:0:0:0:0:0:0:0.000E+00:0.000E+00:0.000E+00:0.000E+00:0:0:0:0:0:60A9:Probed at Torino, Iref = 0 with trim bits 0:No loaded to any board yet
TSMC_N2WX39-17E5:TSMC_N2WX39-17E5_10_8:10:8:2:green:4:2:Torino:0:0:0:none:Torino:3.985866e-06:6:1.205388:28:1.200738:15:0.897965:8:0:1.487E-09:8.931E-02:-1.767E-09:1.311E-01:0:0:0:0:0:60A8:Probed at Torino, Iref = 3.985866e-06 with trim bits 6:No loaded to any board yet
TSMC_N2WX39-17E5:TSMC_N2WX39-17E5_10_6:10:6:10:red:4:10:Torino:0:0:0:none:Torino:0:0:0:0:0:0:0:0:0:0.000E+00:0.000E+00:0.000E+00:0.000E+00:0:0:0:0:0:60A6:Probed at Torino, Iref = 0 with trim bits 0:No loaded to any board yet
TSMC_N2WX39-17E5:TSMC_N2WX39-17E5_7_8:7:8:1:yellow:4:1:Torino:0:0:0:none:Torino:3.963106e-06:7:1.19483:23:1.195634:17:0.901441:9:0:1.274E-08:9.159E-02:8.300E-09:1.334E-01:0:0:0:0:0:6078:Probed at Torino, Iref = 3.963106e-06 with trim bits 7:No loaded to any board yet
TSMC_N2WX39-17E5:TSMC_N2WX39-17E5_6_4:6:4:2:green:4:2:Torino:0:0:0:none:Torino:4.004668e-06:10:1.198966:25:1.193661:19:0.9008409:8:0:2.047E-04:3.145E-02:2.061E-04:3.113E-02:0:0:0:0:0:6064:Probed at Torino, Iref = 4.004668e-06 with trim bits 10:No loaded to any board yet
TSMC_N2WX39-17E5:TSMC_N2WX39-17E5_8_8:8:8:10:red:4:10:Torino:0:0:0:none:Torino:4.019817e-06:6:1.201264:23:1.19381:23:0.8978401:9:0:-1.880E-09:8.696E-02:-5.467E-09:1.290E-01:0:0:0:0:0:6088:Probed at Torino, Iref = 4.019817e-06 with trim bits 6:No loaded to any board yet
TSMC_N2WX39-17E5:TSMC_N2WX39-17E5_6_7:6:7:1:yellow:4:1:Torino:0:0:0:none:Torino:3.938193e-06:6:1.205427:22:1.198262:21:0.9053726:8:0:2.827E-09:9.022E-02:7.233E-09:1.322E-01:0:0:0:0:0:6067:Probed at Torino, Iref = 3.938193e-06 with trim bits 6:No loaded to any board yet
TSMC_N2WX39-17E5:TSMC_N2WX39-17E5_1_8:1:8:2:green:4:2:Torino:0:0:0:none:Torino:3.964628e-06:6:1.192192:19:1.200945:21:0.8946267:11:0:4.693E-09:8.132E-02:-2.933E-09:1.236E-01:0:0:0:0:0:6018:Probed at Torino, Iref = 3.964628e-06 with trim bits 6:No loaded to any board yet
TSMC_N2WX39-17E5:TSMC_N2WX39-17E5_4_8:4:8:2:green:4:2:Torino:0:0:0:none:Torino:3.992303e-06:9:1.193324:23:1.188739:23:0.8996913:9:0:6.583E-09:8.348E-02:-4.000E-10:1.261E-01:0:0:0:0:0:6048:Probed at Torino, Iref = 3.992303e-06 with trim bits 9:No loaded to any board yet
TSMC_N2WX39-17E5:TSMC_N2WX39-17E5_9_7:9:7:1:yellow:4:1:Torino:0:0:0:none:Torino:4.039533e-06:7:1.201695:22:1.197572:22:0.9009863:8:0:-3.697E-09:9.167E-02:5.367E-09:1.332E-01:0:0:0:0:0:6097:Probed at Torino, Iref = 4.039533e-06 with trim bits 7:No loaded to any board yet
TSMC_N2WX39-17E5:TSMC_N2WX39-17E5_3_8:3:8:1:yellow:4:1:Torino:0:0:0:none:Torino:3.982949e-06:7:1.198231:20:1.192252:19:0.9007841:11:0:8.050E-09:8.221E-02:1.533E-09:1.250E-01:0:0:0:0:0:6038:Probed at Torino, Iref = 3.982949e-06 with trim bits 7:No loaded to any board yet
TSMC_N2WX39-17E5:TSMC_N2WX39-17E5_7_7:7:7:10:red:4:10:Torino:0:0:0:none:Torino:0:0:0:0:0:0:0:0:0:0.000E+00:0.000E+00:0.000E+00:0.000E+00:0:0:0:0:0:6077:Probed at Torino, Iref = 0 with trim bits 0:No loaded to any board yet
TSMC_N2WX39-17E5:TSMC_N2WX39-17E5_3_6:3:6:1:yellow:4:1:Torino:0:0:0:none:Torino:4.057248e-06:9:1.196758:22:1.202785:19:0.8989271:7:0:1.880E-09:9.198E-02:1.130E-08:1.333E-01:0:0:0:0:0:6036:Probed at Torino, Iref = 4.057248e-06 with trim bits 9:No loaded to any board yet
TSMC_N2WX39-17E5:TSMC_N2WX39-17E5_8_7:8:7:2:green:4:2:Torino:0:0:0:none:Torino:3.957081e-06:8:1.205044:22:1.193368:19:0.9044274:8:0:3.933E-10:9.189E-02:1.397E-08:1.337E-01:0:0:0:0:0:6087:Probed at Torino, Iref = 3.957081e-06 with trim bits 8:No loaded to any board yet
TSMC_N2WX39-17E5:TSMC_N2WX39-17E5_1_6:1:6:1:yellow:4:1:Torino:0:0:0:none:Torino:3.958839e-06:8:1.187243:23:1.201422:25:0.8997728:7:0:9.330E-09:8.360E-02:1.537E-08:1.261E-01:0:0:0:0:0:6016:Probed at Torino, Iref = 3.958839e-06 with trim bits 8:No loaded to any board yet
TSMC_N2WX39-17E5:TSMC_N2WX39-17E5_10_7:10:7:2:green:4:2:Torino:0:0:0:none:Torino:3.962116e-06:9:1.203165:22:1.198033:13:0.9001711:13:0:4.830E-09:8.668E-02:-1.400E-09:1.289E-01:0:0:0:0:0:60A7:Probed at Torino, Iref = 3.962116e-06 with trim bits 9:No loaded to any board yet
TSMC_N2WX39-17E5:TSMC_N2WX39-17E5_7_6:7:6:2:green:4:2:Torino:0:0:0:none:Torino:3.986318e-06:7:1.194467:21:1.195894:18:0.9049934:8:0:2.048E-04:3.337E-02:2.064E-04:3.285E-02:0:0:0:0:0:6076:Probed at Torino, Iref = 3.986318e-06 with trim bits 7:No loaded to any board yet
TSMC_N2WX39-17E5:TSMC_N2WX39-17E5_9_6:9:6:1:yellow:4:1:Torino:0:0:0:none:Torino:3.981224e-06:8:1.203471:22:1.200969:19:0.9030384:8:0:1.033E-08:1.026E-01:-8.633E-09:1.428E-01:0:0:0:0:0:6096:Probed at Torino, Iref = 3.981224e-06 with trim bits 8:No loaded to any board yet
TSMC_N2WX39-17E5:TSMC_N2WX39-17E5_4_6:4:6:2:green:4:2:Torino:0:0:0:none:Torino:4.0256e-06:8:1.21059:24:1.203964:20:0.8994793:7:0:1.267E-10:9.157E-02:1.243E-08:1.330E-01:0:0:0:0:0:6046:Probed at Torino, Iref = 4.0256e-06 with trim bits 8:No loaded to any board yet
TSMC_N2WX39-17E5:TSMC_N2WX39-17E5_6_6:6:6:1:yellow:4:1:Torino:0:0:0:none:Torino:4.055907e-06:8:1.200227:22:1.196147:19:0.9027277:8:0:-5.800E-09:1.023E-01:1.287E-08:1.425E-01:0:0:0:0:0:6066:Probed at Torino, Iref = 4.055907e-06 with trim bits 8:No loaded to any board yet
TSMC_N2WX39-17E5:TSMC_N2WX39-17E5_8_5:8:5:1:yellow:4:1:Torino:0:0:0:none:Torino:3.982876e-06:9:1.200092:22:1.202112:19:0.9012904:8:0:8.333E-09:9.928E-02:-3.667E-10:1.399E-01:0:0:0:0:0:6085:Probed at Torino, Iref = 3.982876e-06 with trim bits 9:No loaded to any board yet
TSMC_N2WX39-17E5:TSMC_N2WX39-17E5_2_6:2:6:2:green:4:2:Torino:0:0:0:none:Torino:3.94996e-06:7:1.201484:20:1.195345:19:0.900553:10:0:8.213E-09:8.650E-02:4.967E-09:1.288E-01:0:0:0:0:0:6026:Probed at Torino, Iref = 3.94996e-06 with trim bits 7:No loaded to any board yet
TSMC_N2WX39-17E5:TSMC_N2WX39-17E5_2_5:2:5:10:red:4:10:Torino:0:0:0:none:Torino:0:0:0:0:0:0:0:0:0:0.000E+00:0.000E+00:0.000E+00:0.000E+00:0:0:0:0:0:6025:Probed at Torino, Iref = 0 with trim bits 0:No loaded to any board yet
TSMC_N2WX39-17E5:TSMC_N2WX39-17E5_5_5:5:5:1:yellow:4:1:Torino:0:0:0:none:Torino:3.945658e-06:7:1.166692:29:1.123926:30:0.867615:5:0:-3.237E-09:9.144E-02:-2.287E-08:1.315E-01:0:0:0:0:0:6055:Probed at Torino, Iref = 3.945658e-06 with trim bits 7:No loaded to any board yet
TSMC_N2WX39-17E5:TSMC_N2WX39-17E5_3_5:3:5:1:yellow:4:1:Torino:0:0:0:none:Torino:3.986514e-06:7:1.199735:20:1.194749:21:0.9013547:7:0:6.607E-09:9.165E-02:9.300E-09:1.333E-01:0:0:0:0:0:6035:Probed at Torino, Iref = 3.986514e-06 with trim bits 7:No loaded to any board yet
TSMC_N2WX39-17E5:TSMC_N2WX39-17E5_5_3:5:3:2:green:4:2:Torino:0:0:0:none:Torino:4.044588e-06:10:1.205172:20:1.199119:21:0.9007525:9:0:2.053E-04:3.017E-02:2.069E-04:2.966E-02:0:0:0:0:0:6053:Probed at Torino, Iref = 4.044588e-06 with trim bits 10:No loaded to any board yet
TSMC_N2WX39-17E5:TSMC_N2WX39-17E5_7_5:7:5:1:yellow:4:1:Torino:0:0:0:none:Torino:3.969526e-06:8:1.202204:21:1.198048:21:0.9001852:9:0:-7.377E-09:9.414E-02:1.133E-09:1.353E-01:0:0:0:0:0:6075:Probed at Torino, Iref = 3.969526e-06 with trim bits 8:No loaded to any board yet
TSMC_N2WX39-17E5:TSMC_N2WX39-17E5_6_5:6:5:2:green:4:2:Torino:0:0:0:none:Torino:3.966195e-06:9:1.199309:20:1.193986:17:0.9063148:8:0:2.507E-09:9.998E-02:1.157E-08:1.408E-01:0:0:0:0:0:6065:Probed at Torino, Iref = 3.966195e-06 with trim bits 9:No loaded to any board yet
TSMC_N2WX39-17E5:TSMC_N2WX39-17E5_10_5:10:5:2:green:4:2:Torino:0:0:0:none:Torino:3.96995e-06:8:1.203734:25:1.202416:19:0.8974184:9:0:4.283E-09:8.474E-02:8.133E-09:1.269E-01:0:0:0:0:0:60A5:Probed at Torino, Iref = 3.96995e-06 with trim bits 8:No loaded to any board yet
TSMC_N2WX39-17E5:TSMC_N2WX39-17E5_9_5:9:5:2:green:4:2:Torino:0:0:0:none:Torino:3.967099e-06:8:1.200304:21:1.193676:17:0.9028776:12:0:3.947E-09:8.681E-02:7.400E-09:1.295E-01:0:0:0:0:0:6095:Probed at Torino, Iref = 3.967099e-06 with trim bits 8:No loaded to any board yet
TSMC_N2WX39-17E5:TSMC_N2WX39-17E5_3_3:3:3:1:yellow:4:1:Torino:0:0:0:none:Torino:4.05601e-06:8:1.197605:19:1.198002:24:0.8958409:7:0:2.001E-04:4.533E-02:2.016E-04:4.486E-02:0:0:0:0:0:6033:Probed at Torino, Iref = 4.05601e-06 with trim bits 8:No loaded to any board yet
TSMC_N2WX39-17E5:TSMC_N2WX39-17E5_8_4:8:4:1:yellow:4:1:Torino:0:0:0:none:Torino:4.051124e-06:10:1.195785:19:1.202319:18:0.8941623:7:0:4.667E-11:9.483E-02:2.000E-10:1.357E-01:0:0:0:0:0:6084:Probed at Torino, Iref = 4.051124e-06 with trim bits 10:No loaded to any board yet
TSMC_N2WX39-17E5:TSMC_N2WX39-17E5_1_7:1:7:2:green:4:2:Torino:0:0:0:none:Torino:3.952588e-06:7:1.19333:23:1.206441:22:0.906236:8:0:4.870E-09:8.093E-02:3.000E-10:1.240E-01:0:0:0:0:0:6017:Probed at Torino, Iref = 3.952588e-06 with trim bits 7:No loaded to any board yet
TSMC_N2WX39-17E5:TSMC_N2WX39-17E5_7_4:7:4:1:yellow:4:1:Torino:0:0:0:none:Torino:4.056622e-06:8:1.195598:27:1.192472:19:0.9051104:8:0:-7.067E-09:1.003E-01:-8.000E-09:1.409E-01:0:0:0:0:0:6074:Probed at Torino, Iref = 4.056622e-06 with trim bits 8:No loaded to any board yet
TSMC_N2WX39-17E5:TSMC_N2WX39-17E5_2_4:2:4:1:yellow:4:1:Torino:0:0:0:none:Torino:3.947791e-06:7:1.199918:22:1.196958:19:0.9019838:10:0:1.393E-08:1.026E-01:6.920E-06:8.746E-01:0:0:0:0:0:6024:Probed at Torino, Iref = 3.947791e-06 with trim bits 7:No loaded to any board yet
TSMC_N2WX39-17E5:TSMC_N2WX39-17E5_5_4:5:4:1:yellow:4:1:Torino:0:0:0:none:Torino:3.959438e-06:8:1.212353:24:1.202778:23:0.9058571:8:0:6.193E-09:9.265E-02:-3.167E-09:1.343E-01:0:0:0:0:0:6054:Probed at Torino, Iref = 3.959438e-06 with trim bits 8:No loaded to any board yet
TSMC_N2WX39-17E5:TSMC_N2WX39-17E5_6_2:6:2:2:green:4:2:Torino:0:0:0:none:Torino:4.052148e-06:6:1.205936:22:1.205078:22:0.9021561:10:0:9.423E-09:9.047E-02:5.100E-09:1.322E-01:0:0:0:0:0:6062:Probed at Torino, Iref = 4.052148e-06 with trim bits 6:No loaded to any board yet
TSMC_N2WX39-17E5:TSMC_N2WX39-17E5_2_3:2:3:10:red:4:10:Torino:0:0:0:none:Torino:0:0:0:0:0:0:0:0:0:0.000E+00:0.000E+00:0.000E+00:0.000E+00:0:0:0:0:0:6023:Probed at Torino, Iref = 0 with trim bits 0:No loaded to any board yet
TSMC_N2WX39-17E5:TSMC_N2WX39-17E5_4_2:4:2:10:red:4:10:Torino:0:0:0:none:Torino:0:0:0:0:0:0:0:0:0:0.000E+00:0.000E+00:0.000E+00:0.000E+00:0:0:0:0:0:6042:Probed at Torino, Iref = 0 with trim bits 0:No loaded to any board yet
TSMC_N2WX39-17E5:TSMC_N2WX39-17E5_4_3:4:3:2:green:4:2:Torino:0:0:0:none:Torino:3.977441e-06:7:1.196452:23:1.201224:20:0.8938382:7:0:1.850E-09:8.750E-02:-5.567E-09:1.292E-01:0:0:0:0:0:6043:Probed at Torino, Iref = 3.977441e-06 with trim bits 7:No loaded to any board yet
TSMC_N2WX39-17E5:TSMC_N2WX39-17E5_8_3:8:3:2:green:4:2:Torino:0:0:0:none:Torino:4.040849e-06:8:1.208047:20:1.195426:21:0.8978896:10:0:2.850E-09:8.934E-02:1.303E-08:1.311E-01:0:0:0:0:0:6083:Probed at Torino, Iref = 4.040849e-06 with trim bits 8:No loaded to any board yet
TSMC_N2WX39-17E5:TSMC_N2WX39-17E5_8_6:8:6:1:yellow:4:1:Torino:0:0:0:none:Torino:3.928274e-06:15:1.204817:30:1.203973:23:0.9011863:7:0:6.747E-09:9.852E-02:-1.333E-10:1.392E-01:0:0:0:0:0:6086:Probed at Torino, Iref = 3.928274e-06 with trim bits 15:No loaded to any board yet
TSMC_N2WX39-17E5:TSMC_N2WX39-17E5_9_3:9:3:2:green:4:2:Torino:0:0:0:none:Torino:4.029421e-06:8:1.189519:23:1.198231:13:0.8994191:11:0:-2.140E-09:8.644E-02:2.633E-09:1.287E-01:0:0:0:0:0:6093:Probed at Torino, Iref = 4.029421e-06 with trim bits 8:No loaded to any board yet
TSMC_N2WX39-17E5:TSMC_N2WX39-17E5_2_8:2:8:2:green:4:2:Torino:0:0:0:none:Torino:3.981539e-06:9:1.198667:24:1.199139:19:0.9043525:12:0:1.092E-08:7.855E-02:8.967E-09:1.218E-01:0:0:0:0:0:6028:Probed at Torino, Iref = 3.981539e-06 with trim bits 9:No loaded to any board yet
TSMC_N2WX39-17E5:TSMC_N2WX39-17E5_8_2:8:2:2:green:4:2:Torino:0:0:0:none:Torino:3.945083e-06:7:1.187237:23:1.204335:18:0.9053047:12:0:2.074E-04:2.581E-02:2.089E-04:2.546E-02:0:0:0:0:0:6082:Probed at Torino, Iref = 3.945083e-06 with trim bits 7:No loaded to any board yet
TSMC_N2WX39-17E5:TSMC_N2WX39-17E5_5_1:5:1:1:yellow:4:1:Torino:0:0:0:none:Torino:3.941863e-06:6:1.201074:24:1.204785:12:0.9060853:8:0:1.247E-08:1.015E-01:-5.867E-09:1.419E-01:0:0:0:0:0:6051:Probed at Torino, Iref = 3.941863e-06 with trim bits 6:No loaded to any board yet
TSMC_N2WX39-17E5:TSMC_N2WX39-17E5_6_1:6:1:1:yellow:4:1:Torino:0:0:0:none:Torino:3.971234e-06:6:1.195522:25:1.204181:23:0.9021527:8:0:-2.400E-09:1.062E-01:4.233E-09:1.459E-01:0:0:0:0:0:6061:Probed at Torino, Iref = 3.971234e-06 with trim bits 6:No loaded to any board yet
TSMC_N2WX39-17E5:TSMC_N2WX39-17E5_7_10:7:10:2:green:4:2:Torino:0:0:0:none:Torino:3.961351e-06:10:1.193781:23:1.203856:14:0.9013602:11:0:3.367E-09:7.740E-02:5.900E-09:1.205E-01:0:0:0:0:0:607A:Probed at Torino, Iref = 3.961351e-06 with trim bits 10:No loaded to any board yet
TSMC_N2WX39-17E5:TSMC_N2WX39-17E5_5_2:5:2:1:yellow:4:1:Torino:0:0:0:none:Torino:4.014223e-06:9:1.197313:17:1.196977:20:0.9010706:12:0:1.544E-08:8.676E-02:-2.400E-09:1.290E-01:0:0:0:0:0:6052:Probed at Torino, Iref = 4.014223e-06 with trim bits 9:No loaded to any board yet
TSMC_N2WX39-17E5:TSMC_N2WX39-17E5_5_6:5:6:10:red:4:10:Torino:0:0:0:none:Torino:3.930734e-06:5:1.204491:14:1.19967:18:0.9015248:6:0:5.433E-09:4.076E-01:-7.047E-07:1.466E-01:0:0:0:0:0:6056:Probed at Torino, Iref = 3.930734e-06 with trim bits 5:No loaded to any board yet
TSMC_N2WX39-17E5:TSMC_N2WX39-17E5_4_12:4:12:1:yellow:4:1:Torino:0:0:0:none:Torino:4.055497e-06:9:1.195956:29:1.204508:20:0.8992419:9:0:7.327E-09:7.518E-02:-2.500E-09:1.184E-01:0:0:0:0:0:604C:Probed at Torino, Iref = 4.055497e-06 with trim bits 9:No loaded to any board yet
TSMC_N2WX39-17E5:TSMC_N2WX39-17E5_4_5:4:5:1:yellow:4:1:Torino:0:0:0:none:Torino:4.029595e-06:8:1.197923:24:1.204836:18:0.9003887:10:0:1.635E-08:8.238E-02:4.270E-09:1.829E-02:0:0:0:0:0:6045:Probed at Torino, Iref = 4.029595e-06 with trim bits 8:No loaded to any board yet
TSMC_N2WX39-17E5:TSMC_N2WX39-17E5_3_7:3:7:1:yellow:4:1:Torino:0:0:0:none:Torino:4.018167e-06:8:1.200854:20:1.196365:17:0.8988165:9:0:7.333E-09:9.366E-02:1.753E-08:1.347E-01:0:0:0:0:0:6037:Probed at Torino, Iref = 4.018167e-06 with trim bits 8:No loaded to any board yet
TSMC_N2WX39-17E5:TSMC_N2WX39-17E5_7_2:7:2:2:green:4:2:Torino:0:0:0:none:Torino:3.963647e-06:7:1.208536:24:1.203614:23:0.8981876:6:0:-1.667E-10:1.013E-01:1.640E-08:1.415E-01:0:0:0:0:0:6072:Probed at Torino, Iref = 3.963647e-06 with trim bits 7:No loaded to any board yet
TSMC_N2WX39-17E5:TSMC_N2WX39-17E5_2_7:2:7:1:yellow:4:1:Torino:0:0:0:none:Torino:4.034086e-06:9:1.19734:24:1.207388:20:0.9056896:8:0:1.383E-09:9.540E-02:-2.080E-08:1.368E-01:0:0:0:0:0:6027:Probed at Torino, Iref = 4.034086e-06 with trim bits 9:No loaded to any board yet
TSMC_N2WX39-17E5:TSMC_N2WX39-17E5_3_4:3:4:1:yellow:4:1:Torino:0:0:0:none:Torino:3.962798e-06:10:1.205925:24:1.199054:16:0.8985195:9:0:-7.230E-09:9.173E-02:-1.253E-08:1.331E-01:0:0:0:0:0:6034:Probed at Torino, Iref = 3.962798e-06 with trim bits 10:No loaded to any board yet
TSMC_N2WX39-17E5:TSMC_N2WX39-17E5_6_3:6:3:10:red:4:10:Torino:0:0:0:none:Torino:3.981591e-06:7:1.201476:21:1.198901:19:0.8988298:9:0:4.830E-09:8.921E-02:-2.000E-10:1.309E-01:0:0:0:0:0:6063:Probed at Torino, Iref = 3.981591e-06 with trim bits 7:No loaded to any board yet
TSMC_N2WX39-17E5:TSMC_N2WX39-17E5_4_4:4:4:1:yellow:4:1:Torino:0:0:0:none:Torino:3.982751e-06:7:1.198186:22:1.211749:24:0.9014461:10:0:5.340E-09:8.505E-02:-1.353E-08:1.275E-01:0:0:0:0:0:6044:Probed at Torino, Iref = 3.982751e-06 with trim bits 7:No loaded to any board yet
TSMC_N2WX39-17E5:TSMC_N2WX39-17E5_7_3:7:3:2:green:4:2:Torino:0:0:0:none:Torino:4.01125e-06:9:1.198116:21:1.200978:21:0.9048887:12:0:1.354E-08:8.446E-02:0.000E+00:1.270E-01:0:0:0:0:0:6073:Probed at Torino, Iref = 4.01125e-06 with trim bits 9:No loaded to any board yet
TSMC_N2WX39-17E5:TSMC_N2WX39-17E5_9_4:9:4:1:yellow:4:1:Torino:0:0:0:none:Torino:3.975778e-06:8:1.201437:23:1.198578:21:0.9016381:8:0:-5.727E-09:9.081E-02:3.533E-09:1.325E-01:0:0:0:0:0:6094:Probed at Torino, Iref = 3.975778e-06 with trim bits 8:No loaded to any board yet
TSMC_N2WX39-17E5:TSMC_N2WX39-17E5_4_7:4:7:1:yellow:4:1:Torino:0:0:0:none:Torino:3.972798e-06:9:1.191152:23:1.200251:18:0.9035135:8:0:-3.007E-09:9.299E-02:1.377E-08:1.346E-01:0:0:0:0:0:6047:Probed at Torino, Iref = 3.972798e-06 with trim bits 9:No loaded to any board yet
