%CMSwaferCode:CMSchipCode:ChipColumn:ChipRow:Grading:Color:CutVersion:Status:Location:ChipBoardType:BoardNumber:Dose:Sensor:ProbingSite:Iref:IrefTrim:Vref_A:Vref_A_Trim:Vref_D:Vref_D_Trim:Vref_ADC:Vref_ADC_Trim:MON_ADC_Trim:VCAL_HIGH_slope:VCAL_HIGH_offset:VCAL_MED_slope:VCAL_MED_offset:TrefTsensors:Nf1:Nf2:Nf3:Nf4:RD53chipID:Comment:BoardComment:
TSMC_N25A67-05G5:TSMC_N25A67-05G5_5_3:5:3:10:red:4:10:IZM:0:0:0:none:Bonn:3.94171e-06:5:1.20412:28:1.195773:19:0.9006756:9:0:2.092E-04:1.922E-02:2.095E-04:1.932E-02:0:0:0:0:0:1453:Probed at Bonn, Iref = 3.94171e-06 with trim bits 5:No loaded to any board yet
TSMC_N25A67-05G5:TSMC_N25A67-05G5_8_10:8:10:10:red:4:10:IZM:0:0:0:none:Bonn:0:0:0:0:0:0:0:0:0:0.000E+00:0.000E+00:0.000E+00:0.000E+00:0:0:0:0:0:148A:Probed at Bonn, Iref = 0 with trim bits 0:No loaded to any board yet
TSMC_N25A67-05G5:TSMC_N25A67-05G5_8_2:8:2:1:yellow:4:1:IZM:0:0:0:none:Bonn:4.02762e-06:10:1.209147:28:1.19904:22:0.9003743:13:0:2.086E-04:1.922E-02:2.090E-04:1.946E-02:0:0:0:0:0:1482:Probed at Bonn, Iref = 4.02762e-06 with trim bits 10:No loaded to any board yet
TSMC_N25A67-05G5:TSMC_N25A67-05G5_1_6:1:6:10:red:4:10:IZM:0:0:0:none:Bonn:0:0:0:0:0:0:0:0:0:0.000E+00:0.000E+00:0.000E+00:0.000E+00:0:0:0:0:0:1416:Probed at Bonn, Iref = 0 with trim bits 0:No loaded to any board yet
TSMC_N25A67-05G5:TSMC_N25A67-05G5_6_7:6:7:1:yellow:4:1:IZM:0:0:0:none:Bonn:4.013853e-06:9:1.201479:24:1.209368:28:0.9016427:8:0:2.084E-04:1.940E-02:2.088E-04:1.938E-02:0:0:0:0:0:1467:Probed at Bonn, Iref = 4.013853e-06 with trim bits 9:No loaded to any board yet
TSMC_N25A67-05G5:TSMC_N25A67-05G5_7_6:7:6:10:red:4:10:IZM:0:0:0:none:Bonn:0:0:0:0:0:0:0:0:0:0.000E+00:0.000E+00:0.000E+00:0.000E+00:0:0:0:0:0:1476:Probed at Bonn, Iref = 0 with trim bits 0:No loaded to any board yet
TSMC_N25A67-05G5:TSMC_N25A67-05G5_7_10:7:10:2:green:4:2:IZM:0:0:0:none:Bonn:3.969915e-06:7:1.193102:19:1.201702:23:0.8976238:11:0:2.078E-04:2.077E-02:2.083E-04:2.123E-02:0:0:0:0:0:147A:Probed at Bonn, Iref = 3.969915e-06 with trim bits 7:No loaded to any board yet
TSMC_N25A67-05G5:TSMC_N25A67-05G5_4_9:4:9:1:yellow:4:1:IZM:0:0:0:none:Bonn:3.995951e-06:9:1.202286:19:1.199203:28:0.9029704:10:0:2.097E-04:1.820E-02:2.101E-04:1.831E-02:0:0:0:0:0:1449:Probed at Bonn, Iref = 3.995951e-06 with trim bits 9:No loaded to any board yet
TSMC_N25A67-05G5:TSMC_N25A67-05G5_2_3:2:3:10:red:4:10:IZM:0:0:0:none:Bonn:0:0:0:0:0:0:0:0:0:0.000E+00:0.000E+00:0.000E+00:0.000E+00:0:0:0:0:0:1423:Probed at Bonn, Iref = 0 with trim bits 0:No loaded to any board yet
TSMC_N25A67-05G5:TSMC_N25A67-05G5_3_4:3:4:1:yellow:4:1:IZM:0:0:0:none:Bonn:3.945185e-06:5:1.201027:21:1.189136:23:0.9004244:11:0:2.093E-04:1.857E-02:2.097E-04:1.864E-02:0:0:0:0:0:1434:Probed at Bonn, Iref = 3.945185e-06 with trim bits 5:No loaded to any board yet
TSMC_N25A67-05G5:TSMC_N25A67-05G5_4_4:4:4:1:yellow:4:1:IZM:0:0:0:none:Bonn:4.042211e-06:7:1.199458:25:1.200849:18:0.8964261:11:0:1.042E-08:7.513E-02:2.900E-09:1.184E-01:0:0:0:0:0:1444:Probed at Bonn, Iref = 4.042211e-06 with trim bits 7:No loaded to any board yet
TSMC_N25A67-05G5:TSMC_N25A67-05G5_4_10:4:10:2:green:4:2:IZM:0:0:0:none:Bonn:3.949981e-06:8:1.196683:21:1.208001:20:0.9048459:12:0:2.103E-04:1.774E-02:2.106E-04:1.801E-02:0:0:0:0:0:144A:Probed at Bonn, Iref = 3.949981e-06 with trim bits 8:No loaded to any board yet
TSMC_N25A67-05G5:TSMC_N25A67-05G5_4_3:4:3:10:red:4:10:IZM:0:0:0:none:Bonn:4.01733e-06:6:1.206109:30:1.193548:23:0.8983562:11:0:2.087E-04:1.776E-02:2.090E-04:1.788E-02:0:0:0:0:0:1443:Probed at Bonn, Iref = 4.01733e-06 with trim bits 6:No loaded to any board yet
TSMC_N25A67-05G5:TSMC_N25A67-05G5_6_1:6:1:2:green:4:2:IZM:0:0:0:none:Bonn:4.025313e-06:8:1.192474:23:1.197159:16:0.8990885:12:0:2.079E-04:2.391E-02:2.083E-04:2.399E-02:0:0:0:0:0:1461:Probed at Bonn, Iref = 4.025313e-06 with trim bits 8:No loaded to any board yet
TSMC_N25A67-05G5:TSMC_N25A67-05G5_5_7:5:7:1:yellow:4:1:IZM:0:0:0:none:Bonn:4.058143e-06:11:1.19591:21:1.200935:20:0.9019534:11:0:2.097E-04:1.921E-02:2.098E-04:1.961E-02:0:0:0:0:0:1457:Probed at Bonn, Iref = 4.058143e-06 with trim bits 11:No loaded to any board yet
TSMC_N25A67-05G5:TSMC_N25A67-05G5_9_8:9:8:2:green:4:2:IZM:0:0:0:none:Bonn:3.979001e-06:7:1.201589:17:1.205449:22:0.8949872:11:0:2.076E-04:1.793E-02:2.079E-04:1.820E-02:0:0:0:0:0:1498:Probed at Bonn, Iref = 3.979001e-06 with trim bits 7:No loaded to any board yet
TSMC_N25A67-05G5:TSMC_N25A67-05G5_10_7:10:7:10:red:4:10:IZM:0:0:0:none:Bonn:0:0:0:0:0:0:0:0:0:0.000E+00:0.000E+00:0.000E+00:0.000E+00:0:0:0:0:0:14A7:Probed at Bonn, Iref = 0 with trim bits 0:No loaded to any board yet
TSMC_N25A67-05G5:TSMC_N25A67-05G5_7_11:7:11:10:red:4:10:IZM:0:0:0:none:Bonn:3.993805e-06:6:1.197399:15:1.201843:22:0.9023337:10:0:2.112E-04:1.231E-02:2.114E-04:1.241E-02:0:0:0:0:0:147B:Probed at Bonn, Iref = 3.993805e-06 with trim bits 6:No loaded to any board yet
TSMC_N25A67-05G5:TSMC_N25A67-05G5_9_10:9:10:1:yellow:4:1:IZM:0:0:0:none:Bonn:4.045643e-06:6:1.197403:20:1.19728:24:0.90205:10:0:2.094E-04:1.801E-02:2.097E-04:1.819E-02:0:0:0:0:0:149A:Probed at Bonn, Iref = 4.045643e-06 with trim bits 6:No loaded to any board yet
TSMC_N25A67-05G5:TSMC_N25A67-05G5_3_5:3:5:10:red:4:10:IZM:0:0:0:none:Bonn:2.790902e-07:14:1.202492:30:1.197862:21:0.9012589:11:0:1.575E-08:7.920E-02:3.267E-09:1.226E-01:0:0:0:0:0:1435:Probed at Bonn, Iref = 2.790902e-07 with trim bits 14:No loaded to any board yet
TSMC_N25A67-05G5:TSMC_N25A67-05G5_4_7:4:7:1:yellow:4:1:IZM:0:0:0:none:Bonn:3.950144e-06:7:1.197287:24:1.202007:23:0.8994133:8:0:2.087E-04:1.924E-02:2.090E-04:1.943E-02:0:0:0:0:0:1447:Probed at Bonn, Iref = 3.950144e-06 with trim bits 7:No loaded to any board yet
TSMC_N25A67-05G5:TSMC_N25A67-05G5_7_4:7:4:1:yellow:4:1:IZM:0:0:0:none:Bonn:4.022091e-06:5:1.205056:16:1.196352:24:0.8965912:11:0:2.081E-04:1.775E-02:2.085E-04:1.785E-02:0:0:0:0:0:1474:Probed at Bonn, Iref = 4.022091e-06 with trim bits 5:No loaded to any board yet
TSMC_N25A67-05G5:TSMC_N25A67-05G5_10_5:10:5:1:yellow:4:1:IZM:0:0:0:none:Bonn:4.067765e-06:8:1.189071:23:1.191471:15:0.9029783:10:0:2.100E-04:1.785E-02:2.104E-04:1.791E-02:0:0:0:0:0:14A5:Probed at Bonn, Iref = 4.067765e-06 with trim bits 8:No loaded to any board yet
TSMC_N25A67-05G5:TSMC_N25A67-05G5_6_11:6:11:10:red:4:10:IZM:0:0:0:none:Bonn:3.988393e-06:7:1.203126:26:1.201381:21:0.8941844:7:0:2.076E-04:1.773E-02:2.081E-04:1.789E-02:0:0:0:0:0:146B:Probed at Bonn, Iref = 3.988393e-06 with trim bits 7:No loaded to any board yet
TSMC_N25A67-05G5:TSMC_N25A67-05G5_6_3:6:3:1:yellow:4:1:IZM:0:0:0:none:Bonn:3.93459e-06:5:1.19531:21:1.207451:26:0.8992919:8:0:2.067E-04:2.539E-02:2.070E-04:2.551E-02:0:0:0:0:0:1463:Probed at Bonn, Iref = 3.93459e-06 with trim bits 5:No loaded to any board yet
TSMC_N25A67-05G5:TSMC_N25A67-05G5_7_3:7:3:1:yellow:4:1:IZM:0:0:0:none:Bonn:4.030933e-06:7:1.198158:27:1.197376:25:0.9041239:12:0:2.098E-04:1.905E-02:2.102E-04:1.921E-02:0:0:0:0:0:1473:Probed at Bonn, Iref = 4.030933e-06 with trim bits 7:No loaded to any board yet
TSMC_N25A67-05G5:TSMC_N25A67-05G5_3_11:3:11:1:yellow:4:1:IZM:0:0:0:none:Bonn:3.972913e-06:7:1.191447:27:1.192972:19:0.89965:10:0:2.096E-04:1.927E-02:2.099E-04:1.954E-02:0:0:0:0:0:143B:Probed at Bonn, Iref = 3.972913e-06 with trim bits 7:No loaded to any board yet
TSMC_N25A67-05G5:TSMC_N25A67-05G5_5_1:5:1:10:red:4:10:IZM:0:0:0:none:Bonn:4.030366e-06:9:1.198532:21:1.206936:22:0.9003723:14:0:2.103E-04:1.616E-02:2.107E-04:1.636E-02:0:0:0:0:0:1451:Probed at Bonn, Iref = 4.030366e-06 with trim bits 9:No loaded to any board yet
TSMC_N25A67-05G5:TSMC_N25A67-05G5_2_8:2:8:10:red:4:10:IZM:0:0:0:none:Bonn:0:0:0:0:0:0:0:0:0:0.000E+00:0.000E+00:0.000E+00:0.000E+00:0:0:0:0:0:1428:Probed at Bonn, Iref = 0 with trim bits 0:No loaded to any board yet
TSMC_N25A67-05G5:TSMC_N25A67-05G5_5_11:5:11:1:yellow:4:1:IZM:0:0:0:none:Bonn:3.96197e-06:5:1.198978:20:1.204281:22:0.895004:11:0:2.072E-04:1.973E-02:2.074E-04:2.000E-02:0:0:0:0:0:145B:Probed at Bonn, Iref = 3.96197e-06 with trim bits 5:No loaded to any board yet
TSMC_N25A67-05G5:TSMC_N25A67-05G5_5_2:5:2:1:yellow:4:1:IZM:0:0:0:none:Bonn:3.988299e-06:8:1.197932:27:1.197385:22:0.9034461:12:0:2.099E-04:1.811E-02:2.102E-04:1.833E-02:0:0:0:0:0:1452:Probed at Bonn, Iref = 3.988299e-06 with trim bits 8:No loaded to any board yet
TSMC_N25A67-05G5:TSMC_N25A67-05G5_5_9:5:9:2:green:4:2:IZM:0:0:0:none:Bonn:4.057801e-06:7:1.195421:25:1.20098:24:0.9016902:9:0:2.093E-04:1.878E-02:2.096E-04:1.900E-02:0:0:0:0:0:1459:Probed at Bonn, Iref = 4.057801e-06 with trim bits 7:No loaded to any board yet
TSMC_N25A67-05G5:TSMC_N25A67-05G5_3_8:3:8:2:green:4:2:IZM:0:0:0:none:Bonn:4.017941e-06:9:1.202626:25:1.193789:17:0.8962247:11:0:2.080E-04:1.959E-02:2.083E-04:1.969E-02:0:0:0:0:0:1438:Probed at Bonn, Iref = 4.017941e-06 with trim bits 9:No loaded to any board yet
TSMC_N25A67-05G5:TSMC_N25A67-05G5_2_9:2:9:1:yellow:4:1:IZM:0:0:0:none:Bonn:4.011392e-06:7:1.206792:24:1.204938:26:0.8942179:7:0:2.062E-04:2.337E-02:2.065E-04:2.348E-02:0:0:0:0:0:1429:Probed at Bonn, Iref = 4.011392e-06 with trim bits 7:No loaded to any board yet
TSMC_N25A67-05G5:TSMC_N25A67-05G5_5_4:5:4:1:yellow:4:1:IZM:0:0:0:none:Bonn:3.966036e-06:6:1.19512:17:1.20378:22:0.900077:8:0:1.530E-08:7.915E-02:2.096E-04:1.761E-02:0:0:0:0:0:1454:Probed at Bonn, Iref = 3.966036e-06 with trim bits 6:No loaded to any board yet
TSMC_N25A67-05G5:TSMC_N25A67-05G5_7_9:7:9:10:red:4:10:IZM:0:0:0:none:Bonn:4.037204e-06:9:1.200235:23:1.204857:24:0.8984889:8:0:2.086E-04:1.785E-02:2.091E-04:1.793E-02:0:0:0:0:0:1479:Probed at Bonn, Iref = 4.037204e-06 with trim bits 9:No loaded to any board yet
TSMC_N25A67-05G5:TSMC_N25A67-05G5_4_5:4:5:10:red:4:10:IZM:0:0:0:none:Bonn:0:0:0:0:0:0:0:0:0:0.000E+00:0.000E+00:0.000E+00:0.000E+00:0:0:0:0:0:1445:Probed at Bonn, Iref = 0 with trim bits 0:No loaded to any board yet
TSMC_N25A67-05G5:TSMC_N25A67-05G5_7_8:7:8:10:red:4:10:IZM:0:0:0:none:Bonn:3.951272e-06:7:1.196005:24:1.197668:21:0.838149:4:0:1.945E-04:1.706E-02:1.949E-04:1.710E-02:0:0:0:0:0:1478:Probed at Bonn, Iref = 3.951272e-06 with trim bits 7:No loaded to any board yet
TSMC_N25A67-05G5:TSMC_N25A67-05G5_6_12:6:12:1:yellow:4:1:IZM:0:0:0:none:Bonn:3.973765e-06:6:1.204882:24:1.208352:24:0.8981333:10:0:2.086E-04:1.933E-02:2.091E-04:1.942E-02:0:0:0:0:0:146C:Probed at Bonn, Iref = 3.973765e-06 with trim bits 6:No loaded to any board yet
TSMC_N25A67-05G5:TSMC_N25A67-05G5_6_10:6:10:1:yellow:4:1:IZM:0:0:0:none:Bonn:4.027883e-06:6:1.206004:24:1.197131:24:0.8998034:10:0:2.090E-04:1.804E-02:2.093E-04:1.820E-02:0:0:0:0:0:146A:Probed at Bonn, Iref = 4.027883e-06 with trim bits 6:No loaded to any board yet
TSMC_N25A67-05G5:TSMC_N25A67-05G5_6_4:6:4:1:yellow:4:1:IZM:0:0:0:none:Bonn:4.018558e-06:8:1.19933:23:1.210783:24:0.8995596:9:0:2.081E-04:1.966E-02:2.087E-04:1.965E-02:0:0:0:0:0:1464:Probed at Bonn, Iref = 4.018558e-06 with trim bits 8:No loaded to any board yet
TSMC_N25A67-05G5:TSMC_N25A67-05G5_8_6:8:6:2:green:4:2:IZM:0:0:0:none:Bonn:4.049155e-06:7:1.194309:19:1.196988:20:0.9005512:10:0:2.066E-04:2.782E-02:2.069E-04:2.805E-02:0:0:0:0:0:1486:Probed at Bonn, Iref = 4.049155e-06 with trim bits 7:No loaded to any board yet
TSMC_N25A67-05G5:TSMC_N25A67-05G5_5_12:5:12:1:yellow:4:1:IZM:0:0:0:none:Bonn:3.945755e-06:7:1.205459:28:1.195725:21:0.9013752:11:0:2.096E-04:1.739E-02:2.099E-04:1.769E-02:0:0:0:0:0:145C:Probed at Bonn, Iref = 3.945755e-06 with trim bits 7:No loaded to any board yet
TSMC_N25A67-05G5:TSMC_N25A67-05G5_1_7:1:7:10:red:4:10:IZM:0:0:0:none:Bonn:3.95662e-06:7:1.190896:29:1.10198:14:0.8648764:1:0:2.007E-04:1.982E-02:2.012E-04:1.993E-02:0:0:0:0:0:1417:Probed at Bonn, Iref = 3.95662e-06 with trim bits 7:No loaded to any board yet
TSMC_N25A67-05G5:TSMC_N25A67-05G5_6_2:6:2:1:yellow:4:1:IZM:0:0:0:none:Bonn:3.995598e-06:9:1.191922:19:1.199176:19:0.8990471:11:0:2.087E-04:1.830E-02:2.090E-04:1.847E-02:0:0:0:0:0:1462:Probed at Bonn, Iref = 3.995598e-06 with trim bits 9:No loaded to any board yet
TSMC_N25A67-05G5:TSMC_N25A67-05G5_4_2:4:2:1:yellow:4:1:IZM:0:0:0:none:Bonn:3.966181e-06:7:1.196793:26:1.203694:22:0.9025176:12:0:2.093E-04:1.745E-02:2.096E-04:1.743E-02:0:0:0:0:0:1442:Probed at Bonn, Iref = 3.966181e-06 with trim bits 7:No loaded to any board yet
TSMC_N25A67-05G5:TSMC_N25A67-05G5_9_5:9:5:10:red:4:10:IZM:0:0:0:none:Bonn:3.941761e-06:4:1.187717:23:1.200723:20:0.8973375:11:0:2.081E-04:1.800E-02:2.086E-04:1.818E-02:0:0:0:0:0:1495:Probed at Bonn, Iref = 3.941761e-06 with trim bits 4:No loaded to any board yet
TSMC_N25A67-05G5:TSMC_N25A67-05G5_3_10:3:10:1:yellow:4:1:IZM:0:0:0:none:Bonn:4.019853e-06:6:1.204925:18:1.201254:21:0.9006079:9:0:2.087E-04:1.910E-02:2.089E-04:1.947E-02:0:0:0:0:0:143A:Probed at Bonn, Iref = 4.019853e-06 with trim bits 6:No loaded to any board yet
TSMC_N25A67-05G5:TSMC_N25A67-05G5_5_8:5:8:1:yellow:4:1:IZM:0:0:0:none:Bonn:3.972467e-06:8:1.207856:24:1.201433:18:0.9003012:10:0:2.078E-04:2.096E-02:2.082E-04:2.109E-02:0:0:0:0:0:1458:Probed at Bonn, Iref = 3.972467e-06 with trim bits 8:No loaded to any board yet
TSMC_N25A67-05G5:TSMC_N25A67-05G5_4_6:4:6:1:yellow:4:1:IZM:0:0:0:none:Bonn:3.961748e-06:7:1.198764:24:1.204307:23:0.8980638:12:0:2.088E-04:1.657E-02:2.091E-04:1.677E-02:0:0:0:0:0:1446:Probed at Bonn, Iref = 3.961748e-06 with trim bits 7:No loaded to any board yet
TSMC_N25A67-05G5:TSMC_N25A67-05G5_2_10:2:10:2:green:4:2:IZM:0:0:0:none:Bonn:4.009788e-06:4:1.199899:19:1.196683:21:0.8961357:7:0:2.052E-04:3.299E-02:2.056E-04:3.314E-02:0:0:0:0:0:142A:Probed at Bonn, Iref = 4.009788e-06 with trim bits 4:No loaded to any board yet
TSMC_N25A67-05G5:TSMC_N25A67-05G5_7_5:7:5:1:yellow:4:1:IZM:0:0:0:none:Bonn:4.016646e-06:6:1.206843:24:1.203101:18:0.8988771:9:0:2.082E-04:1.818E-02:2.086E-04:1.823E-02:0:0:0:0:0:1475:Probed at Bonn, Iref = 4.016646e-06 with trim bits 6:No loaded to any board yet
TSMC_N25A67-05G5:TSMC_N25A67-05G5_3_7:3:7:2:green:4:2:IZM:0:0:0:none:Bonn:4.026057e-06:8:1.20096:28:1.196509:22:0.8990041:9:0:2.081E-04:2.144E-02:2.083E-04:2.175E-02:0:0:0:0:0:1437:Probed at Bonn, Iref = 4.026057e-06 with trim bits 8:No loaded to any board yet
TSMC_N25A67-05G5:TSMC_N25A67-05G5_8_11:8:11:1:yellow:4:1:IZM:0:0:0:none:Bonn:4.012988e-06:7:1.20524:24:1.193506:21:0.9024249:12:0:2.103E-04:1.660E-02:2.107E-04:1.667E-02:0:0:0:0:0:148B:Probed at Bonn, Iref = 4.012988e-06 with trim bits 7:No loaded to any board yet
TSMC_N25A67-05G5:TSMC_N25A67-05G5_2_5:2:5:1:yellow:4:1:IZM:0:0:0:none:Bonn:4.013975e-06:8:1.203768:26:1.199324:20:0.902467:8:0:2.086E-04:2.151E-02:2.091E-04:2.157E-02:0:0:0:0:0:1425:Probed at Bonn, Iref = 4.013975e-06 with trim bits 8:No loaded to any board yet
TSMC_N25A67-05G5:TSMC_N25A67-05G5_8_9:8:9:1:yellow:4:1:IZM:0:0:0:none:Bonn:4.048535e-06:8:1.198028:18:1.204131:27:0.8988491:9:0:2.087E-04:1.755E-02:2.091E-04:1.781E-02:0:0:0:0:0:1489:Probed at Bonn, Iref = 4.048535e-06 with trim bits 8:No loaded to any board yet
TSMC_N25A67-05G5:TSMC_N25A67-05G5_4_8:4:8:10:red:4:10:IZM:0:0:0:none:Bonn:3.991837e-06:5:1.202443:27:1.201945:19:0.8989053:10:0:2.093E-04:1.688E-02:2.097E-04:1.697E-02:0:0:0:0:0:1448:Probed at Bonn, Iref = 3.991837e-06 with trim bits 5:No loaded to any board yet
TSMC_N25A67-05G5:TSMC_N25A67-05G5_9_7:9:7:1:yellow:4:1:IZM:0:0:0:none:Bonn:4.024827e-06:8:1.201589:22:1.202174:25:0.9032727:10:0:2.095E-04:1.789E-02:2.098E-04:1.803E-02:0:0:0:0:0:1497:Probed at Bonn, Iref = 4.024827e-06 with trim bits 8:No loaded to any board yet
TSMC_N25A67-05G5:TSMC_N25A67-05G5_3_3:3:3:1:yellow:4:1:IZM:0:0:0:none:Bonn:3.996442e-06:7:1.199874:22:1.196528:22:0.899129:10:0:2.094E-04:1.621E-02:2.097E-04:1.632E-02:0:0:0:0:0:1433:Probed at Bonn, Iref = 3.996442e-06 with trim bits 7:No loaded to any board yet
TSMC_N25A67-05G5:TSMC_N25A67-05G5_3_9:3:9:1:yellow:4:1:IZM:0:0:0:none:Bonn:3.95205e-06:8:1.207381:20:1.194251:25:0.8949343:11:0:2.077E-04:1.857E-02:2.079E-04:1.881E-02:0:0:0:0:0:1439:Probed at Bonn, Iref = 3.95205e-06 with trim bits 8:No loaded to any board yet
TSMC_N25A67-05G5:TSMC_N25A67-05G5_4_12:4:12:10:red:4:10:IZM:0:0:0:none:Bonn:0:0:0:0:0:0:0:0:0:0.000E+00:0.000E+00:0.000E+00:0.000E+00:0:0:0:0:0:144C:Probed at Bonn, Iref = 0 with trim bits 0:No loaded to any board yet
TSMC_N25A67-05G5:TSMC_N25A67-05G5_9_3:9:3:2:green:4:2:IZM:0:0:0:none:Bonn:3.973862e-06:8:1.205409:24:1.197838:18:0.8984638:11:0:2.088E-04:1.939E-02:2.092E-04:1.948E-02:0:0:0:0:0:1493:Probed at Bonn, Iref = 3.973862e-06 with trim bits 8:No loaded to any board yet
TSMC_N25A67-05G5:TSMC_N25A67-05G5_6_6:6:6:1:yellow:4:1:IZM:0:0:0:none:Bonn:3.994985e-06:9:1.209742:28:1.209769:24:0.9017721:12:0:2.091E-04:1.903E-02:2.094E-04:1.927E-02:0:0:0:0:0:1466:Probed at Bonn, Iref = 3.994985e-06 with trim bits 9:No loaded to any board yet
TSMC_N25A67-05G5:TSMC_N25A67-05G5_2_4:2:4:10:red:4:10:IZM:0:0:0:none:Bonn:0:0:0:0:0:0:0:0:0:0.000E+00:0.000E+00:0.000E+00:0.000E+00:0:0:0:0:0:1424:Probed at Bonn, Iref = 0 with trim bits 0:No loaded to any board yet
TSMC_N25A67-05G5:TSMC_N25A67-05G5_5_10:5:10:1:yellow:4:1:IZM:0:0:0:none:Bonn:3.947179e-06:5:1.196974:22:1.200392:23:0.8979965:10:0:2.080E-04:1.857E-02:2.084E-04:1.892E-02:0:0:0:0:0:145A:Probed at Bonn, Iref = 3.947179e-06 with trim bits 5:No loaded to any board yet
TSMC_N25A67-05G5:TSMC_N25A67-05G5_8_4:8:4:1:yellow:4:1:IZM:0:0:0:none:Bonn:3.974444e-06:9:1.198638:26:1.202494:22:0.9019983:13:0:2.092E-04:1.700E-02:2.096E-04:1.723E-02:0:0:0:0:0:1484:Probed at Bonn, Iref = 3.974444e-06 with trim bits 9:No loaded to any board yet
TSMC_N25A67-05G5:TSMC_N25A67-05G5_9_4:9:4:10:red:4:10:IZM:0:0:0:none:Bonn:4.027591e-06:9:1.196419:31:1.204846:24:0.8982158:8:0:2.079E-04:1.848E-02:2.083E-04:1.844E-02:0:0:0:0:0:1494:Probed at Bonn, Iref = 4.027591e-06 with trim bits 9:No loaded to any board yet
TSMC_N25A67-05G5:TSMC_N25A67-05G5_6_8:6:8:10:red:4:10:IZM:0:0:0:none:Bonn:3.97497e-06:5:1.196174:26:1.193006:25:0.9022397:10:0:2.084E-04:2.153E-02:2.087E-04:2.178E-02:0:0:0:0:0:1468:Probed at Bonn, Iref = 3.97497e-06 with trim bits 5:No loaded to any board yet
TSMC_N25A67-05G5:TSMC_N25A67-05G5_7_2:7:2:1:yellow:4:1:IZM:0:0:0:none:Bonn:3.969064e-06:9:1.195415:23:1.19519:21:0.8988311:11:0:2.082E-04:1.796E-02:2.086E-04:1.807E-02:0:0:0:0:0:1472:Probed at Bonn, Iref = 3.969064e-06 with trim bits 9:No loaded to any board yet
TSMC_N25A67-05G5:TSMC_N25A67-05G5_6_5:6:5:10:red:4:10:IZM:0:0:0:none:Bonn:3.929137e-06:7:1.198128:28:1.199399:24:0.8985462:8:0:2.079E-04:2.006E-02:2.082E-04:2.064E-02:0:0:0:0:0:1465:Probed at Bonn, Iref = 3.929137e-06 with trim bits 7:No loaded to any board yet
TSMC_N25A67-05G5:TSMC_N25A67-05G5_5_6:5:6:1:yellow:4:1:IZM:0:0:0:none:Bonn:4.014622e-06:10:1.197902:23:1.196362:24:0.8998562:8:0:2.083E-04:1.906E-02:2.087E-04:1.924E-02:0:0:0:0:0:1456:Probed at Bonn, Iref = 4.014622e-06 with trim bits 10:No loaded to any board yet
TSMC_N25A67-05G5:TSMC_N25A67-05G5_9_6:9:6:10:red:4:10:IZM:0:0:0:none:Bonn:0:0:0:0:0:0:0:0:0:0.000E+00:0.000E+00:0.000E+00:0.000E+00:0:0:0:0:0:1496:Probed at Bonn, Iref = 0 with trim bits 0:No loaded to any board yet
TSMC_N25A67-05G5:TSMC_N25A67-05G5_8_3:8:3:1:yellow:4:1:IZM:0:0:0:none:Bonn:3.964189e-06:9:1.212675:24:1.207062:20:0.9020396:12:0:2.089E-04:1.917E-02:2.093E-04:1.918E-02:0:0:0:0:0:1483:Probed at Bonn, Iref = 3.964189e-06 with trim bits 9:No loaded to any board yet
TSMC_N25A67-05G5:TSMC_N25A67-05G5_2_7:2:7:10:red:4:10:IZM:0:0:0:none:Bonn:4.001265e-06:6:1.193282:30:1.206105:26:0.8996193:13:0:2.085E-04:2.047E-02:2.089E-04:2.069E-02:0:0:0:0:0:1427:Probed at Bonn, Iref = 4.001265e-06 with trim bits 6:No loaded to any board yet
TSMC_N25A67-05G5:TSMC_N25A67-05G5_2_6:2:6:10:red:4:10:IZM:0:0:0:none:Bonn:0:0:0:0:0:0:0:0:0:0.000E+00:0.000E+00:0.000E+00:0.000E+00:0:0:0:0:0:1426:Probed at Bonn, Iref = 0 with trim bits 0:No loaded to any board yet
TSMC_N25A67-05G5:TSMC_N25A67-05G5_8_8:8:8:1:yellow:4:1:IZM:0:0:0:none:Bonn:4.050881e-06:6:1.197976:20:1.202323:25:0.9036916:12:0:2.088E-04:2.021E-02:2.092E-04:2.034E-02:0:0:0:0:0:1488:Probed at Bonn, Iref = 4.050881e-06 with trim bits 6:No loaded to any board yet
TSMC_N25A67-05G5:TSMC_N25A67-05G5_4_11:4:11:10:red:4:10:IZM:0:0:0:none:Bonn:0:0:0:0:0:0:0:0:0:0.000E+00:0.000E+00:0.000E+00:0.000E+00:0:0:0:0:0:144B:Probed at Bonn, Iref = 0 with trim bits 0:No loaded to any board yet
TSMC_N25A67-05G5:TSMC_N25A67-05G5_6_9:6:9:1:yellow:4:1:IZM:0:0:0:none:Bonn:4.047444e-06:6:1.200572:22:1.195552:19:0.9032144:12:0:1.627E-09:7.971E-02:-2.333E-10:1.232E-01:0:0:0:0:0:1469:Probed at Bonn, Iref = 4.047444e-06 with trim bits 6:No loaded to any board yet
TSMC_N25A67-05G5:TSMC_N25A67-05G5_5_5:5:5:2:green:4:2:IZM:0:0:0:none:Bonn:3.962421e-06:8:1.19149:31:1.198345:19:0.8982721:11:0:2.070E-04:2.508E-02:2.076E-04:2.543E-02:0:0:0:0:0:1455:Probed at Bonn, Iref = 3.962421e-06 with trim bits 8:No loaded to any board yet
TSMC_N25A67-05G5:TSMC_N25A67-05G5_10_6:10:6:1:yellow:4:1:IZM:0:0:0:none:Bonn:4.039623e-06:8:1.203858:29:1.201414:23:0.9017227:12:0:2.096E-04:1.562E-02:2.099E-04:1.591E-02:0:0:0:0:0:14A6:Probed at Bonn, Iref = 4.039623e-06 with trim bits 8:No loaded to any board yet
TSMC_N25A67-05G5:TSMC_N25A67-05G5_7_12:7:12:1:yellow:4:1:IZM:0:0:0:none:Bonn:3.964493e-06:5:1.207775:24:1.212785:24:0.9062893:8:0:2.119E-04:1.593E-02:2.122E-04:1.629E-02:0:0:0:0:0:147C:Probed at Bonn, Iref = 3.964493e-06 with trim bits 5:No loaded to any board yet
TSMC_N25A67-05G5:TSMC_N25A67-05G5_10_8:10:8:2:green:4:2:IZM:0:0:0:none:Bonn:4.029675e-06:8:1.205976:26:1.195916:21:0.8990878:9:0:2.080E-04:2.172E-02:2.083E-04:2.181E-02:0:0:0:0:0:14A8:Probed at Bonn, Iref = 4.029675e-06 with trim bits 8:No loaded to any board yet
TSMC_N25A67-05G5:TSMC_N25A67-05G5_7_7:7:7:2:green:4:2:IZM:0:0:0:none:Bonn:3.968754e-06:7:1.20186:22:1.191857:23:0.9050893:12:0:1.683E-08:7.875E-02:2.107E-04:1.704E-02:0:0:0:0:0:1477:Probed at Bonn, Iref = 3.968754e-06 with trim bits 7:No loaded to any board yet
TSMC_N25A67-05G5:TSMC_N25A67-05G5_1_8:1:8:10:red:4:10:IZM:0:0:0:none:Bonn:0:0:0:0:0:0:0:0:0:0.000E+00:0.000E+00:0.000E+00:0.000E+00:0:0:0:0:0:1418:Probed at Bonn, Iref = 0 with trim bits 0:No loaded to any board yet
TSMC_N25A67-05G5:TSMC_N25A67-05G5_3_6:3:6:1:yellow:4:1:IZM:0:0:0:none:Bonn:4.054154e-06:6:1.203177:27:1.199553:20:0.8995733:8:0:2.087E-04:1.789E-02:2.090E-04:1.824E-02:0:0:0:0:0:1436:Probed at Bonn, Iref = 4.054154e-06 with trim bits 6:No loaded to any board yet
TSMC_N25A67-05G5:TSMC_N25A67-05G5_8_7:8:7:10:red:4:10:IZM:0:0:0:none:Bonn:4.014792e-06:7:1.196649:28:1.200308:23:0.9005376:14:0:2.093E-04:1.776E-02:2.099E-04:1.778E-02:0:0:0:0:0:1487:Probed at Bonn, Iref = 4.014792e-06 with trim bits 7:No loaded to any board yet
TSMC_N25A67-05G5:TSMC_N25A67-05G5_8_5:8:5:1:yellow:4:1:IZM:0:0:0:none:Bonn:3.971286e-06:8:1.203788:27:1.202203:23:0.9013818:13:0:2.092E-04:1.785E-02:2.095E-04:1.794E-02:0:0:0:0:0:1485:Probed at Bonn, Iref = 3.971286e-06 with trim bits 8:No loaded to any board yet
